순위,영화명,개봉일,매출액,매출액점유율,누적매출액,관객수,누적관객수,스크린수,상영횟수,대표국적,국적,배급사
1,중경삼림,02-Sep,189468550 ,21.0%,839689120 ,19875 ,89630 ,120 ,1650 ,홍콩,홍콩,(주)디스테이션
2,스펜서,16-Mar,85283400 ,9.4%,773825230 ,9779 ,82016 ,116 ,1183 ,영국,영국,"(주)영화특별시에스엠씨,그린나래미디어(주)"
3,극장판 시그널,31-Mar,50079700 ,5.5%,61115200 ,8270 ,10041 ,86 ,979 ,일본,일본,트윈플러스파트너스(주)
4,코다,31-Aug,69726000 ,7.7%,666268039 ,7343 ,73183 ,57 ,1136 ,프랑스,프랑스,판씨네마(주)
5,패러렐 마더스,31-Mar,63656000 ,7.1%,84425900 ,6912 ,9147 ,77 ,1129 ,스페인,스페인,(주)스튜디오디에이치엘
6,로망스 돌,01-Apr,27617700 ,3.1%,27617700 ,5273 ,5273 ,7 ,219 ,일본,일본,(주)미디어캐슬
7,드라이브 마이 카,23-Dec,34383770 ,3.8%,709881410 ,4396 ,76648 ,43 ,558 ,일본,일본,(주)트리플픽쳐스
8,드라이,30-Mar,34110680 ,3.8%,53155980 ,4171 ,6310 ,110 ,787 ,호주,호주,(주)영화사 진진
9,약속의 네버랜드,07-Apr,22284300 ,2.5%,23094300 ,3069 ,3159 ,59 ,563 ,일본,일본,(주)디스테이션
10,벨파스트,23-Mar,27811100 ,3.1%,127644370 ,2893 ,13965 ,71 ,639 ,미국,미국,유니버설픽쳐스인터내셔널 코리아(유)
11,초속5센티미터,21-Jun,14397500 ,1.6%,285303932 ,2737 ,47465 ,5 ,84 ,일본,일본,"(주)미디어캐슬,대원디지털엔터테인먼트,(주)팝엔터테인먼트"
12,사랑 후의 두 여자,30-Mar,23642280 ,2.6%,39477180 ,2713 ,4626 ,53 ,587 ,영국,영국,판씨네마(주)
13,내가 처음으로 사랑한 소녀,27-Apr,19479470 ,2.2%,19479470 ,2383 ,2383 ,68 ,321 ,홍콩,홍콩,(주)박수엔터테인먼트
14,할머니 로드,,10095000 ,1.1%,10095000 ,1989 ,1989 ,5 ,68 ,일본,일본,(주)미디어캐슬
15,열대왕사,21-Apr,12945360 ,1.4%,12945360 ,1961 ,1961 ,25 ,188 ,중국,중국,(주)싸이더스
16,그리스도 디 오리진,14-Apr,17593800 ,1.9%,17593800 ,1902 ,1902 ,71 ,407 ,기타,기타,(주)까멜리아이엔티
17,나의 집은 어디인가,07-Apr,13857040 ,1.5%,19423040 ,1474 ,1953 ,34 ,390 ,기타,기타,주식회사 왓챠
18,우리가 사랑이라고 믿는 것,24-Feb,13569500 ,1.5%,133268030 ,1459 ,14389 ,10 ,178 ,영국,영국,(주)티캐스트
19,패왕별희 디 오리지널,30-Mar,15825100 ,1.8%,1060879690 ,1458 ,115102 ,2 ,45 ,중국,중국,"(주)제이앤씨미디어그룹,(주)드림팩트엔터테인먼트"
20,안테벨룸,23-Feb,7299000 ,0.8%,899691250 ,1457 ,95983 ,4 ,9 ,미국,미국,(주)올스타엔터테인먼트
21,만년이 지나도 변하지 않는 게 있어,09-Feb,6924000 ,0.8%,206009110 ,1384 ,24441 ,5 ,11 ,대만,대만,"그린나래미디어(주),(주)영화사벌집"
22,해피 투게더,22-Aug,12593900 ,1.4%,352915120 ,1210 ,38371 ,20 ,113 ,홍콩,홍콩,(주)디스테이션
23,고스팅 글로리아,14-Apr,10945200 ,1.2%,10945200 ,1208 ,1208 ,20 ,156 ,우루과이,우루과이,(주)블루라벨픽쳐스
24,아비정전,22-Dec,9244900 ,1.0%,238445070 ,895 ,31812 ,20 ,100 ,홍콩,홍콩,(주)디스테이션
25,달빛 그림자,27-Apr,5827600 ,0.6%,5827600 ,795 ,795 ,40 ,138 ,일본,일본,(주)영화사오원
26,어거스트 버진,24-Mar,5838900 ,0.6%,21631600 ,721 ,2569 ,21 ,215 ,스페인,스페인,M&M 인터내셔널
27,우연과 상상,04-May,6214600 ,0.7%,7278600 ,718 ,851 ,4 ,8 ,일본,일본,"그린나래미디어(주),(주)영화사 안다미로"
28,팔마,21-Apr,5572400 ,0.6%,5572400 ,617 ,617 ,15 ,103 ,러시아,러시아,(주)라이크콘텐츠
29,녹색광선,,5006000 ,0.6%,18844000 ,578 ,2588 ,3 ,19 ,프랑스,프랑스,(주)영화사 안다미로
30,베이비 길들이기,,1429000 ,0.2%,8014000 ,464 ,3401 ,1 ,12 ,미국,미국,
31,레미제라블 디 오리지널,,966000 ,0.1%,12500000 ,457 ,6062 ,1 ,13 ,독일,독일,
32,파리의 피아니스트: 후지코 헤밍의 시간들,27-Apr,3457700 ,0.4%,3582700 ,434 ,448 ,16 ,78 ,일본,일본,(주)엣나인필름
33,동경 이야기,16-Aug,4587000 ,0.5%,20174900 ,433 ,2355 ,14 ,32 ,일본,일본,"(주)엣나인필름,오드"
34,레벤느망,10-Mar,3914500 ,0.4%,65394170 ,429 ,7247 ,11 ,90 ,프랑스,프랑스,"(주)영화특별시에스엠씨,주식회사 왓챠"
35,유어 러브 송,16-Mar,2921400 ,0.3%,25588700 ,426 ,3478 ,16 ,80 ,홍콩,홍콩,(주)다자인소프트
36,리코리쉬 피자,16-Feb,4216200 ,0.5%,213659700 ,398 ,21168 ,6 ,55 ,미국,미국,유니버설픽쳐스인터내셔널 코리아(유)
37,해변의 폴린,,3135000 ,0.3%,11738000 ,360 ,1574 ,3 ,8 ,프랑스,프랑스,(주)영화사 안다미로
38,웨이트: 감각에 눈뜰 때,14-Apr,1700000 ,0.2%,1700000 ,340 ,340 ,5 ,17 ,핀란드,핀란드,"주식회사 풍경소리,(주)타임앤드스페이스"
39,하늘의 푸르름을 아는 사람이여,16-Mar,2797700 ,0.3%,105987080 ,330 ,11876 ,7 ,70 ,일본,일본,(주)넥스트엔터테인먼트월드(NEW)
40,인터멧조,,1048000 ,0.1%,6659000 ,319 ,3112 ,1 ,12 ,미국,미국,
41,애정,,610000 ,0.1%,6608000 ,305 ,3234 ,1 ,9 ,미국,미국,
42,수색자,,596000 ,0.1%,16523000 ,298 ,7498 ,1 ,9 ,미국,미국,
43,에펠,23-Mar,2607560 ,0.3%,66593890 ,293 ,7209 ,11 ,51 ,프랑스,프랑스,"주식회사 블루필름웍스,(주)플레이그램"
44,"파리, 13구",12-May,2280000 ,0.3%,2946000 ,285 ,373 ,2 ,2 ,프랑스,프랑스,"찬란,(주)하이스트레인저"
45,로즈마리,,555000 ,0.1%,7307000 ,275 ,3646 ,1 ,9 ,미국,미국,
46,키즈 리턴,28-Sep,2314000 ,0.3%,6748000 ,207 ,731 ,1 ,9 ,일본,일본,
47,레드 로켓,12-Mar,2019000 ,0.2%,9864000 ,205 ,1019 ,6 ,40 ,미국,미국,유니버설픽쳐스인터내셔널 코리아(유)
48,"조제, 호랑이 그리고 물고기들",31-Mar,1485530 ,0.2%,235193220 ,202 ,25866 ,3 ,18 ,일본,일본,(주)팝엔터테인먼트
49,어웨이,04-Aug,2000000 ,0.2%,14682400 ,200 ,1665 ,3 ,3 ,기타,기타,(주)씨네필운
49,완벽한 축사를 준비하는 방법,19-May,2000000 ,0.2%,2499000 ,200 ,251 ,1 ,1 ,프랑스,프랑스,판씨네마(주)
51,천국에서 무덤까지,07-Apr,1890800 ,0.2%,1890800 ,191 ,191 ,12 ,92 ,영국,영국,예지림엔터테인먼트
52,여름이야기,13-Jun,1646000 ,0.2%,12015000 ,177 ,1615 ,1 ,5 ,프랑스,프랑스,(주)영화사 안다미로
52,그 여름 가장 조용한 바다,13-Aug,2006000 ,0.2%,38295034 ,177 ,5513 ,2 ,7 ,일본,일본,"(주)영화사 진진,(주)스폰지이엔티"
54,봄 이야기,,1646000 ,0.2%,8124000 ,172 ,1113 ,1 ,5 ,프랑스,프랑스,(주)영화사 안다미로
55,노인과 바다,,370500 ,0.0%,7871500 ,161 ,3916 ,1 ,18 ,미국,미국,
56,대명금의위,06-Apr,268000 ,0.0%,268000 ,148 ,148 ,5 ,118 ,중국,중국,(유)조이앤시네마
57,가을이야기,,1252500 ,0.1%,9031500 ,136 ,1236 ,1 ,4 ,프랑스,프랑스,(주)영화사 안다미로
58,대전투 1944,06-Apr,255000 ,0.0%,255000 ,135 ,135 ,5 ,106 ,독일,독일,(유)조이앤시네마
59,아무도 모른다,01-Apr,1312000 ,0.1%,261655000 ,127 ,39622 ,1 ,3 ,일본,일본,"(주)디스테이션,(주)동숭아트센터"
60,겨울 이야기,,1046000 ,0.1%,8479000 ,110 ,1229 ,1 ,4 ,프랑스,프랑스,(주)영화사 안다미로
61,어나더 라운드,19-Jan,1181000 ,0.1%,335051390 ,108 ,36127 ,1 ,12 ,기타,기타,(주)엣나인필름
62,스프링 블라썸,04-May,918000 ,0.1%,1359000 ,102 ,151 ,1 ,1 ,프랑스,프랑스,(주)영화사 진진
62,행복을 전하는 편지,13-Apr,839570 ,0.1%,839570 ,102 ,102 ,9 ,56 ,러시아,러시아,(주)히스토리필름
64,도진강호,21-Apr,500000 ,0.1%,500000 ,100 ,100 ,5 ,5 ,중국,중국,초코필름
64,어라이즈,07-Apr,500000 ,0.1%,500000 ,100 ,100 ,5 ,5 ,호주,호주,(주)제이에이와이이엔터테인먼트
66,더 컨테이젼: 바이러스의 습격,30-Mar,97000 ,0.0%,256000 ,97 ,136 ,2 ,97 ,중국,중국,(유)조이앤시네마
66,나쁜 교육,17-Sep,645000 ,0.1%,142299500 ,97 ,21608 ,2 ,14 ,스페인,스페인,"해피송,(주)스폰지이엔티,(주)홈초이스"
68,브로큰 임브레이스,19-Nov,655000 ,0.1%,114203000 ,95 ,15024 ,2 ,16 ,스페인,스페인,"해피송,유니버설픽쳐스인터내셔널 코리아(유),(주)홈초이스"
69,너의 새는 노래할 수 있어,16-Apr,872000 ,0.1%,22142900 ,94 ,2468 ,1 ,1 ,일본,일본,(주)디오시네마
70,금의위4 지존무사,13-Apr,207000 ,0.0%,207000 ,87 ,87 ,5 ,60 ,중국,중국,(유)조이앤시네마
71,하나비,05-Dec,922000 ,0.1%,5464000 ,85 ,631 ,1 ,2 ,일본,일본,
72,이도공간,05-Jun,842000 ,0.1%,59958300 ,84 ,6309 ,1 ,3 ,홍콩,홍콩,(주)엣나인필름
73,귀향,21-Sep,489000 ,0.1%,181127500 ,82 ,26566 ,2 ,11 ,스페인,스페인,"해피송,(주)스폰지이엔티,(주)홈초이스"
73,환상의 빛,07-Jul,917000 ,0.1%,157487500 ,82 ,19756 ,1 ,3 ,일본,일본,주식회사 씨네룩스
75,원더풀 라이프,09-Dec,873000 ,0.1%,183027600 ,81 ,22183 ,1 ,2 ,일본,일본,"(주)영화사 안다미로,(주)라이크콘텐츠,㈜영화사 백두대간"
76,레닌그라드 카우보이 미국에 가다,18-May,585000 ,0.1%,4394500 ,80 ,644 ,1 ,1 ,핀란드,핀란드,
77,화양연화,20-Oct,784000 ,0.1%,1086487170 ,77 ,121430 ,3 ,27 ,홍콩,"홍콩,프랑스",(주)디스테이션
78,너를 보내는 숲,24-Apr,821000 ,0.1%,56041100 ,76 ,8129 ,1 ,2 ,일본,일본,(주)영화사 진진
79,기인들,,74000 ,0.0%,10090500 ,74 ,4592 ,1 ,4 ,미국,미국,
80,그 남자는 타이타닉을 보고 싶지 않았다,10-Mar,541000 ,0.1%,22556640 ,73 ,2492 ,5 ,39 ,핀란드,핀란드,주식회사 슈아픽처스
81,"사비나: 그리스도를 위한 고난, 나치 시대",25-Nov,72000 ,0.0%,29497840 ,72 ,2986 ,1 ,4 ,미국,미국,커넥트픽쳐스(주)
82,오두막,20-Apr,770000 ,0.1%,596773000 ,70 ,77780 ,1 ,1 ,미국,미국,판씨네마(주)
82,버스정류장,,70000 ,0.0%,4891000 ,70 ,2263 ,1 ,4 ,미국,미국,
84,휴먼 보이스,,372000 ,0.0%,9817500 ,68 ,1102 ,1 ,7 ,스페인,스페인,찬란
84,슬픔이여 안녕,,175000 ,0.0%,8870000 ,68 ,4396 ,1 ,6 ,미국,미국,
86,라이브 플래쉬,09-Oct,374000 ,0.0%,895000 ,67 ,151 ,2 ,10 ,스페인,스페인,"해피송,(주)홈초이스"
86,도쿄 소나타,19-Mar,712000 ,0.1%,36510400 ,67 ,5358 ,1 ,2 ,일본,"일본,홍콩,네덜란드",(주)스폰지이엔티
88,아망떼,17-Mar,393000 ,0.0%,7418200 ,62 ,870 ,5 ,40 ,프랑스,프랑스,(주)블루라벨픽쳐스
89,그녀에게,18-Apr,447000 ,0.0%,56638252 ,59 ,7561 ,3 ,12 ,스페인,스페인,"판씨네마(주),(주)미로비젼"
90,과거가 없는 남자,14-Oct,377000 ,0.0%,16578500 ,55 ,2642 ,1 ,1 ,핀란드,핀란드,(주)영화랑
91,금의위 3인의 무사 2,20-Apr,171000 ,0.0%,171000 ,51 ,51 ,5 ,23 ,중국,중국,(유)조이앤시네마
92,문라이즈 킹덤,31-Jan,461000 ,0.1%,311786500 ,47 ,39594 ,1 ,3 ,미국,미국,(주)영화사 진진
93,작은 아씨들,,110000 ,0.0%,14266000 ,44 ,6793 ,1 ,4 ,미국,미국,
93,왕중왕,,44000 ,0.0%,21798500 ,44 ,10747 ,1 ,2 ,미국,미국,
93,기적,23-Dec,44000 ,0.0%,20825558 ,44 ,11622 ,1 ,2 ,미국,미국,
96,해피 아워,09-Dec,584300 ,0.1%,57732800 ,43 ,3818 ,3 ,8 ,일본,일본,(주)트리플픽쳐스
96,백야,,232000 ,0.0%,5803000 ,43 ,2457 ,1 ,2 ,이탈리아,이탈리아,
96,탠저린,25-Jan,398000 ,0.0%,32335500 ,43 ,4119 ,1 ,4 ,미국,미국,"(주)미로스페이스,(주)드림팩트엔터테인먼트"
99,이스케이프 런,27-Apr,162000 ,0.0%,162000 ,42 ,42 ,5 ,15 ,프랑스,프랑스,(유)조이앤시네마
99,플로리다 프로젝트,07-Mar,395000 ,0.0%,802932600 ,42 ,96021 ,1 ,4 ,미국,미국,오드
101,삼손과 데릴라,21-Dec,41000 ,0.0%,29605318 ,41 ,16039 ,1 ,2 ,미국,미국,
102,에스더의 왕,,35000 ,0.0%,9149500 ,35 ,4595 ,1 ,2 ,이탈리아,"이탈리아,미국",
102,성의,31-Dec,35000 ,0.0%,12672644 ,35 ,7676 ,1 ,2 ,미국,미국,
102,쿼바디스,13-Jan,35000 ,0.0%,34179982 ,35 ,19165 ,1 ,2 ,미국,미국,
105,벤허,07-Sep,34000 ,0.0%,309118812 ,34 ,52674 ,1 ,1 ,미국,미국,(주)팝엔터테인먼트
106,프란시스 하,17-Jul,326000 ,0.0%,649359160 ,32 ,83105 ,1 ,5 ,미국,미국,그린나래미디어(주)
106,바라바,,32000 ,0.0%,11444000 ,32 ,5719 ,1 ,2 ,이탈리아,이탈리아,
108,해바라기,14-Nov,227000 ,0.0%,27477000 ,31 ,11920 ,1 ,2 ,이탈리아,이탈리아,
109,너를 만난 여름,16-Oct,270000 ,0.0%,266837000 ,30 ,32321 ,1 ,1 ,중국,중국,"오드,(주)홈초이스"
109,십계,16-Jun,30000 ,0.0%,40041072 ,30 ,20418 ,1 ,1 ,미국,미국,
111,비긴 어게인,13-Aug,348000 ,0.0%,27353161741 ,29 ,3470095 ,2 ,3 ,미국,미국,판씨네마(주)
112,성냥공장 소녀,28-Apr,171000 ,0.0%,3215000 ,24 ,470 ,1 ,1 ,핀란드,핀란드,
113,미라클 벨리에,27-Aug,203000 ,0.0%,934944518 ,22 ,122753 ,1 ,2 ,프랑스,프랑스,(주)영화사 진진
114,마틴 에덴,29-Oct,240000 ,0.0%,144118430 ,20 ,15687 ,1 ,1 ,이탈리아,이탈리아,알토미디어(주)
114,브릭스턴 테일,22-Mar,100000 ,0.0%,700000 ,20 ,140 ,1 ,2 ,영국,영국,(주)드림팩트엔터테인먼트
116,런던 타운,16-Feb,228000 ,0.0%,2981400 ,19 ,490 ,1 ,4 ,미국,미국,레인메이커필름
116,황혼의 빛,14-Dec,126000 ,0.0%,6087500 ,19 ,896 ,1 ,1 ,핀란드,핀란드,(주)스폰지이엔티
116,피그,23-Feb,138000 ,0.0%,106769970 ,19 ,11625 ,2 ,19 ,미국,미국,판씨네마(주)
119,성적유희의 극한적 경험,16-Mar,17000 ,0.0%,366000 ,17 ,126 ,2 ,17 ,독일,독일,(유)조이앤시네마
120,펀치 드렁크 러브,08-May,114000 ,0.0%,40174400 ,13 ,4534 ,1 ,3 ,미국,미국,콜럼비아트라이스타
120,페인 앤 글로리,05-Feb,26000 ,0.0%,235692420 ,13 ,30628 ,1 ,2 ,스페인,스페인,(주)제이앤씨미디어그룹
120,모리의 정원,26-Mar,109000 ,0.0%,27611720 ,13 ,3287 ,1 ,8 ,일본,일본,(주)영화사 진진
123,"1975 킬링필드, 푸난",27-Jan,20000 ,0.0%,318000 ,10 ,44 ,1 ,6 ,프랑스,프랑스,그린나래미디어(주)
123,피아니스트의 전설,01-Jan,99000 ,0.0%,395180462 ,10 ,49585 ,1 ,2 ,이탈리아,이탈리아,(주)라이크콘텐츠
125,레이니 데이 인 뉴욕,06-May,108000 ,0.0%,809580200 ,9 ,92047 ,1 ,2 ,미국,미국,"그린나래미디어(주),(주)버킷스튜디오"
125,필름스타 인 리버풀,25-Oct,54000 ,0.0%,77117350 ,9 ,9201 ,1 ,1 ,영국,영국,그린나래미디어(주)
127,신은 죽지 않았다 3: 어둠 속의 빛,19-Jul,42000 ,0.0%,720833400 ,5 ,92836 ,1 ,9 ,미국,미국,"(주)영화사 그램,(재)CBS"
127,교실 안의 야크,30-Sep,50000 ,0.0%,99520610 ,5 ,11724 ,1 ,2 ,기타,기타,주식회사 슈아픽처스
127,남과 여: 여전히 찬란한,15-Oct,46000 ,0.0%,60739900 ,5 ,7238 ,1 ,1 ,프랑스,프랑스,(주)팝엔터테인먼트
127,우리의 20세기,27-Sep,45000 ,0.0%,291623600 ,5 ,35757 ,1 ,1 ,미국,미국,그린나래미디어(주)
127,강호의 무림신공,30-Mar,5000 ,0.0%,176000 ,5 ,67 ,2 ,5 ,중국,중국,(유)조이앤시네마
127,헬렌: 내 영혼의 자화상,25-Feb,40000 ,0.0%,23941100 ,5 ,3020 ,1 ,6 ,기타,기타,(주)영화사 진진
133,캔디,17-Apr,4000 ,0.0%,32033500 ,4 ,4764 ,2 ,4 ,호주,호주,프리비젼엔터테인먼트
134,역으로 가는 길을 알려줘,17-Feb,10000 ,0.0%,19281300 ,2 ,2491 ,1 ,1 ,일본,일본,(주)영화사 진진
134,아멜리에,19-Oct,22000 ,0.0%,119418450 ,2 ,13152 ,1 ,1 ,프랑스,프랑스,"(주)영화사 안다미로,(주)블룸즈베리리소시스리미티드,콜럼비아"
136,남색대문,18-Aug,7000 ,0.0%,86951660 ,1 ,9916 ,1 ,1 ,대만,대만,오드
136,아이 스틸 빌리브,19-Jan,9000 ,0.0%,7721200 ,1 ,829 ,1 ,2 ,미국,미국,(주)이놀미디어
136,그것은 물 밑에서 온다,21-Apr,5000 ,0.0%,5000 ,1 ,1 ,1 ,1 ,미국,미국,(주)씨네마블랙
136,인사이드 르윈,29-Jan,1000 ,0.0%,824584700 ,1 ,106730 ,1 ,1 ,미국,"미국,프랑스",블루미지
136,시크릿 카운터,17-Feb,8000 ,0.0%,5996500 ,1 ,687 ,1 ,1 ,일본,일본,(주)디오시네마
