순위,영화명,개봉일,매출액,매출액점유율,누적매출액,관객수,누적관객수,스크린수,상영횟수,대표국적,국적,배급사
1,우연과 상상,04-May,204340040 ,20.5%,211618640 ,20605 ,21456 ,56 ,1893 ,일본,일본,"그린나래미디어(주),(주)영화사 안다미로"
2,몬스터 싱어: 매직 인 파리,26-May,115207620 ,11.5%,115207620 ,13144 ,13144 ,266 ,1233 ,프랑스,프랑스,(주)다날엔터테인먼트
3,나를 만나는 길,12-May,74297100 ,7.4%,75096100 ,8083 ,8166 ,53 ,733 ,영국,영국,(주)티캐스트
4,매스,18-May,73987000 ,7.4%,74482000 ,7914 ,7979 ,68 ,868 ,미국,미국,오드
5,중경삼림,02-Sep,72335250 ,7.2%,912024370 ,7515 ,97145 ,82 ,681 ,홍콩,홍콩,(주)디스테이션
6,"파리, 13구",12-May,72396960 ,7.3%,75342960 ,7337 ,7710 ,59 ,961 ,프랑스,프랑스,"찬란,(주)하이스트레인저"
7,퍼스트 러브,16-May,22922800 ,2.3%,23348800 ,4235 ,4306 ,8 ,206 ,일본,일본,(주)미디어캐슬
8,더 노비스,25-May,36559500 ,3.7%,36559500 ,4064 ,4064 ,52 ,454 ,미국,미국,(주)영화사 진진
9,완벽한 축사를 준비하는 방법,19-May,25957900 ,2.6%,28456900 ,2741 ,2992 ,51 ,450 ,프랑스,프랑스,판씨네마(주)
10,스프링 블라썸,04-May,22797000 ,2.3%,24156000 ,2607 ,2758 ,36 ,530 ,프랑스,프랑스,(주)영화사 진진
11,시네마 천국,07-Jul,12265000 ,1.2%,385914000 ,2030 ,62518 ,2 ,11 ,프랑스,"프랑스,이탈리아","주식회사 왓챠,(주)팝엔터테인먼트"
12,비긴 어게인,13-Aug,12048000 ,1.2%,27365209741 ,2004 ,3472099 ,2 ,12 ,미국,미국,판씨네마(주)
13,플레이그라운드,25-May,15198100 ,1.5%,15198100 ,1750 ,1750 ,43 ,325 ,벨기에,벨기에,해피송
14,내가 처음으로 사랑한 소녀,27-Apr,13284900 ,1.3%,32764370 ,1425 ,3808 ,66 ,258 ,홍콩,홍콩,(주)박수엔터테인먼트
15,녹색광선,,13196500 ,1.3%,32040500 ,1422 ,4010 ,6 ,99 ,프랑스,프랑스,(주)영화사 안다미로
16,잭 인 더 박스,12-May,13167200 ,1.3%,13167200 ,1329 ,1329 ,45 ,284 ,영국,영국,(주)스튜디오 보난자
17,해변의 폴린,,12249500 ,1.2%,23987500 ,1302 ,2876 ,8 ,86 ,프랑스,프랑스,(주)영화사 안다미로
18,소설의 신,17-May,6495000 ,0.7%,6495000 ,1206 ,1206 ,5 ,50 ,일본,일본,(주)미디어캐슬
19,동경 이야기,16-Aug,12687100 ,1.3%,32862000 ,1203 ,3558 ,15 ,149 ,일본,일본,"(주)엣나인필름,오드"
19,크로스 더 라인,12-May,11747600 ,1.2%,11747600 ,1203 ,1203 ,34 ,235 ,스페인,스페인,(주)영화사오원
21,애프터 양,01-Jun,12414000 ,1.2%,12414000 ,1175 ,1175 ,3 ,7 ,미국,미국,"(주)영화특별시에스엠씨,주식회사 왓챠"
22,파리의 피아니스트: 후지코 헤밍의 시간들,27-Apr,10121300 ,1.0%,13704000 ,1155 ,1603 ,17 ,217 ,일본,일본,(주)엣나인필름
23,베르네 부인의 장미정원,09-Jun,8424000 ,0.8%,8424000 ,1053 ,1053 ,4 ,6 ,프랑스,프랑스,찬란
24,스펜서,16-Mar,7967600 ,0.8%,781792830 ,1031 ,83047 ,7 ,70 ,영국,영국,"(주)영화특별시에스엠씨,그린나래미디어(주)"
25,코다,31-Aug,7223560 ,0.7%,673491599 ,939 ,74122 ,11 ,133 ,프랑스,프랑스,판씨네마(주)
26,여름이야기,13-Jun,7641000 ,0.8%,19656000 ,777 ,2392 ,5 ,41 ,프랑스,프랑스,(주)영화사 안다미로
27,로망스 돌,01-Apr,3551000 ,0.4%,31168700 ,676 ,5949 ,5 ,30 ,일본,일본,(주)미디어캐슬
28,허셀프,12-May,5456600 ,0.5%,5456600 ,647 ,647 ,23 ,197 ,영국,영국,(주)드림팩트엔터테인먼트
29,봄 이야기,,5354000 ,0.5%,13478000 ,604 ,1717 ,3 ,38 ,프랑스,프랑스,(주)영화사 안다미로
30,자이언트,28-Feb,1239500 ,0.1%,20665212 ,588 ,11356 ,1 ,14 ,미국,미국,
31,언어의 정원,14-Aug,4064500 ,0.4%,525503663 ,536 ,78423 ,5 ,53 ,일본,일본,"(주)미디어캐슬,(주)팝엔터테인먼트"
32,지상에서 영원으로,,911000 ,0.1%,37255500 ,494 ,17384 ,1 ,25 ,미국,미국,
33,열대왕사,21-Apr,2922800 ,0.3%,15868160 ,456 ,2417 ,12 ,44 ,중국,중국,(주)싸이더스
34,가을이야기,,3926000 ,0.4%,12957500 ,445 ,1681 ,3 ,35 ,프랑스,프랑스,(주)영화사 안다미로
35,큐어,06-Jul,5767000 ,0.6%,9625000 ,438 ,1056 ,1 ,2 ,일본,일본,M&M 인터내셔널
36,모정,09-Dec,872000 ,0.1%,37629000 ,436 ,18306 ,1 ,12 ,미국,미국,
37,베라크루스,13-Feb,862000 ,0.1%,23110000 ,431 ,11376 ,1 ,12 ,미국,미국,
38,겨울 이야기,,3719000 ,0.4%,12198000 ,420 ,1649 ,3 ,31 ,프랑스,프랑스,(주)영화사 안다미로
39,드라이브 마이 카,23-Dec,3597470 ,0.4%,713478880 ,402 ,77050 ,5 ,45 ,일본,일본,(주)트리플픽쳐스
40,가방을 든 여인,,794000 ,0.1%,6122000 ,397 ,2202 ,1 ,9 ,이탈리아,"이탈리아,프랑스",
41,셰인,,787000 ,0.1%,28111000 ,391 ,13318 ,1 ,12 ,미국,미국,
42,특수요원 빼꼼,01-Jun,3501000 ,0.4%,3501000 ,389 ,389 ,2 ,2 ,중국,중국,"(주)띵크,예지림엔터테인먼트,(주)인터파크"
43,이수,,764000 ,0.1%,10768000 ,382 ,4954 ,1 ,9 ,프랑스,"프랑스,미국",
44,애꾸눈 잭,,724000 ,0.1%,17900000 ,362 ,8955 ,1 ,8 ,미국,미국,
45,원탁의 기사,,714000 ,0.1%,17591000 ,357 ,8456 ,1 ,12 ,미국,미국,
46,해저 2만리,,697000 ,0.1%,28499500 ,346 ,13773 ,1 ,9 ,미국,미국,
47,풀타임,18-Aug,3474000 ,0.3%,3474000 ,325 ,325 ,1 ,2 ,프랑스,프랑스,주식회사 슈아픽처스
48,페이톤 플레이스,,612000 ,0.1%,11828000 ,306 ,5898 ,1 ,8 ,미국,미국,
49,우리가 사랑이라고 믿는 것,24-Feb,2253000 ,0.2%,135521030 ,252 ,14641 ,2 ,22 ,영국,영국,(주)티캐스트
50,위대한 유산,,500000 ,0.1%,6377000 ,250 ,3082 ,1 ,9 ,영국,영국,
51,그린 북,09-Jan,1722000 ,0.2%,3710357360 ,246 ,445626 ,2 ,2 ,미국,미국,CGV아트하우스
52,달빛 그림자,27-Apr,2182400 ,0.2%,8010000 ,234 ,1029 ,27 ,93 ,일본,일본,(주)영화사오원
53,오두막,20-Apr,1914000 ,0.2%,598687000 ,230 ,78010 ,1 ,2 ,미국,미국,판씨네마(주)
53,다키스트 아워,17-Jan,2300000 ,0.2%,285777800 ,230 ,37750 ,1 ,2 ,영국,영국,유니버설픽쳐스인터내셔널 코리아(유)
55,패러렐 마더스,31-Mar,1949900 ,0.2%,86375800 ,223 ,9370 ,6 ,37 ,스페인,스페인,(주)스튜디오디에이치엘
55,레미: 집 없는 아이,28-May,1990000 ,0.2%,35562380 ,223 ,4447 ,2 ,3 ,프랑스,프랑스,(주)팝엔터테인먼트
57,카사네 : 빼앗는 얼굴,05-May,2056000 ,0.2%,2056000 ,216 ,216 ,6 ,51 ,일본,일본,(주)까멜리아이엔티
58,쥬라기 리턴즈,24-May,1000000 ,0.1%,1000000 ,200 ,200 ,5 ,10 ,영국,영국,(주)박수엔터테인먼트
59,그래니트: 트루 솔저,26-May,900000 ,0.1%,900000 ,180 ,180 ,5 ,9 ,러시아,러시아,주식회사 풍경소리
60,올리 마키의 가장 행복한 날,02-Jun,1531000 ,0.2%,1741000 ,175 ,198 ,1 ,5 ,기타,기타,"(주)디오시네마,GATE6"
61,벨파스트,23-Mar,1816700 ,0.2%,129461070 ,172 ,14137 ,4 ,39 ,미국,미국,유니버설픽쳐스인터내셔널 코리아(유)
62,바닷마을 다이어리,17-Dec,1276000 ,0.1%,848492384 ,159 ,103734 ,1 ,5 ,일본,일본,(주)티캐스트
63,사랑 후의 두 여자,30-Mar,1032000 ,0.1%,40509180 ,156 ,4782 ,4 ,49 ,영국,영국,판씨네마(주)
64,걸어도 걸어도,18-Jun,1310000 ,0.1%,261765800 ,155 ,35378 ,2 ,14 ,일본,일본,(주)영화사 진진
65,괴짜들의 로맨스,17-Nov,740000 ,0.1%,53826890 ,148 ,8598 ,1 ,1 ,대만,대만,메가박스중앙(주)
66,팔마,21-Apr,922000 ,0.1%,6494400 ,141 ,758 ,8 ,45 ,러시아,러시아,(주)라이크콘텐츠
67,약속의 네버랜드,07-Apr,767000 ,0.1%,23861300 ,137 ,3296 ,1 ,4 ,일본,일본,(주)디스테이션
68,그리스도 디 오리진,14-Apr,1255000 ,0.1%,18848800 ,130 ,2032 ,4 ,20 ,기타,기타,(주)까멜리아이엔티
68,아사코,14-Mar,1155000 ,0.1%,137442619 ,130 ,15968 ,2 ,14 ,일본,일본,(주)이수C&E
70,80일간의 세계일주,,260000 ,0.0%,11506000 ,104 ,5725 ,1 ,5 ,미국,미국,
71,모감보,,252500 ,0.0%,21397500 ,101 ,10247 ,1 ,6 ,미국,미국,
72,행복을 전하는 편지,13-Apr,289000 ,0.0%,1128570 ,99 ,201 ,2 ,30 ,러시아,러시아,(주)히스토리필름
73,백야,,260500 ,0.0%,6063500 ,93 ,2550 ,1 ,6 ,이탈리아,이탈리아,
74,서부 개척사,,92000 ,0.0%,16284000 ,92 ,6558 ,1 ,4 ,미국,미국,
75,파계,,88000 ,0.0%,10774000 ,88 ,5488 ,1 ,4 ,미국,미국,
76,돌아오지 않는 강,27-Apr,220000 ,0.0%,25046858 ,86 ,13419 ,1 ,6 ,미국,미국,
77,욕망이라는 이름의 전차,,85000 ,0.0%,27550000 ,85 ,12060 ,1 ,4 ,미국,미국,
78,유리씨즈,27-Dec,84000 ,0.0%,26717000 ,84 ,13630 ,1 ,4 ,이탈리아,이탈리아,
79,파리의 연인,,83000 ,0.0%,25268500 ,83 ,10196 ,1 ,4 ,미국,미국,
80,39 계단,,424000 ,0.0%,3550000 ,79 ,1637 ,1 ,3 ,영국,영국,
80,나의 집은 어디인가,07-Apr,642000 ,0.1%,20065040 ,79 ,2032 ,3 ,11 ,기타,기타,주식회사 왓챠
82,문라이즈 킹덤,31-Jan,705000 ,0.1%,312491500 ,78 ,39672 ,2 ,12 ,미국,미국,(주)영화사 진진
83,어나더 라운드,19-Jan,780000 ,0.1%,335831390 ,77 ,36204 ,1 ,6 ,기타,기타,(주)엣나인필름
84,북북서로 진로를 돌려라,,413000 ,0.0%,46477900 ,75 ,9141 ,1 ,3 ,미국,미국,
85,대명금의위2: 척살무사,03-May,194000 ,0.0%,194000 ,74 ,74 ,5 ,40 ,중국,중국,(유)조이앤시네마
86,해는 또다시 뜬다,,71000 ,0.0%,8009000 ,71 ,4021 ,1 ,4 ,미국,미국,
87,피크닉,,69000 ,0.0%,16207500 ,69 ,8106 ,1 ,4 ,미국,미국,
88,화양연화,20-Oct,587000 ,0.1%,1087074170 ,67 ,121497 ,2 ,14 ,홍콩,"홍콩,프랑스",(주)디스테이션
89,고스팅 글로리아,14-Apr,450000 ,0.0%,11395200 ,60 ,1268 ,3 ,17 ,우루과이,우루과이,(주)블루라벨픽쳐스
89,웨이트: 감각에 눈뜰 때,14-Apr,300000 ,0.0%,2000000 ,60 ,400 ,2 ,3 ,핀란드,핀란드,"주식회사 풍경소리,(주)타임앤드스페이스"
91,귀향,21-Sep,469000 ,0.0%,181596500 ,59 ,26625 ,2 ,8 ,스페인,스페인,"해피송,(주)스폰지이엔티,(주)홈초이스"
92,파리의 아메리카인,,150000 ,0.0%,7106000 ,58 ,3265 ,1 ,4 ,미국,미국,
93,욕망: 신세계,11-May,171000 ,0.0%,171000 ,51 ,51 ,4 ,24 ,일본,일본,(유)조이앤시네마
93,라이브 플래쉬,09-Oct,428000 ,0.0%,1323000 ,51 ,202 ,2 ,12 ,스페인,스페인,"해피송,(주)홈초이스"
95,태양의 소녀들,22-Oct,500000 ,0.1%,26080970 ,50 ,3021 ,1 ,1 ,프랑스,프랑스,(주)이수C&E
95,리멤버 미,29-Jun,500000 ,0.1%,500000 ,50 ,50 ,1 ,1 ,일본,일본,(주)박수엔터테인먼트
97,미라클 벨리에,27-Aug,482000 ,0.0%,935426518 ,49 ,122802 ,1 ,2 ,프랑스,프랑스,(주)영화사 진진
98,아메리칸 셰프,07-Jan,480000 ,0.0%,1270148429 ,48 ,155885 ,1 ,1 ,미국,미국,(주)영화사 진진
98,어느 가족,26-Jul,472000 ,0.0%,1440387400 ,48 ,174796 ,1 ,2 ,일본,일본,(주)티캐스트
100,경계선,24-Oct,355000 ,0.0%,151319880 ,47 ,18094 ,1 ,6 ,스웨덴,"스웨덴,덴마크",(주)제이앤씨미디어그룹
101,"내 어깨 위 고양이, 밥",04-Jan,440000 ,0.0%,214333900 ,44 ,27007 ,1 ,1 ,영국,영국,(주)누리픽쳐스
101,더 파더,07-Apr,440000 ,0.0%,403713500 ,44 ,48001 ,1 ,1 ,영국,영국,판씨네마(주)
103,레닌그라드 카우보이 미국에 가다,18-May,80000 ,0.0%,4474500 ,43 ,687 ,1 ,1 ,핀란드,핀란드,
104,벤허,07-Sep,76000 ,0.0%,309194812 ,38 ,52712 ,1 ,5 ,미국,미국,(주)팝엔터테인먼트
104,퍼스트 카우,04-Nov,317000 ,0.0%,136493380 ,38 ,14923 ,1 ,4 ,미국,미국,(주)영화사 진진
106,브로큰 임브레이스,19-Nov,289000 ,0.0%,114492000 ,37 ,15061 ,1 ,9 ,스페인,스페인,"해피송,유니버설픽쳐스인터내셔널 코리아(유),(주)홈초이스"
107,피아니스트의 전설,01-Jan,325000 ,0.0%,395505462 ,36 ,49621 ,2 ,9 ,이탈리아,이탈리아,(주)라이크콘텐츠
107,빌리 홀리데이,04-Nov,288000 ,0.0%,82554130 ,36 ,8071 ,1 ,1 ,미국,미국,(주)디스테이션
109,어페어 투 리멤버,,70000 ,0.0%,23056500 ,35 ,11281 ,1 ,9 ,미국,미국,
109,제3의 사나이,09-Aug,35000 ,0.0%,5204000 ,35 ,2238 ,1 ,2 ,미국,미국,
111,더 차일드,27-Jan,294000 ,0.0%,38472500 ,33 ,5501 ,1 ,6 ,벨기에,벨기에,"찬란,스폰지"
112,히치콕 트뤼포,25-Aug,185000 ,0.0%,25305100 ,32 ,3156 ,1 ,5 ,프랑스,"프랑스,미국",(주)영화사 안다미로
113,황야의 7인,02-Nov,62000 ,0.0%,19841500 ,31 ,9123 ,1 ,9 ,미국,미국,
114,이스케이프 런,27-Apr,30000 ,0.0%,192000 ,30 ,72 ,2 ,25 ,프랑스,프랑스,(유)조이앤시네마
114,이터널 로드,27-May,150000 ,0.0%,150000 ,30 ,30 ,4 ,4 ,핀란드,"핀란드,에스토니아,스웨덴",(주)태양미디어그룹
114,당신을 기다리는 시간,28-Jan,360000 ,0.0%,55845100 ,30 ,7785 ,1 ,1 ,이탈리아,"이탈리아,프랑스",찬란
114,신은 죽지 않았다 3: 어둠 속의 빛,19-Jul,218000 ,0.0%,721051400 ,30 ,92866 ,1 ,7 ,미국,미국,"(주)영화사 그램,(재)CBS"
118,어거스트 버진,24-Mar,271000 ,0.0%,21902600 ,28 ,2597 ,1 ,9 ,스페인,스페인,M&M 인터내셔널
118,나쁜 교육,17-Sep,225000 ,0.0%,142524500 ,28 ,21636 ,1 ,6 ,스페인,스페인,"해피송,(주)스폰지이엔티,(주)홈초이스"
120,기쿠지로의 여름,30-Aug,230000 ,0.0%,18221000 ,26 ,2471 ,1 ,1 ,일본,일본,"(주)영화사 진진,(주)튜브엔터테인먼트"
121,미켈란젤로,29-Sep,228000 ,0.0%,20518320 ,25 ,3310 ,1 ,8 ,이탈리아,이탈리아,(주)퍼스트런
122,마미,18-Dec,220000 ,0.0%,488845544 ,22 ,61261 ,1 ,1 ,캐나다,"캐나다,프랑스",(주)엣나인필름
122,아비정전,22-Dec,196000 ,0.0%,238641070 ,22 ,31834 ,1 ,4 ,홍콩,홍콩,(주)디스테이션
122,마티아스와 막심,23-Jul,220000 ,0.0%,112992420 ,22 ,12571 ,1 ,1 ,캐나다,캐나다,(주)엣나인필름
125,더 스퀘어,02-Aug,161000 ,0.0%,140942400 ,21 ,17279 ,1 ,4 ,스웨덴,"스웨덴,독일,프랑스,덴마크",아이 엠
126,리코리쉬 피자,16-Feb,217000 ,0.0%,213876700 ,20 ,21188 ,1 ,2 ,미국,미국,유니버설픽쳐스인터내셔널 코리아(유)
126,안경,29-Nov,160000 ,0.0%,75139500 ,20 ,10779 ,1 ,1 ,일본,일본,스폰지
128,드라이,30-Mar,94000 ,0.0%,53249980 ,15 ,6325 ,2 ,5 ,호주,호주,(주)영화사 진진
129,금의위 3인의 무사 2,20-Apr,13000 ,0.0%,184000 ,13 ,64 ,1 ,11 ,중국,중국,(유)조이앤시네마
130,금의위4 지존무사,13-Apr,11000 ,0.0%,218000 ,11 ,98 ,1 ,10 ,중국,중국,(유)조이앤시네마
131,레드 로켓,12-Mar,106000 ,0.0%,9970000 ,10 ,1029 ,1 ,2 ,미국,미국,유니버설픽쳐스인터내셔널 코리아(유)
131,개인레슨,26-May,19000 ,0.0%,19000 ,10 ,10 ,5 ,10 ,영국,영국,(주)콘텐트마인
133,#위왓치유,03-Jun,15500 ,0.0%,16471950 ,5 ,1860 ,1 ,1 ,기타,기타,찬란
134,옷코는 초등학생 사장님!,27-Feb,44000 ,0.0%,95664780 ,4 ,12674 ,1 ,1 ,일본,일본,(주)트리플픽쳐스
134,남과 여: 여전히 찬란한,15-Oct,36000 ,0.0%,60775900 ,4 ,7242 ,1 ,2 ,프랑스,프랑스,(주)팝엔터테인먼트
136,그렇게 아버지가 된다,19-Dec,24000 ,0.0%,972541562 ,3 ,127954 ,1 ,1 ,일본,일본,(주)티캐스트콘텐츠허브
137,빅 아이즈,28-Jan,24000 ,0.0%,652467335 ,2 ,85388 ,1 ,1 ,미국,미국,판씨네마(주)
