순위,영화명,개봉일,매출액,매출액점유율,누적매출액,관객수,누적관객수,스크린수,상영횟수,대표국적,국적,배급사
1,큐어,2022-07-06,222243360,15.40%,233728360,21011,22253,55,1347,일본,일본,M&M 인터내셔널
2,썸머 필름을 타고!,2022-07-20,191685920,13.30%,195879920,20002,20468,65,1116,일본,일본,"(주)싸이더스,(주)블루라벨픽쳐스"
3,컴온 컴온,2022-06-30,113984900,7.90%,147895300,12311,15849,113,1693,미국,미국,(주)스튜디오디에이치엘
4,극장판 윌벤져스 : 수상한 캠핑 대소동,2022-06-23,126229300,8.70%,292927800,12239,29422,92,452,한국,한국,(주)대교 미디어콘텐츠사업본부
5,로스트 도터,2022-07-14,101178000,7.00%,103154000,10757,11004,66,1008,미국,미국,"(주)영화특별시에스엠씨,그린나래미디어(주)"
6,멘,2022-07-13,93765560,6.50%,93765560,10274,10274,96,1078,미국,미국,판씨네마(주)
7,니얼굴,2022-06-23,58033500,4.00%,58033500,6477,6477,38,725,한국,한국,(주)영화사 진진
8,그대가 조국,2022-05-25,57293800,4.00%,3105257870,6363,333072,23,183,한국,한국,(주)엣나인필름
9,애프터 양,2022-06-01,52763100,3.70%,377976190,5501,38990,24,500,미국,미국,"(주)영화특별시에스엠씨,주식회사 왓챠"
10,아이를 위한 아이,2022-07-21,34877800,2.40%,34877800,4017,4017,51,463,한국,한국,(주)트리플픽쳐스
11,모어,2022-06-23,32529400,2.30%,90566900,3341,10649,33,503,한국,한국,(주)엣나인필름
12,룸 쉐어링,2022-06-22,24401260,1.70%,24401260,3140,3140,35,204,한국,한국,"주식회사 엔픽플,트윈플러스파트너스(주)"
13,경아의 딸,2022-06-16,17357600,1.20%,56819100,2864,8260,15,190,한국,한국,㈜인디스토리
14,검찰측의 죄인,,13330500,0.90%,19938500,2536,3241,5,66,일본,일본,
15,"아치의 노래, 정태춘",2022-05-18,24047000,1.70%,315727210,2531,33116,9,108,한국,한국,(주)넥스트엔터테인먼트월드(NEW)
16,배드 럭 뱅잉,2022-07-28,24822800,1.70%,24822800,2428,2428,27,230,루마니아,"루마니아,체코,룩셈부르크",알토미디어(주)
17,옆자리 괴물군,,10014000,0.70%,12748370,1941,2240,5,59,일본,일본,
18,베르네 부인의 장미정원,2022-06-09,14974800,1.00%,79683400,1602,8754,10,120,프랑스,프랑스,찬란
19,임파서블 러브,2022-07-28,15324800,1.10%,15922800,1583,1644,29,160,프랑스,프랑스,(주)디오시네마
20,벰: 비컴 휴먼,2022-06-16,7304000,0.50%,27437000,1450,5305,2,23,일본,일본,(주)미디어캐슬
21,히비키,,7004500,0.50%,8449300,1337,1507,5,56,일본,일본,
22,초록밤,2022-07-28,13123600,0.90%,13123600,1323,1323,31,147,한국,한국,㈜인디스토리
23,실종,2022-06-15,9952100,0.70%,105215000,1024,11430,16,213,일본,일본,(주)디스테이션
24,언어의 정원,2013-08-14,5240500,0.40%,530744163,901,79324,5,36,일본,일본,"(주)미디어캐슬,(주)팝엔터테인먼트"
25,"구름의 저편, 약속의 장소",2017-02-28,4833500,0.30%,59575790,900,8853,5,30,일본,일본,"(주)미디어캐슬,(주)삼지애니메이션"
26,홀리 모터스,2013-04-04,9670100,0.70%,174295200,892,22029,9,98,프랑스,"프랑스,독일","(주)영화사 안다미로,오드"
27,군다,2022-07-14,7186000,0.50%,7934000,798,913,21,211,미국,미국,(주)영화사 진진
28,감동주의보,2022-06-22,4383500,0.30%,4383500,753,753,6,69,한국,한국,(주)스튜디오 보난자
29,"굿 럭 투 유, 리오 그랜드",2022-08-11,7578500,0.50%,7578500,726,726,8,32,영국,영국,"㈜무비다이브,(주)퍼스트런"
30,이별의 아침에 약속의 꽃을 장식하자,2018-07-19,3484500,0.20%,348265200,638,42468,5,30,일본,일본,(주)미디어캐슬
31,영광의 탈출,,1260000,0.10%,15730516,630,9856,1,8,미국,미국,
32,디어헌터(감독판),2022-06-23,6330260,0.40%,10762360,626,1110,5,80,미국,미국,주식회사 블루필름웍스
33,아프리카의 여왕,,1214000,0.10%,16135000,607,7879,1,12,미국,미국,
34,레드 로켓,2022-03-12,6373900,0.40%,17342100,595,1713,15,80,미국,미국,유니버설픽쳐스인터내셔널 코리아(유)
35,이유없는 반항,1971-03-26,1164000,0.10%,17418500,582,7689,1,12,미국,미국,
36,말임씨를 부탁해,2022-04-13,4720000,0.30%,155380670,560,20467,1,5,한국,한국,(주)씨네필운
37,잊을 수 없는 모정,,1088000,0.10%,2768000,544,1350,1,9,미국,미국,
38,아가씨(확장판),,5909400,0.40%,166842050,502,20419,2,29,한국,한국,
39,베르히만 아일랜드,2022-08-04,4059500,0.30%,4059500,493,493,1,4,프랑스,"프랑스,벨기에,독일,스웨덴,멕시코",찬란
40,러빙 빈센트,2017-11-09,6052600,0.40%,3378956371,490,422773,1,19,영국,"영국,폴란드","(주)스튜디오디에이치엘,판씨네마(주)"
41,리멤버 미,2022-06-29,4264000,0.30%,5356500,431,553,12,74,일본,일본,(주)박수엔터테인먼트
42,우연과 상상,2022-05-04,4104300,0.30%,257621440,424,26126,7,75,일본,일본,"그린나래미디어(주),(주)영화사 안다미로"
43,의적 일지매,,897500,0.10%,7692500,423,3786,1,15,한국,한국,
44,황태자의 첫사랑,,789000,0.10%,27089000,392,12579,1,12,미국,미국,
45,암행어사 박문수,,758000,0.10%,5778000,379,2646,1,9,한국,한국,
46,웨스트 사이드 스토리,1999-05-29,732000,0.10%,15874600,366,5498,1,8,미국,미국,
47,아가씨와 건달들,1997-11-15,714000,0.00%,14284000,357,6795,1,8,미국,미국,
48,우스운게 딱! 좋아!,2022-06-23,2524400,0.20%,8514700,343,1001,8,100,한국,한국,필름다빈
49,어쌔신 트랩,2022-07-07,1700000,0.10%,1700000,340,340,5,17,이탈리아,이탈리아,(주)씨네마블랙
50,분노,2017-03-30,2398000,0.20%,243632057,334,30138,5,62,일본,일본,메가박스중앙(주)플러스엠
51,그을린 사랑,2011-07-21,331000,0.00%,544795800,331,69802,1,4,캐나다,캐나다,(주)티캐스트
52,보일링 포인트,2022-08-04,3568000,0.20%,3568000,330,330,1,4,영국,영국,(주)이놀미디어
53,멋진 세계,2022-08-11,2544000,0.20%,2544000,318,318,2,2,일본,일본,(주)엣나인필름
54,오마주,2022-05-26,824000,0.10%,100742500,292,13338,5,66,한국,한국,트윈플러스파트너스(주)
55,올드보이,2003-11-21,3117700,0.20%,2031705800,276,312451,2,20,한국,한국,"쇼이스트(주),(주)씨제이이엔엠"
56,녹색광선,,1951500,0.10%,37411000,268,4681,2,29,프랑스,프랑스,(주)영화사 안다미로
57,태일이,2021-12-01,2250000,0.20%,978749590,250,118383,1,2,한국,한국,(주)리틀빅픽쳐스
58,해변의 폴린,,1715000,0.10%,29421500,214,3541,2,26,프랑스,프랑스,(주)영화사 안다미로
59,세상을 바꾼 변호인,2019-06-13,1456000,0.10%,392533170,208,50213,2,2,미국,미국,CGV아트하우스
60,릴리 슈슈의 모든 것,2005-06-23,1556000,0.10%,73393098,201,10683,3,19,일본,일본,"(주)미디어캐슬,(주)튜브엔터테인먼트"
61,눈감은 여름,2022-06-30,959000,0.10%,1465000,191,292,3,17,베트남,베트남,주식회사 콘텐츠플레이
62,카라멜,2008-09-04,189000,0.00%,17521000,189,2630,1,3,프랑스,프랑스,위드시네마
63,중경삼림,1995-09-02,1680000,0.10%,918648390,187,97836,1,21,홍콩,홍콩,(주)디스테이션
64,나를 만나는 길,2022-05-12,1456000,0.10%,102746800,181,11124,2,27,영국,영국,(주)티캐스트
65,블레이징 썬,2022-06-23,900000,0.10%,2000000,180,400,2,9,러시아,러시아,주식회사 풍경소리
65,언더 샤크,2022-07-05,900000,0.10%,900000,180,180,5,18,영국,영국,주식회사 루믹스미디어
67,여름이야기,1998-06-13,1324500,0.10%,23361800,178,2863,2,17,프랑스,프랑스,(주)영화사 안다미로
68,철벽선생,2019-03-14,1236000,0.10%,188966700,169,22769,5,50,일본,일본,(주)미디어캐슬
68,가을이야기,,1225000,0.10%,15074500,169,1956,2,14,프랑스,프랑스,(주)영화사 안다미로
70,가버나움,2019-01-24,163000,0.00%,1215891519,163,147449,1,4,기타,기타,"그린나래미디어(주),플레이리스트(주)"
71,비긴 어게인,2014-08-13,1790000,0.10%,27367683741,161,3472317,2,7,미국,미국,판씨네마(주)
72,윤시내가 사라졌다,2022-06-08,1086000,0.10%,1086000,160,160,6,59,한국,한국,"(주)블루라벨픽쳐스,디스트릭 몽"
72,순응자,2016-01-28,1587000,0.10%,46141400,160,6192,1,11,이탈리아,"이탈리아,프랑스,독일",㈜영화사 백두대간
74,유리씨즈,1975-12-27,372500,0.00%,27285000,149,13825,1,6,이탈리아,이탈리아,
75,특수요원 빼꼼,2022-06-01,882000,0.10%,109893400,147,12511,1,2,중국,중국,"(주)띵크,예지림엔터테인먼트,(주)인터파크"
76,안나푸르나: 비욘드 써밋,2022-07-28,700000,0.00%,700000,140,140,5,7,스페인,"스페인,프랑스",주식회사 풍경소리
77,스파이형 모델,2022-07-20,970000,0.10%,970000,135,135,4,35,한국,한국,주식회사 씨엠닉스
77,황야의 역마차,,339000,0.00%,5181000,135,2585,1,6,미국,미국,
79,남태평양,1971-08-07,340000,0.00%,21202924,134,11903,1,6,미국,미국,
80,미싱타는 여자들,2022-01-20,931000,0.10%,931000,133,133,1,1,한국,한국,(주)영화사 진진
81,어나더 라운드,2022-01-19,940000,0.10%,337653390,115,36398,2,4,기타,기타,(주)엣나인필름
82,카시오페아,2022-06-01,852000,0.10%,197464300,113,22220,2,28,한국,한국,(주)트리플픽쳐스
83,아라비아의 로렌스,1998-10-24,613000,0.00%,28376500,110,11755,1,2,영국,영국,
84,극장판 프리파라 모두 모여라! 프리즘☆투어즈,2016-10-13,819000,0.10%,274546500,106,33197,1,4,한국,한국,"동우에이앤이(주),(주)박수엔터테인먼트"
85,소설가의 영화,2022-04-21,948000,0.10%,95071570,104,10431,4,23,한국,한국,"(주)영화제작전원사 ,(주)콘텐츠판다"
85,로마의 휴일,,163000,0.00%,107443000,104,24429,1,12,미국,"미국,이탈리아",
87,피그,2022-02-23,772000,0.10%,107541970,101,11726,1,2,미국,미국,판씨네마(주)
87,우작,2004-11-05,695000,0.00%,6600000,101,1046,1,2,터키,터키,(주)문필름코리아
89,콜드워,2022-07-07,500000,0.00%,500000,100,100,5,5,카자흐스탄,카자흐스탄,(주)제이에이와이이엔터테인먼트
89,시대혁명,2022-10-13,1100000,0.10%,1100000,100,100,1,1,영국,영국,델로스
89,"오노다- 정글에서 보낸 10,000일",,1100000,0.10%,1100000,100,100,1,1,프랑스,프랑스,주식회사 더쿱
89,왕좌의 법칙,2022-07-21,500000,0.00%,500000,100,100,5,5,카자흐스탄,카자흐스탄,(주)액티버스엔터테인먼트
89,태양의 소녀들,2020-10-22,1100000,0.10%,27180970,100,3121,1,1,프랑스,프랑스,(주)이수C&E
89,4등,2016-04-13,1200000,0.10%,296593700,100,39983,1,1,한국,한국,"(주)프레인글로벌,CGV아트하우스"
89,아일라,2018-06-21,1100000,0.10%,333735900,100,43945,1,1,터키,터키,(주)영화사 빅
89,기도의 힘,2020-04-09,1100000,0.10%,19017200,100,2396,1,1,미국,미국,주식회사 더쿱
89,타오르는 여인의 초상,2020-01-16,550000,0.00%,1324521938,100,157418,1,1,프랑스,프랑스,"그린나래미디어(주),(주)홈초이스"
89,괴짜들의 로맨스,2021-11-17,500000,0.00%,56521890,100,9137,1,1,대만,대만,메가박스중앙(주)
99,하오의 연정,,242500,0.00%,19901500,95,9904,1,6,미국,미국,
100,스파이의 아내,2021-03-25,778000,0.10%,100867830,94,11489,1,5,일본,일본,M&M 인터내셔널
101,어부바,2022-05-11,92000,0.00%,188918470,92,24308,1,18,한국,한국,(주)트리플픽쳐스
102,잉글리쉬 페이션트,1997-03-15,390500,0.00%,175687000,90,23683,1,2,미국,미국,(주)영화사오원
103,밀양,2007-05-23,969200,0.10%,10283739300,87,1605819,2,14,한국,한국,(주)시네마서비스
104,자유 결혼,1958-10-14,215000,0.00%,6472000,82,3096,1,6,한국,한국,
105,갓길로 달리는 코뿔소,2022-06-23,400000,0.00%,400000,80,80,1,4,한국,한국,(주)26컴퍼니
105,세자매,2021-01-27,480000,0.00%,480000,80,80,1,1,한국,한국,(주)리틀빅픽쳐스
107,소년시절의 너,2020-07-09,684000,0.00%,676931830,76,80583,1,2,중국,중국,"(주)영화특별시에스엠씨,(주)콘텐츠패밀리"
108,지구 최후의 밤,2019-07-25,749000,0.10%,55398080,72,6796,1,2,중국,중국,찬란
108,포겟 미 낫-엄마에게 쓰는 편지,2021-06-03,776000,0.10%,13236110,72,1455,1,1,한국,한국,커넥트픽쳐스(주)
110,섹슈얼파티,2022-07-27,308000,0.00%,308000,68,68,5,11,스페인,스페인,(유)조이앤시네마
110,싸나희 순정,2021-11-25,523000,0.00%,30677300,68,4487,1,2,한국,한국,(주)마노엔터테인먼트
112,너의 췌장을 먹고 싶어,2017-10-25,660000,0.00%,3723733450,66,468267,1,1,일본,일본,(주)넥스트엔터테인먼트월드(NEW)
113,카운터스,2018-08-15,654000,0.00%,40678900,65,5386,1,2,한국,한국,㈜인디스토리
113,소공녀,2018-03-22,507000,0.00%,482293200,65,60462,1,2,한국,한국,CGV아트하우스
115,그대라는기억 연숙씨,2022-06-16,379000,0.00%,379000,64,64,6,56,한국,한국,"(주)드림팩트엔터테인먼트,주식회사 블루필름웍스"
116,더 빌리지,2019-11-07,63000,0.00%,12120380,63,1371,1,2,기타,기타,(주)디오시네마
117,겨울 이야기,,409000,0.00%,13614000,62,1832,1,13,프랑스,프랑스,(주)영화사 안다미로
117,적인걸: 천안의 비밀,2022-07-29,302000,0.00%,302000,62,62,5,5,중국,중국,(주)위즈덤필름
119,너를 만난 여름,2019-10-16,540000,0.00%,267377000,60,32381,1,1,중국,중국,"오드,(주)홈초이스"
120,크레이지 컴페티션,,585500,0.00%,585500,58,58,1,1,스페인,스페인,"(주)영화사 진진,주식회사 왓챠"
121,봄 이야기,,393000,0.00%,15013000,54,1905,2,14,프랑스,프랑스,(주)영화사 안다미로
122,다 잘된 거야,2022-09-07,493000,0.00%,1321000,53,136,1,1,프랑스,프랑스,(주)더쿱디스트리뷰션
122,코다,2021-08-31,490000,0.00%,682212599,53,75121,2,15,프랑스,프랑스,판씨네마(주)
124,오셀로,,268000,0.00%,5246500,51,2222,1,3,미국,미국,
125,낮술,2009-02-05,390000,0.00%,178488600,50,25466,1,1,한국,한국,(주)영화사 진진
126,교실 안의 야크,2020-09-30,328000,0.00%,99848610,49,11773,1,3,기타,기타,주식회사 슈아픽처스
126,너에게 가는 길,2021-11-17,431000,0.00%,161457700,49,18605,1,3,한국,한국,(주)엣나인필름
128,7년만의 외출,,101000,0.00%,14410500,48,6945,1,8,미국,미국,
128,바이킹,,48000,0.00%,22532500,48,11152,1,2,미국,미국,
128,우리 생애 최고의 해,,312000,0.00%,5375884,48,3889,1,1,미국,미국,
128,메기,2019-09-26,288000,0.00%,353587168,48,41809,1,1,한국,한국,"(주)엣나인필름,CGV아트하우스"
132,바람과 함께 사라지다,1972-12-23,99000,0.00%,110318410,47,29742,1,8,미국,미국,(주)피터팬픽쳐스
132,다함께 여름!,2021-10-07,329000,0.00%,14880940,47,1632,1,2,프랑스,프랑스,M&M 인터내셔널
132,썬다운,2022-08-31,467000,0.00%,1097000,47,117,1,1,프랑스,프랑스,M&M 인터내셔널
132,피닉스,2021-07-22,420000,0.00%,102842190,47,12231,1,2,독일,독일,M&M 인터내셔널
136,7인의 신부,1972-12-24,44000,0.00%,16996000,44,8455,1,3,미국,미국,
136,어거스트 버진,2022-03-24,312000,0.00%,22214600,44,2641,1,2,스페인,스페인,M&M 인터내셔널
136,불도저에 탄 소녀,2022-04-07,88000,0.00%,104318240,44,12482,1,9,한국,한국,트윈플러스파트너스(주)
139,아이 엠 러브,2011-01-20,512000,0.00%,441799406,43,55848,1,2,이탈리아,이탈리아,"(주)영화사 진진,(주)영화사 조제"
140,슬픔은 그대 가슴에,1999-05-08,84000,0.00%,24246500,42,11977,1,8,미국,미국,
140,데쓰 캘린더,2022-06-23,247500,0.00%,2492500,42,264,5,36,프랑스,프랑스,THE 픽쳐스
142,잡식가족의 딜레마,2015-05-07,360000,0.00%,52514300,40,7510,1,1,한국,한국,(주)시네마달
143,현기증,,39000,0.00%,72674642,39,12450,1,3,미국,미국,(주)영화사 안다미로
144,더 렛지,2022-06-15,396200,0.00%,20010900,38,2394,2,15,영국,영국,씨제이 씨지브이(CJ CGV)(주)
145,그날이 오면,,74000,0.00%,13951000,37,6470,1,7,미국,미국,
145,태어나길 잘했어,2022-04-14,444000,0.00%,40714300,37,4917,1,1,한국,한국,그린나래미디어(주)
147,섹스 앤 퓨리,2022-07-14,202000,0.00%,202000,36,36,4,7,핀란드,핀란드,(주)태양미디어그룹
148,말 없는 사나이,,70000,0.00%,15295000,35,6824,1,7,미국,미국,
148,그랑블루 리마스터링 감독판,2013-07-25,201000,0.00%,171503479,35,22479,1,1,프랑스,"프랑스,이탈리아",(주)팝파트너스
150,트랜짓,2020-07-02,305000,0.00%,51570160,34,6119,1,2,독일,독일,M&M 인터내셔널
150,같은 속옷을 입는 두 여자,2022-11-10,235000,0.00%,235000,34,34,1,1,한국,한국,찬란
152,애프터 미투,2022-10-06,215000,0.00%,215000,32,32,1,1,한국,한국,(주)영화사 그램
153,잘리카투,2021-08-05,150000,0.00%,38258470,30,4426,1,1,기타,기타,주식회사 슈아픽처스
153,엄마와 나,2022-04-14,60000,0.00%,60000,30,30,1,30,한국,한국,(주)드림팩트엔터테인먼트
153,십개월의 미래,2021-10-14,180000,0.00%,109751180,30,15481,1,1,한국,한국,그린나래미디어(주)
153,바이올렛 에버가든 ? 영원과 자동 수기 인형 -,2020-03-26,240000,0.00%,111239370,30,12581,1,1,일본,일본,(주)라이크콘텐츠
153,극장판 바이올렛 에버가든,2020-11-12,240000,0.00%,523271250,30,60932,1,1,일본,일본,(주)라이크콘텐츠
153,낮에는 덥고 밤에는 춥고,2022-10-27,180000,0.00%,1538000,30,247,1,2,한국,한국,필름다빈
153,사랑 후의 두 여자,2022-03-30,210000,0.00%,40729180,30,4814,1,1,영국,영국,판씨네마(주)
153,무스탕: 랄리의 여름,2016-03-17,192000,0.00%,55292600,30,7331,1,1,프랑스,"프랑스,독일,터키,카타르","(주)미로스페이스,THE 픽쳐스"
161,바다 탐험대 옥토넛 시즌4: 더 파이널,2017-06-01,196000,0.00%,483011000,28,74032,1,1,영국,영국,와이드 릴리즈(주)
162,빌리 홀리데이,2021-11-04,324000,0.00%,82878130,27,8098,2,4,미국,미국,(주)디스테이션
163,원스,2007-09-20,250000,0.00%,1912194000,25,274800,1,1,아일랜드,아일랜드,"(주)제이앤씨미디어그룹,(주)영화사 진진"
163,금의위5-풍운제일검,2022-06-22,25000,0.00%,193000,25,73,2,25,중국,중국,(유)조이앤시네마
165,레닌그라드 카우보이 미국에 가다,1996-05-18,179000,0.00%,4673500,24,718,1,2,핀란드,핀란드,
166,아무도 없는 곳,2021-03-31,204000,0.00%,179368200,23,21216,1,1,한국,한국,(주)엣나인필름
166,드라이브 마이 카,2021-12-23,171000,0.00%,714182880,23,77146,1,3,일본,일본,(주)트리플픽쳐스
168,일일시호일,2019-01-17,154000,0.00%,332921019,22,42134,1,1,일본,일본,(주)영화사 진진
168,우리가 사랑이라고 믿는 것,2022-02-24,154000,0.00%,135675030,22,14663,1,1,영국,영국,(주)티캐스트
170,노웨어 스페셜,2021-12-29,252000,0.00%,65529390,21,7464,1,1,이탈리아,이탈리아,"그린나래미디어(주),(주)인터파크"
170,보드랍게,2022-02-23,147000,0.00%,147000,21,21,1,1,한국,한국,(주)인디플러그
172,십계,2021-12-02,180000,0.00%,30161040,20,3488,1,1,미국,미국,"(재)CBS,주식회사 블루필름웍스"
172,걸어도 걸어도,2009-06-18,191000,0.00%,263077800,20,35518,1,2,일본,일본,(주)영화사 진진
172,성냥공장 소녀,2001-04-28,148000,0.00%,3363000,20,490,1,2,핀란드,핀란드,
175,인사이드 르윈,2014-01-29,120000,0.00%,824704700,19,106749,1,1,미국,"미국,프랑스",블루미지
176,나는 나를 해고하지 않는다,2021-01-28,180000,0.00%,143420500,18,18758,1,1,한국,한국,(주)영화사 진진
177,포세이돈 어드벤쳐,1974-02-27,81000,0.00%,7393000,17,3565,1,1,미국,미국,
177,과거가 없는 남자,2005-10-14,127000,0.00%,16705500,17,2659,1,2,핀란드,핀란드,(주)영화랑
179,천로역정: 천국을 찾아서,2019-06-13,160000,0.00%,2210949010,16,297907,1,5,미국,미국,"(재)CBS,주식회사 마운틴픽쳐스"
180,스쿨 오브 락(樂),2021-05-13,104000,0.00%,4317000,13,582,1,1,한국,한국,(주)드림팩트엔터테인먼트
180,플레이그라운드,2022-05-25,75000,0.00%,22802100,13,2647,3,13,벨기에,벨기에,해피송
180,막다른 골목의 추억,2019-04-04,65000,0.00%,28519210,13,3543,1,1,한국,"한국,일본",(주)트리플픽쳐스
180,2차 송환,2022-09-29,115000,0.00%,127000,13,25,1,1,한국,한국,(주)시네마달
180,미스터 스마일,2018-12-27,80000,0.00%,182238300,13,22435,1,2,미국,미국,(주)티캐스트
185,1945 그레이트 워,2022-06-15,12000,0.00%,194000,12,74,2,12,프랑스,프랑스,(유)조이앤시네마
185,모리의 정원,2020-03-26,110000,0.00%,27721720,12,3299,1,1,일본,일본,(주)영화사 진진
185,소리없는 추격자,2022-06-16,12000,0.00%,194000,12,74,2,12,스페인,스페인,(유)조이앤시네마
188,올리 마키의 가장 행복한 날,2022-06-02,67000,0.00%,13412800,11,1520,2,10,기타,기타,"(주)디오시네마,GATE6"
188,고스트 스토리,2017-12-28,66000,0.00%,74729458,11,8801,1,1,미국,미국,"(주)리틀빅픽쳐스,주식회사 더쿱"
190,피아니스트의 전설,2020-01-01,110000,0.00%,395784462,10,49647,1,2,이탈리아,이탈리아,(주)라이크콘텐츠
190,웨일 라이더,2004-10-08,55000,0.00%,85062000,10,13320,1,1,뉴질랜드,뉴질랜드,무비즈엔터테인먼트㈜
190,황혼의 빛,2006-12-14,71000,0.00%,6158500,10,906,1,2,핀란드,핀란드,(주)스폰지이엔티
193,소중한 날의 꿈,2011-06-23,49000,0.00%,367996095,9,53257,1,4,한국,한국,에이원엔터테인먼트
194,베일리 어게인,2018-11-22,41000,0.00%,799797400,8,94176,1,2,미국,미국,(주)홈초이스
194,갈매기,2021-07-28,72000,0.00%,72000,8,8,1,1,한국,한국,(주)영화사 진진
196,남매의 여름밤,2020-08-20,22500,0.00%,187157102,7,22610,1,1,한국,한국,그린나래미디어(주)
196,그린 나이트,2021-08-05,45000,0.00%,266562680,7,28659,1,1,미국,미국,(주)팝엔터테인먼트
198,여배우는 오늘도,2017-09-14,36000,0.00%,140497800,6,17102,1,1,한국,한국,(주)메타플레이
198,흐르다,,54000,0.00%,54000,6,6,1,1,한국,한국,
200,돌아온다,2017-12-07,38000,0.00%,90034300,5,14042,1,2,한국,한국,(주)더블앤조이픽쳐스
200,이공삼칠,2022-06-08,32000,0.00%,32000,5,5,1,3,한국,한국,(주)씨네필운
200,아메리칸 셰프,2015-01-07,60000,0.00%,1270304429,5,155898,2,2,미국,미국,(주)영화사 진진
203,더 노비스,2022-05-25,26000,0.00%,53571600,4,6174,1,4,미국,미국,(주)영화사 진진
203,대니 콜린스,2015-09-30,48000,0.00%,427088305,4,56636,1,1,미국,미국,"(주)나이너스엔터테인먼트,(주)지어소프트"
203,송환,2004-03-19,32000,0.00%,15672800,4,2628,1,1,한국,한국,㈜인디스토리
203,록키 호러 픽쳐 쇼,1998-06-20,28000,0.00%,48994700,4,6385,1,1,미국,"미국,영국","(주)팝엔터테인먼트,(주)피터팬픽쳐스"
207,개의 역사,,24000,0.00%,1636000,3,257,1,1,한국,한국,
208,탐욕의 제국,2014-03-06,16000,0.00%,36759400,2,5810,1,1,한국,한국,(주)시네마달
208,마스터,2013-07-11,24000,0.00%,285551800,2,37237,1,2,미국,미국,(주)영화사 진진
208,립반윙클의 신부: 스페셜 에디션,2016-10-13,20000,0.00%,19109500,2,2247,1,1,일본,일본,"TCO(주)더콘텐츠온,주식회사 더쿱"
208,신은 죽지 않았다 3: 어둠 속의 빛,2018-07-19,22000,0.00%,721473400,2,92918,1,3,미국,미국,"(주)영화사 그램,(재)CBS"
212,용산,,8000,0.00%,809000,1,148,1,1,한국,한국,
212,"파리, 13구",2022-05-12,8000,0.00%,83333760,1,8516,1,1,프랑스,프랑스,"찬란,(주)하이스트레인저"
212,울보 권투부,2015-10-29,12000,0.00%,16618100,1,2871,1,1,한국,한국,㈜인디스토리
215,마부,,0,0.00%,20548500,0,10831,1,1,한국,한국,
215,최선의 삶,2021-09-01,0,0.00%,100788980,0,11691,1,1,한국,한국,(주)엣나인필름
215,미나리,2021-03-03,0,0.00%,10211802650,0,1134200,1,3,미국,미국,판씨네마(주)
215,그리스도 디 오리진,2022-04-14,0,0.00%,18872800,0,2035,1,3,기타,기타,(주)까멜리아이엔티
215,드롭박스,2016-05-19,0,0.00%,17217800,0,2315,1,3,한국,"한국,미국","(사)필레마,필름포럼,홀리가든"
