순위,영화명,개봉일,매출액,매출액점유율,누적매출액,관객수,누적관객수,스크린수,상영횟수,대표국적,국적,배급사
1,"어쩌다 공주, 닭냥이 왕자를 부탁해!",08-Sep,380636482 ,21.60%,383408482 ,40251 ,40559 ,306 ,2357 ,프랑스,프랑스,(주)팝엔터테인먼트
2,사랑할 땐 누구나 최악이 된다,25-Aug,249222172 ,14.10%,407814178 ,24480 ,40185 ,80 ,1771 ,노르웨이,노르웨이,"그린나래미디어(주),(주)하이스트레인저"
3,오! 마이 고스트,15-Sep,87624391 ,5.00%,87894391 ,11094 ,11124 ,283 ,1875 ,한국,한국,"(주)디스테이션,주식회사 제이씨엔터웍스"
4,한여름밤의 재즈,08-Sep,95648589 ,5.40%,99401589 ,9221 ,9664 ,43 ,713 ,미국,미국,찬란
5,9명의 번역가,14-Sep,89317508 ,5.10%,91873508 ,8445 ,8729 ,99 ,1168 ,프랑스,프랑스,(주)이놀미디어
6,둠둠,15-Sep,62369899 ,3.50%,62369899 ,7493 ,7493 ,74 ,689 ,한국,한국,(주)영화사 진진
7,홈리스,15-Sep,48098597 ,2.70%,49761597 ,6603 ,6836 ,86 ,842 ,한국,한국,그린나래미디어(주)
8,사랑은 비를 타고,,59268461 ,3.40%,81358961 ,6385 ,15020 ,33 ,507 ,미국,미국,워너브러더스 코리아(주)
9,썬더버드,21-Sep,51411400 ,2.90%,51411400 ,6078 ,6078 ,99 ,831 ,한국,한국,(주)트리플픽쳐스
10,다 잘된 거야,07-Sep,51703118 ,2.90%,54454118 ,5577 ,5869 ,40 ,710 ,프랑스,프랑스,(주)더쿱디스트리뷰션
11,아이의 노랫소리를 들려줘,22-Sep,52475585 ,3.00%,52475585 ,5390 ,5390 ,106 ,726 ,일본,일본,(주)라이크콘텐츠
12,성적표의 김민영,08-Sep,53951897 ,3.10%,59307897 ,5383 ,6021 ,48 ,765 ,한국,한국,(주)엣나인필름
13,바다 탐험대 옥토넛 : 탐험선 대작전,11-Aug,49063000 ,2.80%,744726950 ,5199 ,78907 ,86 ,402 ,영국,영국,와이드 릴리즈(주)
14,썬다운,31-Aug,43458899 ,2.50%,61363899 ,4521 ,6744 ,45 ,795 ,프랑스,프랑스,M&M 인터내셔널
15,성덕,28-Sep,26319798 ,1.50%,29573798 ,3409 ,3896 ,60 ,245 ,한국,한국,오드
16,물방울을 그리는 남자,28-Sep,27909600 ,1.60%,27909600 ,3304 ,3304 ,47 ,163 ,한국,한국,(주)영화사 진진
17,녹턴,18-Aug,11520000 ,0.70%,76829100 ,2093 ,11089 ,11 ,143 ,한국,한국,(주)시네마달
18,풀타임,18-Aug,16106199 ,0.90%,93886698 ,1853 ,10086 ,21 ,224 ,프랑스,프랑스,주식회사 슈아픽처스
19,"지금, 이대로가 좋아요",23-Apr,16000800 ,0.90%,162272800 ,1711 ,23381 ,26 ,292 ,한국,한국,"(주)엣나인필름,(주)스폰지이엔티,스폰지"
20,달이 지는 밤,22-Sep,16216196 ,0.90%,16958196 ,1640 ,1746 ,47 ,341 ,한국,한국,(주)디오시네마
21,어웨이크,24-Aug,9430100 ,0.50%,42708198 ,1525 ,5367 ,14 ,84 ,한국,한국,"주식회사 엔픽플,트윈플러스파트너스(주)"
22,잔혹했던 1948년 탐라의 봄,,4054000 ,0.20%,4054000 ,1517 ,1517 ,1 ,9 ,한국,한국,퓨어웨이픽쳐스
23,카시오페아,01-Jun,10459000 ,0.60%,209279300 ,1421 ,23863 ,5 ,12 ,한국,한국,(주)트리플픽쳐스
24,기기묘묘,22-Sep,9854099 ,0.60%,9854099 ,1097 ,1097 ,25 ,179 ,한국,한국,필름다빈
25,우리가 말하지 않은 것,01-Sep,9328400 ,0.50%,9450400 ,964 ,982 ,31 ,315 ,일본,일본,(주)디오시네마
26,그녀,22-May,11181900 ,0.60%,3025615944 ,963 ,371151 ,2 ,18 ,미국,미국,"주식회사 더쿱,유니버설픽쳐스인터내셔널 코리아(유)"
27,말아,25-Aug,7281000 ,0.40%,23334900 ,959 ,2772 ,19 ,286 ,한국,한국,㈜인디스토리
28,썸머 필름을 타고!,20-Jul,8328910 ,0.50%,310443526 ,950 ,32731 ,12 ,139 ,일본,일본,"(주)싸이더스,(주)블루라벨픽쳐스"
29,니얼굴,23-Jun,8617000 ,0.50%,72013500 ,946 ,8064 ,2 ,9 ,한국,한국,(주)영화사 진진
30,미혹,19-Oct,8172000 ,0.50%,8172000 ,908 ,908 ,2 ,4 ,한국,한국,"(주)엔케이컨텐츠,(주)디스테이션"
31,코다,31-Aug,6657000 ,0.40%,690515599 ,903 ,76289 ,3 ,13 ,프랑스,프랑스,판씨네마(주)
32,파라다이스 하이웨이,24-Aug,4114100 ,0.20%,43392800 ,666 ,4904 ,17 ,72 ,미국,미국,판씨네마(주)
33,부적: 남의 운을 빼앗는 자,07-Sep,5321500 ,0.30%,5321500 ,662 ,662 ,6 ,46 ,한국,한국,(주)트리플픽쳐스
34,거래완료,06-Oct,5827000 ,0.30%,6228000 ,620 ,675 ,2 ,4 ,한국,한국,(주)스튜디오디에이치엘
35,전쟁과 평화,27-Sep,1200000 ,0.10%,31628774 ,595 ,16099 ,1 ,8 ,미국,미국,
36,로마의 휴일,,1186000 ,0.10%,108629000 ,562 ,24991 ,2 ,18 ,미국,"미국,이탈리아",
37,문호 스트레이독스 [데드 애플],05-Apr,5277300 ,0.30%,236528780 ,555 ,30715 ,4 ,26 ,일본,일본,(주)애니플러스
38,코코순이,25-Aug,5980000 ,0.30%,40152900 ,492 ,4413 ,8 ,60 ,한국,한국,커넥트픽쳐스(주)
39,멋진 세계,11-Aug,4110400 ,0.20%,57515300 ,485 ,6005 ,9 ,81 ,일본,일본,(주)엣나인필름
40,그린 맨션,,922000 ,0.10%,14218000 ,461 ,6738 ,1 ,12 ,미국,미국,
41,고고다이노 극장판: 얼음공룡의 비밀,05-Oct,4248000 ,0.20%,4248000 ,458 ,458 ,2 ,3 ,한국,한국,"(주)넥스트엔터테인먼트월드(NEW),(주)블루라벨픽쳐스"
41,기도의 숨결,18-Aug,3891500 ,0.20%,23593100 ,458 ,2800 ,5 ,50 ,프랑스,프랑스,(주)영화사 진진
43,젊은 남자,17-Dec,5329900 ,0.30%,6588900 ,443 ,632 ,3 ,14 ,한국,한국,(주)스튜디오 보난자
44,대무가,12-Oct,3888000 ,0.20%,3888000 ,432 ,432 ,1 ,1 ,한국,한국,"판씨네마(주),(주)케이티알파"
45,"굿 럭 투 유, 리오 그랜드",11-Aug,3816400 ,0.20%,91674216 ,428 ,9447 ,9 ,60 ,영국,영국,"㈜무비다이브,(주)퍼스트런"
46,당신의 이웃은 친절하지 않다,15-Sep,4395000 ,0.20%,4395000 ,421 ,421 ,10 ,116 ,한국,한국,주식회사 씨엠닉스
47,티파니에서 아침을,26-Aug,840000 ,0.00%,127507700 ,420 ,28437 ,1 ,12 ,미국,미국,주식회사 마운틴픽쳐스
48,전송가,,834000 ,0.00%,16510500 ,417 ,8270 ,1 ,12 ,미국,미국,
49,2차 송환,29-Sep,3471000 ,0.20%,3598000 ,415 ,440 ,16 ,30 ,한국,한국,(주)시네마달
50,파계,,784000 ,0.00%,11558000 ,392 ,5880 ,1 ,6 ,미국,미국,
51,시대혁명,13-Oct,3420000 ,0.20%,4520000 ,380 ,480 ,1 ,2 ,영국,영국,델로스
52,주연,29-Sep,3192000 ,0.20%,3192000 ,363 ,363 ,20 ,38 ,한국,한국,(주)마노엔터테인먼트
53,선데이리그,05-Oct,2847000 ,0.20%,3552000 ,337 ,442 ,1 ,2 ,한국,한국,아이 엠
54,작은새와 돼지씨,25-Aug,2285500 ,0.10%,8066300 ,334 ,1082 ,8 ,110 ,한국,한국,필름다빈
55,파리의 연인,,709500 ,0.00%,25978000 ,330 ,10526 ,1 ,12 ,미국,미국,
56,4등,13-Apr,2636000 ,0.10%,299229700 ,326 ,40309 ,1 ,3 ,한국,한국,"(주)프레인글로벌,CGV아트하우스"
57,언니는 말괄량이,,576000 ,0.00%,10418000 ,283 ,5966 ,1 ,11 ,한국,한국,
58,K클래식 제너레이션,31-Aug,2916600 ,0.20%,5720000 ,278 ,545 ,7 ,75 ,기타,기타,(주)엣나인필름
59,애프터 미투,06-Oct,2412000 ,0.10%,2641000 ,268 ,302 ,2 ,2 ,한국,한국,(주)영화사 그램
60,커피와 담배,27-Jul,2190000 ,0.10%,81313900 ,255 ,10902 ,1 ,15 ,미국,미국,"(주)영화사 안다미로,(주)스폰지이엔티"
61,비브르 사 비,03-May,2488000 ,0.10%,30885000 ,252 ,3914 ,4 ,24 ,프랑스,프랑스,"알토미디어(주),㈜영화사 백두대간"
62,이공삼칠,08-Jun,490000 ,0.00%,522000 ,245 ,250 ,1 ,29 ,한국,한국,(주)씨네필운
63,리멤버 미,29-Jun,1782000 ,0.10%,7138500 ,243 ,796 ,1 ,3 ,일본,일본,(주)박수엔터테인먼트
64,스틸 앨리스,29-Apr,1239000 ,0.10%,874687546 ,237 ,113473 ,1 ,5 ,미국,미국,그린나래미디어(주)
65,엔젤 하트,05-Aug,2116500 ,0.10%,13861000 ,235 ,1448 ,5 ,50 ,미국,미국,"주식회사 블루필름웍스,(주)캐스팅라인,트라이스타 픽쳐스"
66,뱅크시,11-Aug,1578000 ,0.10%,47124499 ,223 ,5659 ,6 ,60 ,영국,영국,(주)마노엔터테인먼트
67,천국보다 낯선,11-Nov,1927000 ,0.10%,39142300 ,222 ,4513 ,2 ,18 ,미국,미국,(주)영화사 안다미로
68,인플루엔자,25-Aug,1867000 ,0.10%,7215900 ,221 ,755 ,9 ,82 ,한국,한국,아이 엠
69,블레이즈,07-Sep,1923500 ,0.10%,1923500 ,203 ,203 ,5 ,46 ,미국,미국,주식회사 더쿱
70,맨체스터 바이 더 씨,15-Feb,2600000 ,0.10%,454630100 ,200 ,56587 ,1 ,1 ,미국,미국,THE 픽쳐스
70,수면의 과학,21-Dec,1776000 ,0.10%,415231200 ,200 ,58650 ,2 ,17 ,프랑스,프랑스,"(주)영화사 안다미로,(주)엣나인필름,(주)스폰지이엔티"
72,베르히만 아일랜드,04-Aug,1618000 ,0.10%,69443598 ,196 ,7523 ,4 ,38 ,프랑스,"프랑스,벨기에,독일,스웨덴,멕시코",찬란
73,애프터 양,01-Jun,1669000 ,0.10%,386233390 ,182 ,39852 ,2 ,18 ,미국,미국,"(주)영화특별시에스엠씨,주식회사 왓챠"
74,미스테리 트레인,,1568000 ,0.10%,9152500 ,180 ,1158 ,1 ,9 ,일본,"일본,미국",(주)영화사 안다미로
75,내가 못 나가는 것도 아닌데,24-Aug,1378000 ,0.10%,1964000 ,173 ,265 ,4 ,37 ,한국,한국,김충길 필름
76,스톰 보이,,1548000 ,0.10%,1548000 ,172 ,172 ,1 ,1 ,호주,호주,
77,미싱타는 여자들,20-Jan,1360000 ,0.10%,2291000 ,170 ,303 ,1 ,2 ,한국,한국,(주)영화사 진진
78,오마주,26-May,1650000 ,0.10%,102423500 ,165 ,13507 ,1 ,2 ,한국,한국,트윈플러스파트너스(주)
79,한여름의 판타지아,11-Jun,820000 ,0.00%,290377458 ,164 ,37424 ,1 ,1 ,한국,"한국,일본",㈜인디스토리
79,지상의 밤,,1457000 ,0.10%,14612000 ,164 ,1799 ,1 ,8 ,일본,"일본,미국,독일,이탈리아,핀란드",(주)영화사 안다미로
81,큐어,06-Jul,1442310 ,0.10%,261287969 ,162 ,25050 ,2 ,18 ,일본,일본,M&M 인터내셔널
82,깊고 푸른 밤,01-Mar,2136300 ,0.10%,12214800 ,160 ,4439 ,5 ,18 ,한국,한국,
83,"나, 다니엘 블레이크",08-Dec,1749000 ,0.10%,750991460 ,159 ,100047 ,1 ,1 ,영국,영국,(주)영화사 진진
84,릴리 슈슈의 모든 것,23-Jun,1668000 ,0.10%,75061098 ,157 ,10840 ,1 ,13 ,일본,일본,"(주)미디어캐슬,(주)튜브엔터테인먼트"
85,우먼,25-Aug,1254000 ,0.10%,4116600 ,153 ,471 ,4 ,37 ,프랑스,프랑스,(주)에스와이코마드
86,파로호,18-Aug,1118000 ,0.10%,34887400 ,151 ,3920 ,7 ,69 ,한국,한국,(주)더쿱디스트리뷰션
86,분노의 포도,,385000 ,0.00%,8283000 ,151 ,3430 ,1 ,9 ,미국,미국,
88,경아의 딸,16-Jun,1200000 ,0.10%,59957100 ,150 ,8620 ,2 ,3 ,한국,한국,㈜인디스토리
89,벤허,07-Sep,367500 ,0.00%,309562312 ,146 ,52858 ,1 ,6 ,미국,미국,(주)팝엔터테인먼트
90,순응자,28-Jan,1622000 ,0.10%,48445400 ,139 ,6406 ,1 ,6 ,이탈리아,"이탈리아,프랑스,독일",㈜영화사 백두대간
91,예수는 역사다,13-Jul,1759000 ,0.10%,1256725200 ,136 ,174770 ,1 ,1 ,미국,미국,(재)CBS
92,실버라이닝 플레이북,14-Feb,953500 ,0.10%,966262000 ,133 ,129875 ,1 ,3 ,미국,미국,(주)나이너스엔터테인먼트
93,중경삼림,02-Sep,1173000 ,0.10%,924668590 ,130 ,98498 ,2 ,11 ,홍콩,홍콩,(주)디스테이션
94,수프와 이데올로기,20-Oct,1008000 ,0.10%,2121500 ,126 ,301 ,1 ,1 ,한국,한국,(주)엣나인필름
95,암스테르담 바이스,29-Sep,600000 ,0.00%,600000 ,120 ,120 ,5 ,6 ,네덜란드,네덜란드,(주)씨네마블랙
96,룸 쉐어링,22-Jun,590000 ,0.00%,28030260 ,118 ,4151 ,1 ,2 ,한국,한국,"주식회사 엔픽플,트윈플러스파트너스(주)"
97,대해적,,232000 ,0.00%,13867000 ,116 ,6622 ,1 ,3 ,미국,미국,
98,낮과 달,20-Oct,1017000 ,0.10%,3073000 ,113 ,390 ,1 ,1 ,한국,한국,찬란
99,리스본행 야간열차,05-Jun,963000 ,0.10%,607944336 ,112 ,79118 ,1 ,16 ,독일,"독일,스위스,포르투갈",(주)나이너스엔터테인먼트
99,혼자 사는 사람들,19-May,1192500 ,0.10%,112099060 ,112 ,12609 ,1 ,2 ,한국,한국,주식회사 더쿱
101,감각의 제국,01-Apr,788000 ,0.00%,5167000 ,109 ,762 ,1 ,1 ,일본,일본,패스21엔터테인먼트
102,누구를 위하여 종은 울리나,18-Mar,267500 ,0.00%,34119086 ,107 ,18774 ,1 ,6 ,미국,미국,
102,패러렐 마더스,31-Mar,1177000 ,0.10%,87552800 ,107 ,9477 ,1 ,1 ,스페인,스페인,(주)스튜디오디에이치엘
102,내가 날 부를 때,09-Sep,1070000 ,0.10%,42048490 ,107 ,4524 ,1 ,1 ,중국,중국,(주)영화특별시에스엠씨
102,아담,25-Aug,1070000 ,0.10%,13820700 ,107 ,1848 ,1 ,1 ,모로코,"모로코,프랑스,벨기에",시네마 뉴원
102,욕창,02-Jul,1167000 ,0.10%,13190580 ,107 ,1651 ,1 ,1 ,한국,한국,필름다빈
107,무녀도,24-Nov,515000 ,0.00%,39449000 ,103 ,5375 ,1 ,3 ,한국,한국,(주)씨네필운
108,밤쉘: 세상을 바꾼 폭탄선언,08-Jul,1300000 ,0.10%,1546525340 ,100 ,182366 ,1 ,1 ,미국,"미국,캐나다",(주)홈초이스
108,미션 투 베를린,07-Sep,500000 ,0.00%,500000 ,100 ,100 ,5 ,5 ,영국,영국,(주)제이에이와이이엔터테인먼트
108,적인걸: 음양사,08-Sep,500000 ,0.00%,500000 ,100 ,100 ,5 ,5 ,카자흐스탄,카자흐스탄,초코필름
108,쌍화점,08-Sep,500000 ,0.00%,500000 ,100 ,100 ,5 ,5 ,중국,중국,(주)액티버스엔터테인먼트
108,벽혈금의위,08-Sep,500000 ,0.00%,500000 ,100 ,100 ,5 ,5 ,중국,중국,초코필름
113,고종황제와 의사 안중근,,252000 ,0.00%,8205000 ,98 ,4066 ,1 ,8 ,한국,한국,
114,가을이야기,,918000 ,0.10%,15992500 ,97 ,2053 ,1 ,13 ,프랑스,프랑스,(주)영화사 안다미로
114,로미오와 줄리엣,28-Dec,546000 ,0.00%,144999400 ,97 ,20389 ,1 ,3 ,미국,미국,"이십세기폭스코리아(주),(주)프레인글로벌"
116,세상을 바꾼 변호인,13-Jun,1056000 ,0.10%,395181170 ,96 ,50474 ,1 ,1 ,미국,미국,CGV아트하우스
117,미스비헤이비어,27-May,950000 ,0.10%,235371860 ,95 ,28979 ,1 ,1 ,영국,영국,판씨네마(주)
117,"아치의 노래, 정태춘",18-May,349000 ,0.00%,322917210 ,95 ,34061 ,1 ,28 ,한국,한국,(주)넥스트엔터테인먼트월드(NEW)
119,본 투 비 블루,09-Jun,835000 ,0.00%,771922624 ,94 ,94716 ,2 ,9 ,캐나다,"캐나다,영국,미국",그린나래미디어(주)
120,더 와이프,27-Feb,810000 ,0.00%,320778451 ,90 ,41638 ,1 ,1 ,영국,영국,(주)팝엔터테인먼트
120,테이크 오프: 파도위에 서다,25-Aug,903000 ,0.10%,2604000 ,90 ,259 ,2 ,17 ,한국,한국,(주)아우라픽처스
122,좀비는 좀비끼리 우리는 우리끼리,,669000 ,0.00%,914000 ,85 ,116 ,1 ,2 ,한국,한국,필름다빈
123,아나이스 인 러브,13-Oct,738000 ,0.00%,738000 ,82 ,82 ,1 ,1 ,프랑스,프랑스,해피송
124,"허황옥 3일, 잃어버린 2천 년의 기억",12-May,400000 ,0.00%,400000 ,80 ,80 ,4 ,4 ,한국,한국,(주)영화사 그램
124,보일링 포인트,04-Aug,578000 ,0.00%,43881553 ,80 ,4320 ,3 ,17 ,영국,영국,(주)이놀미디어
124,역마차,,200000 ,0.00%,19372900 ,80 ,7836 ,1 ,6 ,미국,미국,
127,노틀담의 꼽추,31-Jul,161000 ,0.00%,27571000 ,78 ,13774 ,1 ,11 ,프랑스,프랑스,
127,데드 맨,23-May,679000 ,0.00%,20588000 ,78 ,2190 ,1 ,7 ,미국,"미국,독일,일본",(주)영화사 안다미로
129,8월의 크리스마스,24-Jan,803000 ,0.00%,224125100 ,75 ,31446 ,1 ,8 ,한국,한국,"한국영상투자개발(주),(주)싸이더스"
129,그대라는기억 연숙씨,16-Jun,375000 ,0.00%,754000 ,75 ,139 ,1 ,3 ,한국,한국,"(주)드림팩트엔터테인먼트,주식회사 블루필름웍스"
129,다운 바이 로,,665000 ,0.00%,8756400 ,75 ,1165 ,1 ,6 ,미국,"미국,독일",(주)영화사 안다미로
132,웨스트 사이드 스토리,29-May,414000 ,0.00%,16288600 ,71 ,5569 ,1 ,3 ,미국,미국,
132,그 여름 가장 조용한 바다,13-Aug,543000 ,0.00%,41136034 ,71 ,5856 ,1 ,11 ,일본,일본,"(주)영화사 진진,(주)스폰지이엔티"
134,스펜서,16-Mar,700000 ,0.00%,782492830 ,70 ,83117 ,1 ,1 ,영국,영국,"(주)영화특별시에스엠씨,그린나래미디어(주)"
134,어거스트 버진,24-Mar,560000 ,0.00%,22774600 ,70 ,2711 ,1 ,1 ,스페인,스페인,M&M 인터내셔널
134,더 노비스,25-May,560000 ,0.00%,54131600 ,70 ,6244 ,1 ,1 ,미국,미국,(주)영화사 진진
134,말임씨를 부탁해,13-Apr,560000 ,0.00%,157499670 ,70 ,20769 ,1 ,1 ,한국,한국,(주)씨네필운
134,허셀프,12-May,560000 ,0.00%,7116600 ,70 ,847 ,1 ,1 ,영국,영국,(주)드림팩트엔터테인먼트
139,박서방,05-Oct,172500 ,0.00%,16350500 ,67 ,7923 ,1 ,6 ,한국,한국,
140,피닉스,22-Jul,635000 ,0.00%,103477190 ,66 ,12297 ,1 ,2 ,독일,독일,M&M 인터내셔널
141,모퉁이,11-Aug,525000 ,0.00%,10421400 ,64 ,1098 ,4 ,23 ,한국,한국,(주)영화사 그램
142,초록밤,28-Jul,412000 ,0.00%,22363327 ,63 ,2595 ,4 ,20 ,한국,한국,㈜인디스토리
142,에덴의 동쪽,22-Feb,157500 ,0.00%,24054000 ,63 ,10626 ,1 ,5 ,미국,미국,
144,도굴: 패왕총,27-Sep,302000 ,0.00%,302000 ,62 ,62 ,5 ,5 ,중국,중국,(유)조이앤시네마
145,아프리카의 여왕,,152500 ,0.00%,16287500 ,61 ,7940 ,1 ,5 ,미국,미국,
146,우정어린 설복,,119000 ,0.00%,6787000 ,59 ,3382 ,1 ,4 ,미국,미국,
147,영원한 휴가,,419000 ,0.00%,7800900 ,55 ,1013 ,1 ,7 ,미국,미국,(주)영화사 안다미로
148,모어,23-Jun,270000 ,0.00%,95732900 ,52 ,11307 ,1 ,2 ,한국,한국,(주)엣나인필름
149,휴가,21-Oct,50 ,0.00%,55531350 ,50 ,7651 ,1 ,1 ,한국,한국,㈜인디스토리
150,보와니의 분기점,,98000 ,0.00%,2835000 ,49 ,1199 ,1 ,4 ,미국,미국,
150,세 아내에게 온 편지,,98000 ,0.00%,2854000 ,49 ,1259 ,1 ,6 ,미국,미국,
150,동경 이야기,16-Aug,571000 ,0.00%,33433000 ,49 ,3607 ,1 ,2 ,일본,일본,"(주)엣나인필름,오드"
153,가슴에 빛나는 별,,94000 ,0.00%,8224000 ,47 ,4005 ,1 ,9 ,미국,미국,
154,고양이를 부탁해,12-Oct,454000 ,0.00%,72864990 ,46 ,7592 ,1 ,1 ,한국,한국,"(주)엣나인필름,(주)시네마서비스"
155,헨리 5세,,233000 ,0.00%,7208000 ,45 ,3546 ,1 ,3 ,영국,영국,
156,녹색광선,,455000 ,0.00%,38349000 ,43 ,4793 ,1 ,2 ,프랑스,프랑스,(주)영화사 안다미로
156,마음의 행로,,86000 ,0.00%,33862500 ,43 ,16824 ,1 ,4 ,미국,미국,
158,로스트 도터,14-Jul,330000 ,0.00%,121116200 ,42 ,13008 ,1 ,1 ,미국,미국,"(주)영화특별시에스엠씨,그린나래미디어(주)"
159,돌아온 사나이,14-Oct,82000 ,0.00%,3933500 ,41 ,1957 ,1 ,9 ,한국,한국,
160,상록수,20-Sep,80000 ,0.00%,8414000 ,40 ,4189 ,1 ,4 ,한국,한국,
160,남태평양,07-Aug,80000 ,0.00%,21282924 ,40 ,11943 ,1 ,7 ,미국,미국,
162,죽음전의 키스,,78000 ,0.00%,1168000 ,39 ,579 ,1 ,6 ,미국,미국,
163,노회찬6411,14-Oct,180000 ,0.00%,273268000 ,36 ,31742 ,1 ,1 ,한국,한국,"(주)리틀빅픽쳐스,시네마6411"
163,태양을 향해 달려라,,72000 ,0.00%,776000 ,36 ,388 ,1 ,9 ,미국,미국,
165,폭풍의 언덕,,70000 ,0.00%,19255500 ,35 ,9352 ,1 ,9 ,미국,미국,
166,지지,,66000 ,0.00%,4346000 ,33 ,2328 ,1 ,4 ,미국,미국,
166,최선의 삶,01-Sep,291000 ,0.00%,101079980 ,33 ,11724 ,1 ,1 ,한국,한국,(주)엣나인필름
168,북북서로 진로를 돌려라,,242000 ,0.00%,46719900 ,32 ,9173 ,1 ,1 ,미국,미국,
168,마미,18-Dec,377000 ,0.00%,489222544 ,32 ,61293 ,1 ,1 ,캐나다,"캐나다,프랑스",(주)엣나인필름
168,80일간의 세계일주,,64000 ,0.00%,11664000 ,32 ,5804 ,1 ,2 ,미국,미국,
168,기적,23-Dec,64000 ,0.00%,20889558 ,32 ,11654 ,1 ,7 ,미국,미국,
172,내언니전지현과 나,03-Dec,180000 ,0.00%,24134300 ,30 ,2838 ,1 ,1 ,한국,한국,호우주의보
173,소설가의 영화,21-Apr,238000 ,0.00%,96076570 ,28 ,10550 ,2 ,8 ,한국,한국,"(주)영화제작전원사 ,(주)콘텐츠판다"
174,지구 최후의 밤,25-Jul,264000 ,0.00%,59103580 ,27 ,7184 ,1 ,6 ,중국,중국,찬란
174,노다지,,54000 ,0.00%,7726500 ,27 ,3851 ,1 ,4 ,한국,한국,
176,네 멋대로 해라: 장 뤽 고다르,19-Mar,243000 ,0.00%,14321600 ,26 ,1769 ,1 ,9 ,프랑스,프랑스,(주)이수C&E
177,어나더 라운드,19-Jan,250000 ,0.00%,337903390 ,25 ,36423 ,1 ,1 ,기타,기타,(주)엣나인필름
178,화양연화,20-Oct,213000 ,0.00%,1091697170 ,24 ,122005 ,1 ,6 ,홍콩,"홍콩,프랑스",(주)디스테이션
178,태일이,01-Dec,162000 ,0.00%,981479590 ,24 ,118678 ,1 ,2 ,한국,한국,(주)리틀빅픽쳐스
180,우리가 사랑이라고 믿는 것,24-Feb,159000 ,0.00%,136666030 ,22 ,14798 ,1 ,2 ,영국,영국,(주)티캐스트
181,어느 가족,26-Jul,67300 ,0.00%,1441420700 ,21 ,174917 ,1 ,1 ,일본,일본,(주)티캐스트
182,일 포스티노,09-Mar,240000 ,0.00%,114310100 ,20 ,15280 ,1 ,1 ,이탈리아,"이탈리아,프랑스",(주)영화사 진진
183,군다,14-Jul,139000 ,0.00%,8727000 ,18 ,1021 ,1 ,1 ,미국,미국,(주)영화사 진진
184,윤희에게,14-Nov,149000 ,0.00%,985261639 ,17 ,123590 ,1 ,1 ,한국,한국,(주)리틀빅픽쳐스
184,내 사랑,12-Jul,170000 ,0.00%,2470166725 ,17 ,337808 ,1 ,1 ,아일랜드,"아일랜드,캐나다",오드
186,리볼버,18-Aug,192000 ,0.00%,15564500 ,16 ,1597 ,1 ,1 ,영국,영국,(주)제이앤씨미디어그룹
186,고령가 소년 살인사건,23-Nov,157000 ,0.00%,138442500 ,16 ,10809 ,1 ,4 ,대만,대만,(주)리틀빅픽쳐스
186,운디네,24-Dec,126000 ,0.00%,66868920 ,16 ,7760 ,1 ,1 ,독일,독일,M&M 인터내셔널
189,벌새,29-Aug,70000 ,0.00%,1202002974 ,14 ,147928 ,1 ,2 ,한국,한국,"(주)엣나인필름,(주)콘텐츠판다"
189,논-픽션,16-May,132000 ,0.00%,70872350 ,14 ,8731 ,1 ,1 ,프랑스,프랑스,(주)트리플픽쳐스
189,투란도트 어둠의 왕국,18-Aug,96000 ,0.00%,8861700 ,14 ,980 ,2 ,5 ,한국,한국,주식회사 블루필름웍스
192,행복한 라짜로,20-Jun,115000 ,0.00%,131548240 ,13 ,16560 ,1 ,1 ,이탈리아,이탈리아,주식회사 슈아픽처스
193,소공녀,22-Mar,106000 ,0.00%,482399200 ,12 ,60474 ,1 ,1 ,한국,한국,CGV아트하우스
193,누에치던 방,31-Jan,60000 ,0.00%,21013300 ,12 ,2714 ,1 ,1 ,한국,한국,"서울독립영화제,무브먼트"
193,트립 투 잉글랜드,26-Nov,144000 ,0.00%,34611300 ,12 ,4412 ,1 ,2 ,영국,영국,찬란
196,국경의 왕,28-Feb,55000 ,0.00%,14766900 ,11 ,2117 ,1 ,2 ,한국,한국,"무브먼트,독립영화전용관 인디스페이스"
196,신은 죽지 않았다 3: 어둠 속의 빛,19-Jul,110000 ,0.00%,721583400 ,11 ,92929 ,1 ,1 ,미국,미국,"(주)영화사 그램,(재)CBS"
198,웰컴 투 X-월드,29-Oct,57000 ,0.00%,18099400 ,10 ,2294 ,2 ,7 ,한국,한국,(주)시네마달
199,아이들은 즐겁다,05-May,28500 ,0.00%,179161170 ,9 ,21530 ,1 ,1 ,한국,한국,"메가박스중앙(주)플러스엠,(주)영화사울림"
199,풀잎들,25-Oct,45000 ,0.00%,60455250 ,9 ,7470 ,1 ,1 ,한국,한국,"(주)콘텐츠판다,(주)영화제작전원사 ,무브먼트"
199,초행,07-Dec,45000 ,0.00%,58615900 ,9 ,7602 ,1 ,2 ,한국,한국,(주)인디플러그
202,나는보리,21-May,24800 ,0.00%,88722160 ,8 ,12347 ,1 ,1 ,한국,한국,(주)영화사 진진
202,임파서블 러브,28-Jul,54000 ,0.00%,27776900 ,8 ,2946 ,2 ,8 ,프랑스,프랑스,(주)디오시네마
202,애프터,22-Aug,76000 ,0.00%,496189740 ,8 ,59003 ,1 ,1 ,미국,미국,판씨네마(주)
205,9월이 오면,,29000 ,0.00%,31108000 ,7 ,15436 ,1 ,1 ,미국,미국,
205,쁘띠 마망,07-Oct,62000 ,0.00%,147412940 ,7 ,16306 ,1 ,1 ,프랑스,프랑스,찬란
205,어제 일은 모두 괜찮아,21-Nov,21500 ,0.00%,136384780 ,7 ,19044 ,1 ,1 ,한국,한국,(주)삼백상회
205,타오르는 여인의 초상,16-Jan,70000 ,0.00%,1326357938 ,7 ,157608 ,1 ,5 ,프랑스,프랑스,"그린나래미디어(주),(주)홈초이스"
205,그 후,06-Jul,35000 ,0.00%,142517508 ,7 ,18674 ,1 ,2 ,한국,한국,"(주)영화제작전원사 ,(주)콘텐츠판다"
205,나를 만나는 길,12-May,55000 ,0.00%,102801800 ,7 ,11131 ,1 ,2 ,영국,영국,(주)티캐스트
205,세 가지 색 : 블루,23-Apr,66000 ,0.00%,27256800 ,7 ,3597 ,1 ,1 ,프랑스,프랑스,"(주)영화사 안다미로,㈜영화사 백두대간"
212,트랜짓,02-Jul,48000 ,0.00%,51618160 ,6 ,6125 ,1 ,1 ,독일,독일,M&M 인터내셔널
212,나는 나를 해고하지 않는다,28-Jan,18300 ,0.00%,143438800 ,6 ,18764 ,1 ,1 ,한국,한국,(주)영화사 진진
212,도망친 여자,17-Sep,30000 ,0.00%,87067240 ,6 ,10344 ,1 ,2 ,한국,한국,"(주)영화제작전원사 ,(주)콘텐츠판다"
212,체리 향기,01-Jan,44000 ,0.00%,7944000 ,6 ,1084 ,1 ,1 ,프랑스,"프랑스,이란",㈜영화사 백두대간
216,얼굴들,24-Jan,25000 ,0.00%,17160000 ,5 ,2337 ,1 ,2 ,한국,한국,(주)시네마달
216,드라이브 마이 카,23-Dec,40000 ,0.00%,716503880 ,5 ,77403 ,1 ,2 ,일본,일본,(주)트리플픽쳐스
216,내 친구의 집은 어디인가,17-Aug,38000 ,0.00%,12294000 ,5 ,1684 ,1 ,1 ,이란,이란,
219,바람이 우리를 데려다 주리라,22-Nov,22000 ,0.00%,8028000 ,4 ,1124 ,1 ,1 ,이란,이란,㈜영화사 백두대간
219,대명천군 금의위,17-Aug,4000 ,0.00%,244000 ,4 ,75 ,2 ,4 ,중국,중국,(유)조이앤시네마
219,극장판 윌벤져스 : 수상한 캠핑 대소동,23-Jun,44000 ,0.00%,293037800 ,4 ,29432 ,1 ,1 ,한국,한국,(주)대교 미디어콘텐츠사업본부
222,이별의 아침에 약속의 꽃을 장식하자,19-Jul,33000 ,0.00%,348298200 ,3 ,42471 ,1 ,1 ,일본,일본,(주)미디어캐슬
222,돌아가는 길,,12000 ,0.00%,12000 ,3 ,3 ,1 ,3 ,한국,한국,호우주의보
222,재춘언니,31-Mar,10000 ,0.00%,36063500 ,3 ,5735 ,1 ,1 ,한국,한국,(주)시네마달
225,소피의 세계,03-Mar,10000 ,0.00%,36106600 ,2 ,4244 ,1 ,1 ,한국,한국,찬란
225,인크레더블 손오공,18-Jul,2000 ,0.00%,47000 ,2 ,47 ,2 ,2 ,중국,중국,(주)케이알씨지
225,바바라,21-Mar,16000 ,0.00%,26797600 ,2 ,3321 ,1 ,1 ,독일,독일,"M&M 인터내셔널,(주)영화사 조제"
225,흉,,8000 ,0.00%,8000 ,2 ,2 ,1 ,2 ,한국,한국,호우주의보
225,레더 하우스,30-Sep,2000 ,0.00%,3000 ,2 ,3 ,2 ,2 ,이탈리아,이탈리아,(유)조이앤시네마
225,우리에겐 교황이 있다,02-May,18000 ,0.00%,30678000 ,2 ,4235 ,1 ,2 ,이탈리아,"이탈리아,프랑스",주식회사 마운틴픽쳐스
231,항거:유관순 이야기,27-Feb,5000 ,0.00%,9291464101 ,1 ,1157954 ,1 ,1 ,한국,한국,롯데컬처웍스(주)롯데엔터테인먼트
231,컴온 컴온,30-Jun,11000 ,0.00%,154650500 ,1 ,16876 ,1 ,1 ,미국,미국,(주)스튜디오디에이치엘
231,해변의 폴린,,6000 ,0.00%,29807500 ,1 ,3590 ,1 ,1 ,프랑스,프랑스,(주)영화사 안다미로
231,스파이형 모델,20-Jul,5000 ,0.00%,1130000 ,1 ,178 ,1 ,1 ,한국,한국,주식회사 씨엠닉스
231,아이를 위한 아이,21-Jul,6000 ,0.00%,38482300 ,1 ,4515 ,1 ,1 ,한국,한국,(주)트리플픽쳐스
236,줄탁동시,01-Mar,0 ,0.00%,25606600 ,0 ,3716 ,1 ,1 ,한국,한국,㈜인디스토리
236,너에게 가는 길,17-Nov,0 ,0.00%,161457700 ,0 ,18605 ,1 ,1 ,한국,한국,(주)엣나인필름
236,챔피언스,07-Feb,0 ,0.00%,39201980 ,0 ,4505 ,1 ,1 ,스페인,스페인,(주)영화사 빅
236,우리는 매일매일,30-Jun,0 ,0.00%,25091670 ,0 ,3230 ,1 ,1 ,한국,한국,㈜인디스토리
236,드롭박스,19-May,0 ,0.00%,17217800 ,0 ,2315 ,1 ,2 ,한국,"한국,미국","(사)필레마,필름포럼,홀리가든"
