순위,영화명,개봉일,매출액,매출액점유율,누적매출액,관객수,누적관객수,스크린수,상영횟수,대표국적,국적,배급사
1,바다 탐험대 옥토넛 : 탐험선 대작전,11-Aug,695663950 ,37.10%,695663950 ,73708 ,73708 ,241 ,3920 ,영국,영국,와이드 릴리즈(주)
2,사랑할 땐 누구나 최악이 된다,25-Aug,158592006 ,8.50%,158592006 ,15705 ,15705 ,68 ,638 ,노르웨이,노르웨이,"그린나래미디어(주),(주)하이스트레인저"
3,썸머 필름을 타고!,20-Jul,106234696 ,5.70%,302114616 ,11313 ,31781 ,49 ,1132 ,일본,일본,"(주)싸이더스,(주)블루라벨픽쳐스"
4,녹턴,18-Aug,64021100 ,3.40%,65309100 ,8674 ,8996 ,54 ,513 ,한국,한국,(주)시네마달
5,"굿 럭 투 유, 리오 그랜드",11-Aug,80279316 ,4.30%,87857816 ,8293 ,9019 ,46 ,764 ,영국,영국,"㈜무비다이브,(주)퍼스트런"
6,풀타임,18-Aug,74306499 ,4.00%,77780499 ,7908 ,8233 ,59 ,750 ,프랑스,프랑스,주식회사 슈아픽처스
7,베르히만 아일랜드,04-Aug,63766098 ,3.40%,67825598 ,6834 ,7327 ,45 ,742 ,프랑스,"프랑스,벨기에,독일,스웨덴,멕시코",찬란
8,멋진 세계,11-Aug,50860900 ,2.70%,53404900 ,5202 ,5520 ,47 ,661 ,일본,일본,(주)엣나인필름
9,뱅크시,11-Aug,41896999 ,2.20%,45546499 ,5011 ,5436 ,35 ,534 ,영국,영국,(주)마노엔터테인먼트
10,파라다이스 하이웨이,24-Aug,39278700 ,2.10%,39278700 ,4238 ,4238 ,53 ,427 ,미국,미국,판씨네마(주)
11,코코순이,25-Aug,34172900 ,1.80%,34172900 ,3921 ,3921 ,50 ,363 ,한국,한국,커넥트픽쳐스(주)
12,보일링 포인트,04-Aug,39735553 ,2.10%,43303553 ,3910 ,4240 ,41 ,583 ,영국,영국,(주)이놀미디어
13,어웨이크,24-Aug,33278098 ,1.80%,33278098 ,3842 ,3842 ,72 ,515 ,한국,한국,"주식회사 엔픽플,트윈플러스파트너스(주)"
14,파로호,18-Aug,33769400 ,1.80%,33769400 ,3769 ,3769 ,51 ,463 ,한국,한국,(주)더쿱디스트리뷰션
15,큐어,06-Jul,26117299 ,1.40%,259845659 ,2635 ,24888 ,23 ,292 ,일본,일본,M&M 인터내셔널
16,기도의 숨결,18-Aug,19701600 ,1.10%,19701600 ,2342 ,2342 ,14 ,138 ,프랑스,프랑스,(주)영화사 진진
17,썬다운,31-Aug,16808000 ,0.90%,17905000 ,2106 ,2223 ,41 ,56 ,프랑스,프랑스,M&M 인터내셔널
18,로스트 도터,14-Jul,17632200 ,0.90%,120786200 ,1962 ,12966 ,26 ,288 ,미국,미국,"(주)영화특별시에스엠씨,그린나래미디어(주)"
19,말아,25-Aug,14663900 ,0.80%,16053900 ,1637 ,1813 ,33 ,222 ,한국,한국,㈜인디스토리
20,리볼버,18-Aug,15372500 ,0.80%,15372500 ,1581 ,1581 ,67 ,423 ,영국,영국,(주)제이앤씨미디어그룹
21,임파서블 러브,28-Jul,11800100 ,0.60%,27722900 ,1294 ,2938 ,30 ,256 ,프랑스,프랑스,(주)디오시네마
22,배드 럭 뱅잉,28-Jul,11240200 ,0.60%,36063000 ,1214 ,3642 ,24 ,326 ,루마니아,"루마니아,체코,룩셈부르크",알토미디어(주)
23,엔젤 하트,05-Aug,11744500 ,0.60%,11744500 ,1213 ,1213 ,20 ,154 ,미국,미국,"주식회사 블루필름웍스,(주)캐스팅라인,트라이스타 픽쳐스"
24,초록밤,28-Jul,8827727 ,0.50%,21951327 ,1209 ,2532 ,30 ,404 ,한국,한국,㈜인디스토리
25,모퉁이,11-Aug,9896400 ,0.50%,9896400 ,1034 ,1034 ,20 ,200 ,한국,한국,(주)영화사 그램
26,컴온 컴온,30-Jun,6744200 ,0.40%,154639500 ,1026 ,16875 ,12 ,79 ,미국,미국,(주)스튜디오디에이치엘
27,투란도트 어둠의 왕국,18-Aug,8765700 ,0.50%,8765700 ,966 ,966 ,18 ,128 ,한국,한국,주식회사 블루필름웍스
28,룸 쉐어링,22-Jun,3039000 ,0.20%,27440260 ,893 ,4033 ,2 ,58 ,한국,한국,"주식회사 엔픽플,트윈플러스파트너스(주)"
29,"아치의 노래, 정태춘",18-May,6841000 ,0.40%,322568210 ,850 ,33966 ,4 ,51 ,한국,한국,(주)넥스트엔터테인먼트월드(NEW)
30,애프터 양,01-Jun,6588200 ,0.40%,384564390 ,680 ,39670 ,6 ,97 ,미국,미국,"(주)영화특별시에스엠씨,주식회사 왓챠"
31,니얼굴,23-Jun,5363000 ,0.30%,63396500 ,641 ,7118 ,8 ,98 ,한국,한국,(주)영화사 진진
32,피서지에서 생긴 일,19-Aug,1238000 ,0.10%,27182500 ,619 ,13523 ,1 ,12 ,미국,미국,
33,쿼바디스,13-Jan,1236000 ,0.10%,35415982 ,618 ,19783 ,1 ,8 ,미국,미국,
34,모어,23-Jun,4896000 ,0.30%,95462900 ,606 ,11255 ,9 ,87 ,한국,한국,(주)엣나인필름
35,대장 부리바,29-Jun,1188000 ,0.10%,29716500 ,594 ,14289 ,1 ,12 ,미국,미국,
36,에덴의 동쪽,22-Feb,1147000 ,0.10%,23896500 ,566 ,10563 ,1 ,11 ,미국,미국,
37,인플루엔자,25-Aug,5348900 ,0.30%,5348900 ,534 ,534 ,15 ,104 ,한국,한국,아이 엠
38,중경삼림,02-Sep,4847200 ,0.30%,923495590 ,532 ,98368 ,2 ,31 ,홍콩,홍콩,(주)디스테이션
39,성적표의 김민영,08-Sep,4472000 ,0.20%,5356000 ,526 ,638 ,2 ,4 ,한국,한국,(주)엣나인필름
40,작은새와 돼지씨,25-Aug,4410800 ,0.20%,5780800 ,525 ,748 ,9 ,56 ,한국,한국,필름다빈
41,세계를 그대 품안에,,1014000 ,0.10%,25719000 ,507 ,12722 ,1 ,12 ,미국,미국,
42,거대한 서부,20-Oct,1008000 ,0.10%,4017500 ,504 ,1895 ,1 ,8 ,미국,미국,
43,아이를 위한 아이,21-Jul,3598500 ,0.20%,38476300 ,497 ,4514 ,19 ,189 ,한국,한국,(주)트리플픽쳐스
44,그대가 조국,25-May,4167000 ,0.20%,3109424870 ,469 ,333541 ,2 ,6 ,한국,한국,(주)엣나인필름
45,7년만의 외출,,889000 ,0.00%,15299500 ,432 ,7377 ,1 ,12 ,미국,미국,
46,문호 스트레이독스 [데드 애플],05-Apr,4189200 ,0.20%,231251480 ,420 ,30160 ,2 ,16 ,일본,일본,(주)애니플러스
47,한여름밤의 재즈,08-Sep,3469000 ,0.20%,3753000 ,403 ,443 ,1 ,4 ,미국,미국,찬란
48,대해적,,778000 ,0.00%,13635000 ,389 ,6506 ,1 ,6 ,미국,미국,
49,태양은 가득히,03-Feb,774000 ,0.00%,28789500 ,387 ,12810 ,1 ,9 ,프랑스,"프랑스,이탈리아",
50,지구 최후의 밤,25-Jul,3441500 ,0.20%,58839580 ,361 ,7157 ,1 ,8 ,중국,중국,찬란
51,화양연화,20-Oct,3245000 ,0.20%,1091484170 ,353 ,121981 ,1 ,8 ,홍콩,"홍콩,프랑스",(주)디스테이션
52,베르네 부인의 장미정원,09-Jun,2649000 ,0.10%,82332400 ,332 ,9086 ,1 ,6 ,프랑스,프랑스,찬란
53,카우,11-Aug,3368600 ,0.20%,3770600 ,326 ,393 ,9 ,74 ,영국,영국,그린나래미디어(주)
54,아가씨(확장판),,3236400 ,0.20%,170078450 ,321 ,20740 ,1 ,18 ,한국,한국,
55,우먼,25-Aug,2862600 ,0.20%,2862600 ,318 ,318 ,14 ,89 ,프랑스,프랑스,(주)에스와이코마드
55,실록 김두한,22-Dec,636000 ,0.00%,6905000 ,318 ,3450 ,1 ,9 ,한국,한국,
57,고령가 소년 살인사건,23-Nov,3034500 ,0.20%,138285500 ,315 ,10793 ,1 ,7 ,대만,대만,(주)리틀빅픽쳐스
58,"어쩌다 공주, 닭냥이 왕자를 부탁해!",08-Sep,2772000 ,0.10%,2772000 ,308 ,308 ,2 ,2 ,프랑스,프랑스,(주)팝엔터테인먼트
59,9명의 번역가,14-Sep,2556000 ,0.10%,2556000 ,284 ,284 ,1 ,2 ,프랑스,프랑스,(주)이놀미디어
60,그녀,22-May,2557400 ,0.10%,3014434044 ,275 ,370188 ,1 ,3 ,미국,미국,"주식회사 더쿱,유니버설픽쳐스인터내셔널 코리아(유)"
61,그 여름 가장 조용한 바다,13-Aug,2298000 ,0.10%,40593034 ,272 ,5785 ,1 ,18 ,일본,일본,"(주)영화사 진진,(주)스폰지이엔티"
62,태일이,01-Dec,2568000 ,0.10%,981317590 ,271 ,118654 ,1 ,3 ,한국,한국,(주)리틀빅픽쳐스
63,K클래식 제너레이션,31-Aug,2803400 ,0.10%,2803400 ,267 ,267 ,7 ,12 ,기타,기타,(주)엣나인필름
64,코다,31-Aug,1646000 ,0.10%,683858599 ,265 ,75386 ,2 ,14 ,프랑스,프랑스,판씨네마(주)
65,드라이브 마이 카,23-Dec,2281000 ,0.10%,716463880 ,252 ,77398 ,2 ,11 ,일본,일본,(주)트리플픽쳐스
66,말임씨를 부탁해,13-Apr,1559000 ,0.10%,156939670 ,232 ,20699 ,2 ,3 ,한국,한국,(주)씨네필운
67,프렌치 디스패치,18-Nov,2069000 ,0.10%,1000482830 ,231 ,93347 ,1 ,9 ,미국,미국,월트디즈니컴퍼니코리아 유한책임회사
68,카시오페아,01-Jun,1356000 ,0.10%,198820300 ,222 ,22442 ,1 ,9 ,한국,한국,(주)트리플픽쳐스
69,나의 산티아고,14-Jul,1520000 ,0.10%,726941732 ,215 ,94980 ,1 ,2 ,독일,독일,(주)영화사 진진
69,천국보다 낯선,11-Nov,1940200 ,0.10%,37215300 ,215 ,4291 ,1 ,8 ,미국,미국,(주)영화사 안다미로
71,경아의 딸,16-Jun,1938000 ,0.10%,58757100 ,210 ,8470 ,4 ,37 ,한국,한국,㈜인디스토리
72,시저와 클레오파트라,,400000 ,0.00%,11569000 ,200 ,5430 ,1 ,9 ,영국,"영국,미국",
72,멘,13-Jul,1824000 ,0.10%,95589560 ,200 ,10474 ,6 ,50 ,미국,미국,판씨네마(주)
72,안나푸르나: 비욘드 써밋,28-Jul,1000000 ,0.10%,1700000 ,200 ,340 ,2 ,10 ,스페인,"스페인,프랑스",주식회사 풍경소리
75,히트,10-Aug,1504000 ,0.10%,50716500 ,199 ,6759 ,1 ,2 ,미국,미국,(주)영화사오원
76,싸이코,,1822000 ,0.10%,70774026 ,197 ,10277 ,1 ,8 ,미국,미국,(주)영화사 안다미로
77,타오르는 여인의 초상,16-Jan,1766000 ,0.10%,1326287938 ,183 ,157601 ,1 ,8 ,프랑스,프랑스,"그린나래미디어(주),(주)홈초이스"
78,문라이트,22-Feb,1641400 ,0.10%,1420783575 ,174 ,179721 ,1 ,8 ,미국,미국,CGV아트하우스
79,테이크 오프: 파도위에 서다,25-Aug,1701000 ,0.10%,1701000 ,169 ,169 ,4 ,15 ,한국,한국,(주)아우라픽처스
80,세상을 바꾼 변호인,13-Jun,1592000 ,0.10%,394125170 ,165 ,50378 ,1 ,2 ,미국,미국,CGV아트하우스
81,스틸라이프,14-Jun,809000 ,0.00%,83485500 ,162 ,12506 ,1 ,4 ,홍콩,홍콩,위드시네마
82,"파리, 13구",12-May,1168000 ,0.10%,84501760 ,161 ,8677 ,1 ,2 ,프랑스,프랑스,"찬란,(주)하이스트레인저"
83,오발탄,13-Apr,349000 ,0.00%,6495000 ,157 ,3215 ,1 ,12 ,한국,한국,
84,다 잘된 거야,07-Sep,1430000 ,0.10%,2751000 ,156 ,292 ,1 ,3 ,프랑스,프랑스,(주)더쿱디스트리뷰션
85,캐롤,04-Feb,1255500 ,0.10%,2933026435 ,150 ,355252 ,1 ,8 ,미국,"미국,영국",CGV아트하우스
85,긴급구원 더레스큐,11-Aug,750000 ,0.00%,750000 ,150 ,150 ,5 ,15 ,중국,중국,(주)에이원엔터테인먼트
87,록키 호러 픽쳐 쇼,20-Jun,1070000 ,0.10%,50064700 ,145 ,6530 ,1 ,2 ,미국,"미국,영국","(주)팝엔터테인먼트,(주)피터팬픽쳐스"
88,십계,16-Jun,355000 ,0.00%,40396072 ,142 ,20560 ,1 ,6 ,미국,미국,
88,학교 가는 길,05-May,1278000 ,0.10%,270961980 ,142 ,35470 ,1 ,1 ,한국,한국,(주)영화사 진진
90,아픈 만큼 사랑한다,03-Apr,1260000 ,0.10%,113975600 ,140 ,16320 ,1 ,1 ,한국,한국,(주)드림팩트엔터테인먼트
91,가버나움,24-Jan,1266000 ,0.10%,1217157519 ,136 ,147585 ,1 ,8 ,기타,기타,"그린나래미디어(주),플레이리스트(주)"
92,피크닉,,262000 ,0.00%,16469500 ,131 ,8237 ,1 ,9 ,미국,미국,
93,내 사랑,12-Jul,860600 ,0.00%,2469996725 ,122 ,337791 ,1 ,9 ,아일랜드,"아일랜드,캐나다",오드
94,액션동자,05-May,242000 ,0.00%,5390000 ,121 ,817 ,1 ,38 ,한국,한국,(주)드림팩트엔터테인먼트
95,올드보이,21-Nov,1317900 ,0.10%,2033023700 ,119 ,312570 ,1 ,14 ,한국,한국,"쇼이스트(주),(주)씨제이이엔엠"
96,보드랍게,23-Feb,732000 ,0.00%,879000 ,116 ,137 ,6 ,25 ,한국,한국,(주)인디플러그
97,버스정류장,,287500 ,0.00%,5178500 ,113 ,2376 ,1 ,6 ,미국,미국,
97,우리가 사랑이라고 믿는 것,24-Feb,832000 ,0.00%,136507030 ,113 ,14776 ,1 ,2 ,영국,영국,(주)티캐스트
99,미나리,03-Mar,550000 ,0.00%,10212352650 ,110 ,1134310 ,1 ,1 ,미국,미국,판씨네마(주)
100,잊을 수 없는 모정,,218000 ,0.00%,2986000 ,109 ,1459 ,1 ,3 ,미국,미국,
101,미인도: 와신상담,04-Aug,500000 ,0.00%,500000 ,100 ,100 ,5 ,5 ,중국,중국,초코필름
101,삼손과 데릴라,21-Dec,250000 ,0.00%,29855318 ,100 ,16139 ,1 ,5 ,미국,미국,
101,슈퍼 후?,30-Aug,500000 ,0.00%,500000 ,100 ,100 ,5 ,5 ,프랑스,프랑스,(주)액티버스엔터테인먼트
101,합마신공,24-Aug,500000 ,0.00%,500000 ,100 ,100 ,5 ,5 ,중국,중국,초코필름
101,흐르다,,500000 ,0.00%,554000 ,100 ,106 ,1 ,1 ,한국,한국,
106,스카페이스,,198000 ,0.00%,6916000 ,99 ,3109 ,1 ,9 ,미국,미국,
107,브라바도스,,240000 ,0.00%,13236000 ,96 ,6769 ,1 ,6 ,미국,미국,
107,신사는 금발을 좋아해,,240000 ,0.00%,18949000 ,96 ,8168 ,1 ,6 ,미국,미국,
109,아이 엠 러브,20-Jan,926000 ,0.00%,442725406 ,94 ,55942 ,1 ,8 ,이탈리아,이탈리아,"(주)영화사 진진,(주)영화사 조제"
110,내가 못 나가는 것도 아닌데,24-Aug,586000 ,0.00%,586000 ,92 ,92 ,5 ,27 ,한국,한국,김충길 필름
111,소설가의 영화,21-Apr,767000 ,0.00%,95838570 ,91 ,10522 ,2 ,14 ,한국,한국,"(주)영화제작전원사 ,(주)콘텐츠판다"
112,군다,14-Jul,654000 ,0.00%,8588000 ,90 ,1003 ,6 ,31 ,미국,미국,(주)영화사 진진
113,바이킹,,139000 ,0.00%,22671500 ,87 ,11239 ,1 ,11 ,미국,미국,
114,금의위: 용의 비검,03-Aug,253000 ,0.00%,253000 ,84 ,84 ,5 ,46 ,중국,중국,(유)조이앤시네마
114,극장판 프리파라 모두 모여라! 프리즘☆투어즈,13-Oct,662500 ,0.00%,275209000 ,84 ,33281 ,1 ,6 ,한국,한국,"동우에이앤이(주),(주)박수엔터테인먼트"
116,하타리,,207500 ,0.00%,10878500 ,83 ,5016 ,1 ,6 ,미국,미국,
117,하녀,03-Nov,212500 ,0.00%,41201000 ,81 ,9718 ,1 ,5 ,한국,한국,
118,7인의 신부,24-Dec,192500 ,0.00%,17188500 ,77 ,8532 ,1 ,6 ,미국,미국,
119,자마,26-Aug,912000 ,0.00%,24734050 ,76 ,2993 ,1 ,1 ,아르헨티나,아르헨티나,M&M 인터내셔널
120,순응자,28-Jan,682000 ,0.00%,46823400 ,75 ,6267 ,1 ,8 ,이탈리아,"이탈리아,프랑스,독일",㈜영화사 백두대간
121,"나, 다니엘 블레이크",08-Dec,683000 ,0.00%,749242460 ,74 ,99888 ,1 ,7 ,영국,영국,(주)영화사 진진
122,휴먼 보이스,,641000 ,0.00%,10458500 ,73 ,1175 ,1 ,7 ,스페인,스페인,찬란
122,여름날 우리,25-Aug,690000 ,0.00%,372073720 ,73 ,41211 ,1 ,2 ,중국,중국,"찬란,메가박스중앙(주)"
122,지난 여름 갑자기,,119000 ,0.00%,16081000 ,73 ,7505 ,1 ,4 ,미국,미국,
125,대명천군 금의위,17-Aug,240000 ,0.00%,240000 ,71 ,71 ,5 ,33 ,중국,중국,(유)조이앤시네마
125,홀리 모터스,04-Apr,892200 ,0.00%,175187400 ,71 ,22100 ,1 ,9 ,프랑스,"프랑스,독일","(주)영화사 안다미로,오드"
127,시인 할매,05-Feb,350000 ,0.00%,78211900 ,70 ,10222 ,1 ,1 ,한국,한국,"(주)스톰픽쳐스코리아,와이드 릴리즈(주)"
127,스파이의 아내,25-Mar,449500 ,0.00%,101317330 ,70 ,11559 ,1 ,6 ,일본,일본,M&M 인터내셔널
129,녹색광선,,483000 ,0.00%,37894000 ,69 ,4750 ,1 ,6 ,프랑스,프랑스,(주)영화사 안다미로
130,비긴 어게인,13-Aug,792000 ,0.00%,27368475741 ,66 ,3472383 ,1 ,2 ,미국,미국,판씨네마(주)
130,바다의 뚜껑,29-Sep,480000 ,0.00%,15968400 ,66 ,2067 ,1 ,2 ,일본,일본,(주)영화사 안다미로
132,아라비아의 로렌스,24-Oct,354000 ,0.00%,28730500 ,65 ,11820 ,1 ,1 ,영국,영국,
133,화녀,01-Apr,537000 ,0.00%,28761500 ,63 ,4173 ,1 ,7 ,한국,한국,(주)다자인소프트
134,상록수,20-Sep,150000 ,0.00%,8334000 ,60 ,4149 ,1 ,3 ,한국,한국,
134,테스와 보낸 여름,10-Sep,469000 ,0.00%,91575250 ,60 ,10274 ,1 ,4 ,네덜란드,네덜란드,(주)팝엔터테인먼트
136,나는 조선사람입니다,09-Dec,290000 ,0.00%,41637070 ,58 ,4822 ,1 ,1 ,한국,한국,"㈜인디스토리,엠앤씨에프"
136,우리들,16-Jun,290000 ,0.00%,380288614 ,58 ,51322 ,1 ,1 ,한국,한국,(주)엣나인필름
138,동아시아반일무장전선,20-Aug,546000 ,0.00%,9292000 ,57 ,1168 ,1 ,2 ,한국,한국,아이 엠
139,헤이트풀8,07-Jan,535000 ,0.00%,1027476100 ,56 ,124788 ,1 ,5 ,미국,미국,(주)누리픽쳐스
140,남매의 여름밤,20-Aug,547000 ,0.00%,187704102 ,54 ,22664 ,2 ,2 ,한국,한국,그린나래미디어(주)
140,벌새,29-Aug,540000 ,0.00%,1201932974 ,54 ,147914 ,1 ,1 ,한국,한국,"(주)엣나인필름,(주)콘텐츠판다"
142,잉글리쉬 페이션트,15-Mar,299000 ,0.00%,175986000 ,53 ,23736 ,1 ,1 ,미국,미국,(주)영화사오원
142,우연과 상상,04-May,428000 ,0.00%,258049440 ,53 ,26179 ,1 ,6 ,일본,일본,"그린나래미디어(주),(주)영화사 안다미로"
144,세 아내에게 온 편지,,102000 ,0.00%,2756000 ,51 ,1210 ,1 ,3 ,미국,미국,
145,교실 안의 야크,30-Sep,400000 ,0.00%,100248610 ,50 ,11823 ,1 ,1 ,기타,기타,주식회사 슈아픽처스
146,유나바머: 테드 K,11-Aug,364000 ,0.00%,364000 ,48 ,48 ,5 ,20 ,미국,미국,씨네라인월드(주)
146,청춘은 밤이 없다,,96000 ,0.00%,4958000 ,48 ,2474 ,1 ,4 ,미국,미국,
146,해변의 폴린,,380000 ,0.00%,29801500 ,48 ,3589 ,2 ,6 ,프랑스,프랑스,(주)영화사 안다미로
149,감동주의보,22-Jun,282000 ,0.00%,4665500 ,47 ,800 ,1 ,2 ,한국,한국,(주)스튜디오 보난자
149,뉴타운 생존자 수색작전,,243000 ,0.00%,243000 ,47 ,47 ,1 ,1 ,한국,한국,(주)퍼니콘
149,80일간의 세계일주,,94000 ,0.00%,11600000 ,47 ,5772 ,1 ,6 ,미국,미국,
152,스파이형 모델,20-Jul,155000 ,0.00%,1125000 ,42 ,177 ,3 ,35 ,한국,한국,주식회사 씨엠닉스
152,몬테크리스토 백작,,84000 ,0.00%,8654000 ,42 ,4390 ,1 ,7 ,미국,미국,
154,행복까지 30일,09-Jun,400000 ,0.00%,20649700 ,40 ,2878 ,1 ,1 ,인도,인도,"예지림엔터테인먼트,미디어소프트"
154,"님아, 그 강을 건너지 마오",27-Nov,240000 ,0.00%,37360250579 ,40 ,4802642 ,1 ,1 ,한국,한국,"CGV아트하우스,(주)대명문화공장"
156,돌아온 사나이,14-Oct,97500 ,0.00%,3851500 ,39 ,1916 ,1 ,2 ,한국,한국,
157,자유 결혼,14-Oct,76000 ,0.00%,6548000 ,38 ,3134 ,1 ,5 ,한국,한국,
157,우리 생애 최고의 해,,252000 ,0.00%,5627884 ,38 ,3927 ,1 ,1 ,미국,미국,
157,빌리 홀리데이,04-Nov,456000 ,0.00%,83334130 ,38 ,8136 ,2 ,4 ,미국,미국,(주)디스테이션
160,열정의 랩소디,,74000 ,0.00%,8825000 ,37 ,4085 ,1 ,7 ,미국,미국,
161,섹슈얼파티,27-Jul,34000 ,0.00%,342000 ,34 ,102 ,2 ,34 ,스페인,스페인,(유)조이앤시네마
162,흑기사,24-Oct,40000 ,0.00%,23683500 ,31 ,11344 ,1 ,3 ,미국,미국,
162,좀비는 좀비끼리 우리는 우리끼리,,245000 ,0.00%,245000 ,31 ,31 ,1 ,12 ,한국,한국,필름다빈
162,제로스 앤 원스,10-Aug,183000 ,0.00%,183000 ,31 ,31 ,5 ,31 ,독일,독일,(주)누리픽쳐스
165,오! 마이 고스트,15-Sep,270000 ,0.00%,270000 ,30 ,30 ,1 ,1 ,한국,한국,"(주)디스테이션,주식회사 제이씨엔터웍스"
165,종착역,23-Sep,215000 ,0.00%,36568798 ,30 ,5186 ,1 ,4 ,한국,한국,필름다빈
165,낫아웃,03-Jun,180000 ,0.00%,180000 ,30 ,30 ,1 ,1 ,한국,한국,"(주)케이티알파,판씨네마(주)"
165,선데이리그,05-Oct,180000 ,0.00%,705000 ,30 ,105 ,1 ,1 ,한국,한국,아이 엠
169,고종황제와 의사 안중근,,58000 ,0.00%,7953000 ,29 ,3968 ,1 ,6 ,한국,한국,
170,빨간 마후라,,54000 ,0.00%,17671000 ,27 ,8655 ,1 ,4 ,한국,한국,
171,카페 벨에포크,20-May,182000 ,0.00%,550677880 ,26 ,66104 ,1 ,1 ,프랑스,프랑스,(주)이수C&E
172,우스운게 딱! 좋아!,23-Jun,178000 ,0.00%,8692700 ,25 ,1026 ,2 ,9 ,한국,한국,필름다빈
173,드라이,30-Mar,74300 ,0.00%,53324280 ,24 ,6349 ,1 ,2 ,호주,호주,(주)영화사 진진
173,소년 아메드,30-Jul,168000 ,0.00%,81141687 ,24 ,10349 ,1 ,1 ,프랑스,프랑스,(주)영화사 진진
175,검은 초상,,44000 ,0.00%,6413000 ,22 ,3120 ,1 ,2 ,미국,미국,
175,지구별 방랑자,,75007 ,0.00%,75007 ,22 ,22 ,1 ,1 ,한국,한국,(주)콘텐츠판다
177,실종,15-Jun,150000 ,0.00%,105365000 ,21 ,11451 ,3 ,11 ,일본,일본,(주)디스테이션
178,피넛 버터 팔콘,07-Apr,55500 ,0.00%,56109900 ,18 ,6144 ,1 ,2 ,미국,미국,(주)팝엔터테인먼트
178,모던 타임즈,02-Jul,66000 ,0.00%,57903959 ,18 ,9404 ,1 ,3 ,미국,미국,(주)엣나인필름
178,우리가 말하지 않은 것,01-Sep,122000 ,0.00%,122000 ,18 ,18 ,1 ,1 ,일본,일본,(주)디오시네마
178,어서오시게스트하우스,13-Aug,57500 ,0.00%,57500 ,18 ,18 ,1 ,2 ,한국,한국,(주)리틀빅픽쳐스
178,레인보우: 나의 사랑,03-Jan,216000 ,0.00%,14573350 ,18 ,1926 ,1 ,1 ,이탈리아,"이탈리아,프랑스",(주)마노엔터테인먼트
183,오즈의 마법사,03-May,64000 ,0.00%,14655500 ,17 ,5004 ,1 ,3 ,미국,미국,주식회사 마운틴픽쳐스
184,오셀로,,82000 ,0.00%,5328500 ,15 ,2237 ,1 ,1 ,미국,미국,
184,9월이 오면,,45000 ,0.00%,31079000 ,15 ,15429 ,1 ,2 ,미국,미국,
186,평평남녀,28-Apr,98000 ,0.00%,11574200 ,14 ,1316 ,1 ,4 ,한국,한국,영화배급협동조합 씨네소파
186,대니 콜린스,30-Sep,168000 ,0.00%,427256305 ,14 ,56650 ,2 ,3 ,미국,미국,"(주)나이너스엔터테인먼트,(주)지어소프트"
188,절해고도,,156000 ,0.00%,2654000 ,13 ,417 ,1 ,2 ,한국,한국,보리와 오디 영화사
189,디어헌터(감독판),23-Jun,88000 ,0.00%,10850360 ,11 ,1121 ,1 ,5 ,미국,미국,주식회사 블루필름웍스
190,물숨,29-Sep,31500 ,0.00%,56966000 ,10 ,7666 ,1 ,2 ,한국,한국,(주)영화사 진진
191,아이카,25-Mar,57000 ,0.00%,22938210 ,9 ,2599 ,1 ,1 ,기타,기타,(주)디오시네마
192,더 스퀘어,02-Aug,73000 ,0.00%,141015400 ,8 ,17287 ,1 ,6 ,스웨덴,"스웨덴,독일,프랑스,덴마크",아이 엠
192,송어,06-Nov,33000 ,0.00%,33000 ,8 ,8 ,1 ,1 ,한국,한국,
192,그녀의 가족은 잘못이 없어,14-Oct,48000 ,0.00%,48000 ,8 ,8 ,1 ,1 ,한국,한국,이상우필름
192,혼자 사는 사람들,19-May,64000 ,0.00%,110906560 ,8 ,12497 ,1 ,1 ,한국,한국,주식회사 더쿱
196,빛나는 순간,30-Jun,21000 ,0.00%,129676670 ,7 ,15566 ,1 ,2 ,한국,한국,"(주)명필름,(주)씨네필운"
196,비거 스플래쉬,03-Aug,68000 ,0.00%,124137053 ,7 ,15751 ,1 ,1 ,이탈리아,"이탈리아,프랑스",찬란
196,우먼 인 할리우드,31-Oct,45000 ,0.00%,78945040 ,7 ,9912 ,1 ,1 ,미국,미국,(주)마노엔터테인먼트
199,극장판 윌벤져스 : 수상한 캠핑 대소동,23-Jun,66000 ,0.00%,292993800 ,6 ,29428 ,1 ,3 ,한국,한국,(주)대교 미디어콘텐츠사업본부
200,눈감은 여름,30-Jun,25000 ,0.00%,1490000 ,5 ,297 ,1 ,5 ,베트남,베트남,주식회사 콘텐츠플레이
201,박강아름 결혼하다,19-Aug,36000 ,0.00%,25709710 ,4 ,3522 ,1 ,1 ,한국,한국,(주)영화사 진진
201,오마주,26-May,31000 ,0.00%,100773500 ,4 ,13342 ,1 ,1 ,한국,한국,트윈플러스파트너스(주)
203,춘몽,13-Oct,14000 ,0.00%,116469700 ,2 ,14746 ,1 ,1 ,한국,한국,"(주)프레인글로벌,(주)스톰픽쳐스코리아"
203,윤시내가 사라졌다,08-Jun,16000 ,0.00%,1102000 ,2 ,162 ,1 ,1 ,한국,한국,"(주)블루라벨픽쳐스,디스트릭 몽"
203,애프터 미투,06-Oct,14000 ,0.00%,229000 ,2 ,34 ,1 ,2 ,한국,한국,(주)영화사 그램
203,시인의 사랑,14-Sep,14000 ,0.00%,98249900 ,2 ,12682 ,1 ,1 ,한국,한국,CGV아트하우스
203,체리 향기,01-Jan,13000 ,0.00%,7900000 ,2 ,1078 ,1 ,1 ,프랑스,"프랑스,이란",㈜영화사 백두대간
203,천로역정: 천국을 찾아서,13-Jun,20000 ,0.00%,2210969010 ,2 ,297909 ,1 ,2 ,미국,미국,"(재)CBS,주식회사 마운틴픽쳐스"
209,똥파리,16-Apr,0 ,0.00%,846800700 ,0 ,123306 ,1 ,1 ,한국,한국,(주)영화사 진진
209,소피의 세계,03-Mar,0 ,0.00%,36096600 ,0 ,4242 ,1 ,1 ,한국,한국,찬란
209,리멤버 미,29-Jun,0 ,0.00%,5356500 ,0 ,553 ,1 ,1 ,일본,일본,(주)박수엔터테인먼트
209,신은 죽지 않았다 3: 어둠 속의 빛,19-Jul,0 ,0.00%,721473400 ,0 ,92918 ,1 ,1 ,미국,미국,"(주)영화사 그램,(재)CBS"
209,사이비,21-Nov,0 ,0.00%,167877400 ,0 ,22639 ,1 ,1 ,한국,한국,(주)넥스트엔터테인먼트월드(NEW)
209,드롭박스,19-May,0 ,0.00%,17217800 ,0 ,2315 ,1 ,2 ,한국,"한국,미국","(사)필레마,필름포럼,홀리가든"
