순위,영화명,개봉일,매출액,매출액점유율,누적매출액,관객수,누적관객수,스크린수,상영횟수,대표국적,국적,배급사
1,대무가,12-Oct,548483256 ,23.10%,552371256 ,60997 ,61429 ,587 ,9791 ,한국,한국,"판씨네마(주),(주)케이티알파"
2,고고다이노 극장판: 얼음공룡의 비밀,05-Oct,476227898 ,20.10%,480475898 ,51739 ,52197 ,531 ,4824 ,한국,한국,"(주)넥스트엔터테인먼트월드(NEW),(주)블루라벨픽쳐스"
3,신 에반게리온 극장판,05-Oct,280866800 ,11.80%,280866800 ,24538 ,24538 ,93 ,1947 ,일본,일본,(주)라이크콘텐츠
4,미혹,19-Oct,95763691 ,4.00%,103935691 ,11840 ,12748 ,224 ,2051 ,한국,한국,"(주)엔케이컨텐츠,(주)디스테이션"
5,성덕,28-Sep,75781095 ,3.20%,105354893 ,8278 ,12174 ,55 ,990 ,한국,한국,오드
6,애프터 미투,06-Oct,56318698 ,2.40%,58959698 ,8025 ,8327 ,71 ,674 ,한국,한국,(주)영화사 그램
7,거래완료,06-Oct,48971099 ,2.10%,55199099 ,5311 ,5986 ,72 ,705 ,한국,한국,(주)스튜디오디에이치엘
8,물방울을 그리는 남자,28-Sep,49482900 ,2.10%,77392500 ,5306 ,8610 ,44 ,780 ,한국,한국,(주)영화사 진진
9,사랑할 땐 누구나 최악이 된다,25-Aug,51707957 ,2.20%,459522135 ,5003 ,45188 ,22 ,466 ,노르웨이,노르웨이,"그린나래미디어(주),(주)하이스트레인저"
10,프로메어,20-Oct,49325714 ,2.10%,49325714 ,4568 ,4568 ,63 ,578 ,일본,일본,(주)영화사 그램
11,죽어도 자이언츠,27-Oct,41481408 ,1.70%,41481408 ,4123 ,4123 ,69 ,390 ,한국,한국,롯데컬처웍스(주)롯데엔터테인먼트
12,나를 죽여줘,19-Oct,33384296 ,1.40%,33384296 ,3951 ,3951 ,112 ,973 ,한국,한국,(주)트리플픽쳐스
13,낮과 달,20-Oct,32450498 ,1.40%,35523498 ,3768 ,4158 ,52 ,499 ,한국,한국,찬란
14,수프와 이데올로기,20-Oct,35080754 ,1.50%,37202254 ,3696 ,3997 ,45 ,441 ,한국,한국,(주)엣나인필름
15,은하철도 999 - 극장판,05-Oct,37249568 ,1.60%,38252568 ,3562 ,3764 ,56 ,641 ,일본,일본,(주)디스테이션
16,블레이드 러너: 파이널 컷,08-May,30464212 ,1.30%,106286845 ,3127 ,11627 ,26 ,477 ,미국,미국,"워너브러더스 코리아(주),주식회사 해리슨앤컴퍼니"
17,낮에는 덥고 밤에는 춥고,27-Oct,19718496 ,0.80%,21256496 ,2414 ,2661 ,51 ,272 ,한국,한국,필름다빈
18,기동전사 건담 쿠쿠루스 도안의 섬,05-Oct,26004476 ,1.10%,26004476 ,2374 ,2374 ,47 ,419 ,일본,일본,(주)디스테이션
19,한여름밤의 재즈,08-Sep,21786200 ,0.90%,121187789 ,2151 ,11815 ,22 ,237 ,미국,미국,찬란
20,카사블랑카,03-Apr,17722107 ,0.70%,59340607 ,2076 ,19937 ,20 ,237 ,미국,미국,워너브러더스 코리아(주)
21,사랑은 비를 타고,,18567804 ,0.80%,99926765 ,1839 ,16859 ,25 ,173 ,미국,미국,워너브러더스 코리아(주)
22,아나이스 인 러브,13-Oct,16346800 ,0.70%,17084800 ,1830 ,1912 ,39 ,520 ,프랑스,프랑스,해피송
23,내 여자친구의 남자친구,,17575500 ,0.70%,26231500 ,1568 ,2829 ,14 ,123 ,프랑스,프랑스,(주)영화사 안다미로
24,선데이리그,05-Oct,11698099 ,0.50%,15250099 ,1495 ,1937 ,40 ,426 ,한국,한국,아이 엠
25,젊은 남자,17-Dec,11718198 ,0.50%,18307098 ,1190 ,1822 ,47 ,364 ,한국,한국,(주)스튜디오 보난자
26,녹색광선,,13070100 ,0.60%,51419100 ,1163 ,5956 ,14 ,115 ,프랑스,프랑스,(주)영화사 안다미로
27,성적표의 김민영,08-Sep,8418300 ,0.40%,67726197 ,1074 ,7095 ,14 ,199 ,한국,한국,(주)엣나인필름
28,"지금, 이대로가 좋아요",23-Apr,9230800 ,0.40%,171503600 ,1006 ,24387 ,22 ,210 ,한국,한국,"(주)엣나인필름,(주)스폰지이엔티,스폰지"
29,주연,29-Sep,5082600 ,0.20%,8274600 ,993 ,1356 ,18 ,135 ,한국,한국,(주)마노엔터테인먼트
30,니얼굴,23-Jun,7700000 ,0.30%,79713500 ,964 ,9028 ,1 ,7 ,한국,한국,(주)영화사 진진
31,초선,03-Nov,8190000 ,0.30%,8190000 ,910 ,910 ,3 ,5 ,한국,한국,커넥트픽쳐스(주)
32,아이의 노랫소리를 들려줘,22-Sep,5616797 ,0.20%,58092382 ,904 ,6294 ,7 ,70 ,일본,일본,(주)라이크콘텐츠
33,옆집사람,03-Nov,8414000 ,0.40%,8414000 ,814 ,814 ,2 ,5 ,한국,한국,(주)디스테이션
34,달이 지는 밤,22-Sep,5874200 ,0.20%,22832396 ,809 ,2555 ,19 ,188 ,한국,한국,(주)디오시네마
35,해변의 폴린,,8804700 ,0.40%,38612200 ,791 ,4381 ,8 ,91 ,프랑스,프랑스,(주)영화사 안다미로
36,2차 송환,29-Sep,5649900 ,0.20%,9247900 ,759 ,1199 ,12 ,146 ,한국,한국,(주)시네마달
37,태안,06-Oct,5696099 ,0.20%,6754099 ,727 ,872 ,9 ,79 ,한국,한국,레드무비
38,수집가,,7523000 ,0.30%,12028000 ,706 ,1362 ,14 ,89 ,프랑스,프랑스,(주)영화사 안다미로
39,디셉션,20-Oct,6217199 ,0.30%,6217199 ,691 ,691 ,27 ,231 ,프랑스,프랑스,(주)드림팩트엔터테인먼트
40,스톰 보이,,4960000 ,0.20%,6508000 ,681 ,853 ,2 ,13 ,호주,호주,
41,가을이야기,,7132100 ,0.30%,23124600 ,673 ,2726 ,8 ,64 ,프랑스,프랑스,(주)영화사 안다미로
42,사잇소리,13-Oct,6139098 ,0.30%,6139098 ,670 ,670 ,20 ,187 ,한국,한국,"(주)드림팩트엔터테인먼트,(주)아크메"
43,브라바도스,,1322000 ,0.10%,14558000 ,661 ,7430 ,1 ,12 ,미국,미국,
44,9명의 번역가,14-Sep,6361000 ,0.30%,98234508 ,656 ,9385 ,6 ,102 ,프랑스,프랑스,(주)이놀미디어
45,코다,31-Aug,5354000 ,0.20%,695869599 ,635 ,76924 ,1 ,5 ,프랑스,프랑스,판씨네마(주)
46,잔혹했던 1948년 탐라의 봄,,1691000 ,0.10%,5745000 ,608 ,2125 ,2 ,17 ,한국,한국,퓨어웨이픽쳐스
47,다 잘된 거야,07-Sep,5254699 ,0.20%,59708817 ,592 ,6461 ,9 ,96 ,프랑스,프랑스,(주)더쿱디스트리뷰션
48,시대혁명,13-Oct,6199600 ,0.30%,10719600 ,582 ,1062 ,18 ,165 ,영국,영국,델로스
49,"아치의 노래, 정태춘",18-May,5374000 ,0.20%,328291210 ,563 ,34624 ,6 ,33 ,한국,한국,(주)넥스트엔터테인먼트월드(NEW)
50,젊은이의 양지,28-Oct,1103000 ,0.00%,23010000 ,550 ,10786 ,1 ,12 ,미국,미국,
51,알카라스의 여름,03-Nov,4359000 ,0.20%,4359000 ,537 ,537 ,2 ,5 ,스페인,스페인,(주)영화사 진진
52,첫번째 아이,10-Nov,4716000 ,0.20%,4756000 ,534 ,539 ,3 ,4 ,한국,한국,(주)더쿱디스트리뷰션
53,뜨거운 양철 지붕 위의 고양이,,968000 ,0.00%,22006000 ,484 ,10005 ,1 ,12 ,미국,미국,
54,지난 여름 갑자기,,926000 ,0.00%,17007000 ,463 ,7968 ,1 ,12 ,미국,미국,
55,여름이야기,13-Jun,4550600 ,0.20%,27912400 ,416 ,3279 ,13 ,53 ,프랑스,프랑스,(주)영화사 안다미로
56,봄 이야기,,4429500 ,0.20%,19442500 ,403 ,2308 ,8 ,59 ,프랑스,프랑스,(주)영화사 안다미로
57,둠둠,15-Sep,2504200 ,0.10%,64874099 ,401 ,7894 ,10 ,71 ,한국,한국,(주)영화사 진진
58,"어쩌다 공주, 닭냥이 왕자를 부탁해!",08-Sep,2488798 ,0.10%,385897280 ,390 ,40949 ,4 ,15 ,프랑스,프랑스,(주)팝엔터테인먼트
59,겨울 이야기,,3753200 ,0.20%,17367200 ,381 ,2213 ,8 ,42 ,프랑스,프랑스,(주)영화사 안다미로
60,애프터 양,01-Jun,2865000 ,0.10%,389098390 ,288 ,40140 ,2 ,8 ,미국,미국,"(주)영화특별시에스엠씨,주식회사 왓챠"
61,카시오페아,01-Jun,1631000 ,0.10%,210910300 ,287 ,24150 ,2 ,6 ,한국,한국,(주)트리플픽쳐스
62,말임씨를 부탁해,13-Apr,1304900 ,0.10%,158804570 ,278 ,21047 ,1 ,4 ,한국,한국,(주)씨네필운
63,썸머 필름을 타고!,20-Jul,1547500 ,0.10%,311991026 ,267 ,32998 ,2 ,17 ,일본,일본,"(주)싸이더스,(주)블루라벨픽쳐스"
64,우리가 사랑이라고 믿는 것,24-Feb,1925500 ,0.10%,138591530 ,254 ,15052 ,1 ,11 ,영국,영국,(주)티캐스트
65,비브르 사 비,03-May,1921000 ,0.10%,32806000 ,245 ,4159 ,3 ,56 ,프랑스,프랑스,"알토미디어(주),㈜영화사 백두대간"
66,나는 나를 해고하지 않는다,28-Jan,2190000 ,0.10%,145628800 ,239 ,19003 ,1 ,2 ,한국,한국,(주)영화사 진진
67,파리의 연인,,434000 ,0.00%,26412000 ,217 ,10743 ,1 ,6 ,미국,미국,
68,기쿠지로의 여름,30-Aug,1728000 ,0.10%,19949000 ,216 ,2687 ,1 ,1 ,일본,일본,"(주)영화사 진진,(주)튜브엔터테인먼트"
68,그들이 진심으로 엮을 때,16-Nov,1728000 ,0.10%,44644500 ,216 ,5783 ,1 ,1 ,일본,일본,(주)디스테이션
68,죽여주는 여자,06-Oct,1728000 ,0.10%,887625300 ,216 ,121810 ,1 ,1 ,한국,한국,CGV아트하우스
71,태일이,01-Dec,2375000 ,0.10%,983854590 ,205 ,118883 ,1 ,2 ,한국,한국,(주)리틀빅픽쳐스
72,포프란: 사라진 X를 찾아서,27-Oct,1792100 ,0.10%,1792100 ,184 ,184 ,17 ,95 ,일본,일본,(주)이놀미디어
73,기기묘묘,22-Sep,2150000 ,0.10%,12004099 ,179 ,1276 ,8 ,48 ,한국,한국,필름다빈
74,홈리스,15-Sep,1366000 ,0.10%,51127597 ,177 ,7013 ,9 ,61 ,한국,한국,그린나래미디어(주)
75,나를 만나는 길,12-May,1300500 ,0.10%,104102300 ,173 ,11304 ,1 ,11 ,영국,영국,(주)티캐스트
76,그린 북,09-Jan,1700000 ,0.10%,3712876360 ,170 ,445913 ,1 ,1 ,미국,미국,CGV아트하우스
76,십계,02-Dec,1630000 ,0.10%,31791040 ,170 ,3658 ,1 ,1 ,미국,미국,"(재)CBS,주식회사 블루필름웍스"
78,아이를 위한 아이,21-Jul,1336000 ,0.10%,39818300 ,167 ,4682 ,1 ,1 ,한국,한국,(주)트리플픽쳐스
78,영주,22-Nov,1336000 ,0.10%,194092750 ,167 ,24993 ,1 ,1 ,한국,한국,CGV아트하우스
80,작은 아씨들,,294000 ,0.00%,14560000 ,147 ,6940 ,1 ,3 ,미국,미국,
81,너에게 가는 길,17-Nov,1046003 ,0.00%,162503703 ,144 ,18749 ,2 ,3 ,한국,한국,(주)엣나인필름
82,윤희에게,14-Nov,1222000 ,0.10%,986483639 ,142 ,123732 ,1 ,15 ,한국,한국,(주)리틀빅픽쳐스
83,썬더버드,21-Sep,1274400 ,0.10%,52685800 ,137 ,6215 ,12 ,69 ,한국,한국,(주)트리플픽쳐스
84,중경삼림,02-Sep,1596000 ,0.10%,926264590 ,133 ,98631 ,3 ,11 ,홍콩,홍콩,(주)디스테이션
85,천로역정: 천국을 찾아서,13-Jun,1056000 ,0.00%,2212025010 ,132 ,298041 ,1 ,1 ,미국,미국,"(재)CBS,주식회사 마운틴픽쳐스"
86,이창,,362000 ,0.00%,30864500 ,126 ,6609 ,1 ,10 ,미국,미국,(주)영화사 안다미로
87,"나, 다니엘 블레이크",08-Dec,1250000 ,0.10%,752241460 ,125 ,100172 ,1 ,1 ,영국,영국,(주)영화사 진진
88,녹턴,18-Aug,1220000 ,0.10%,78049100 ,123 ,11212 ,1 ,3 ,한국,한국,(주)시네마달
89,몬스터 싱어: 매직 인 파리,26-May,720000 ,0.00%,129507720 ,120 ,15307 ,1 ,1 ,프랑스,프랑스,(주)다날엔터테인먼트
90,지구 최후의 밤,25-Jul,1340000 ,0.10%,60443580 ,118 ,7302 ,1 ,10 ,중국,중국,찬란
90,말아,25-Aug,882000 ,0.00%,24216900 ,118 ,2890 ,5 ,41 ,한국,한국,㈜인디스토리
90,인간실격,01-Oct,799599 ,0.00%,1187499 ,118 ,160 ,5 ,55 ,일본,일본,(주)미디어캐슬
93,아멜리에,19-Oct,1049000 ,0.00%,120467450 ,117 ,13269 ,1 ,12 ,프랑스,프랑스,"(주)영화사 안다미로,(주)블룸즈베리리소시스리미티드,콜럼비아"
94,순응자,28-Jan,826000 ,0.00%,49271400 ,112 ,6518 ,1 ,3 ,이탈리아,"이탈리아,프랑스,독일",㈜영화사 백두대간
94,어나더 라운드,19-Jan,1304000 ,0.10%,339207390 ,112 ,36535 ,1 ,2 ,기타,기타,(주)엣나인필름
96,유리씨즈,27-Dec,218000 ,0.00%,27503000 ,109 ,13934 ,1 ,6 ,이탈리아,이탈리아,
97,OK 목장의 결투,,212000 ,0.00%,22689000 ,106 ,10703 ,1 ,6 ,미국,미국,
97,초속5센티미터,21-Jun,752099 ,0.00%,286056031 ,106 ,47571 ,3 ,30 ,일본,일본,"(주)미디어캐슬,대원디지털엔터테인먼트,(주)팝엔터테인먼트"
99,가스등,,319000 ,0.00%,10399000 ,105 ,4685 ,1 ,15 ,미국,미국,
100,졸업,19-Jun,790000 ,0.00%,43428266 ,101 ,5942 ,1 ,9 ,미국,미국,시네마 뉴원
101,애수,,198000 ,0.00%,41221000 ,99 ,18559 ,1 ,6 ,미국,미국,
101,행복한 라짜로,20-Jun,865000 ,0.00%,132413240 ,99 ,16659 ,1 ,12 ,이탈리아,이탈리아,주식회사 슈아픽처스
103,쁘띠 마망,07-Oct,600000 ,0.00%,148012940 ,97 ,16403 ,1 ,10 ,프랑스,프랑스,찬란
104,이별의 아침에 약속의 꽃을 장식하자,19-Jul,684000 ,0.00%,348982200 ,96 ,42567 ,3 ,33 ,일본,일본,(주)미디어캐슬
105,쿼바디스,13-Jan,285000 ,0.00%,35700982 ,95 ,19878 ,1 ,6 ,미국,미국,
106,그대가 조국,25-May,828000 ,0.00%,3110252870 ,92 ,333633 ,1 ,1 ,한국,한국,(주)엣나인필름
106,위대한 작은 농장,,1104000 ,0.00%,2627300 ,92 ,292 ,1 ,1 ,미국,미국,
108,달콤한 인생,,633000 ,0.00%,16139000 ,88 ,4613 ,1 ,3 ,이탈리아,"이탈리아,프랑스",
109,아임 유어 맨,16-Sep,22079 ,0.00%,75737619 ,87 ,8517 ,2 ,2 ,독일,독일,(주)라이크콘텐츠
109,너의 췌장을 먹고 싶어,15-Nov,649098 ,0.00%,416926673 ,87 ,53319 ,3 ,32 ,일본,일본,(주)넥스트엔터테인먼트월드(NEW)
111,깁슨 가족 연대기,,252000 ,0.00%,4608000 ,84 ,2262 ,1 ,8 ,영국,영국,
112,허셀프,12-May,410000 ,0.00%,7526600 ,82 ,929 ,1 ,1 ,영국,영국,(주)드림팩트엔터테인먼트
112,리스본행 야간열차,05-Jun,748000 ,0.00%,608692336 ,82 ,79200 ,1 ,14 ,독일,"독일,스위스,포르투갈",(주)나이너스엔터테인먼트
114,화양연화,20-Oct,972000 ,0.00%,1092669170 ,81 ,122086 ,2 ,9 ,홍콩,"홍콩,프랑스",(주)디스테이션
115,슬픔은 그대 가슴에,08-May,160000 ,0.00%,24406500 ,80 ,12057 ,1 ,3 ,미국,미국,
116,여호,,156000 ,0.00%,5412000 ,78 ,2284 ,1 ,3 ,영국,영국,
116,마담 프루스트의 비밀정원,24-Jul,644400 ,0.00%,1275815862 ,78 ,162848 ,1 ,1 ,프랑스,프랑스,찬란
116,본 투 비 블루,09-Jun,735000 ,0.00%,772657624 ,78 ,94794 ,1 ,7 ,캐나다,"캐나다,영국,미국",그린나래미디어(주)
119,황야의 결투,,225000 ,0.00%,12982000 ,75 ,6219 ,1 ,6 ,미국,미국,
119,리슨,09-Dec,75000 ,0.00%,63265550 ,75 ,7322 ,1 ,2 ,영국,영국,워터홀컴퍼니(주)
121,릴리 슈슈의 모든 것,23-Jun,657500 ,0.00%,75718598 ,73 ,10913 ,3 ,23 ,일본,일본,"(주)미디어캐슬,(주)튜브엔터테인먼트"
121,벌새,29-Aug,653000 ,0.00%,1202655974 ,73 ,148001 ,1 ,10 ,한국,한국,"(주)엣나인필름,(주)콘텐츠판다"
123,썬다운,31-Aug,617000 ,0.00%,61980899 ,70 ,6814 ,3 ,25 ,프랑스,프랑스,M&M 인터내셔널
124,스테잉 버티컬,,688000 ,0.00%,6608400 ,66 ,911 ,1 ,8 ,프랑스,프랑스,
125,구봉서의 벼락부자,,178000 ,0.00%,6908000 ,64 ,3421 ,1 ,15 ,한국,한국,
126,해피 투게더,22-Aug,756000 ,0.00%,354233120 ,63 ,38501 ,2 ,7 ,홍콩,홍콩,(주)디스테이션
127,천국보다 낯선,11-Nov,572000 ,0.00%,39714300 ,62 ,4575 ,2 ,7 ,미국,미국,(주)영화사 안다미로
127,네 멋대로 해라: 장 뤽 고다르,19-Mar,434000 ,0.00%,14755600 ,62 ,1831 ,1 ,26 ,프랑스,프랑스,(주)이수C&E
129,암스테르담 바이스,29-Sep,300000 ,0.00%,900000 ,60 ,180 ,1 ,3 ,네덜란드,네덜란드,(주)씨네마블랙
129,언더그라운드,19-Aug,360000 ,0.00%,13913800 ,60 ,1667 ,1 ,1 ,한국,한국,(주)시네마달
129,소공녀,22-Mar,531000 ,0.00%,482930200 ,60 ,60534 ,1 ,10 ,한국,한국,CGV아트하우스
132,미싱타는 여자들,20-Jan,354000 ,0.00%,2645000 ,59 ,362 ,1 ,1 ,한국,한국,(주)영화사 진진
132,당신의 세상은 지금 몇 시?,19-Nov,3056 ,0.00%,15727256 ,59 ,2165 ,1 ,2 ,프랑스,"프랑스,이란",알토미디어(주)
134,작은새와 돼지씨,25-Aug,140000 ,0.00%,8206300 ,58 ,1140 ,2 ,32 ,한국,한국,필름다빈
135,미스테리 트레인,,479000 ,0.00%,9631500 ,56 ,1214 ,1 ,7 ,일본,"일본,미국",(주)영화사 안다미로
136,풀타임,18-Aug,517000 ,0.00%,94403698 ,55 ,10141 ,2 ,18 ,프랑스,프랑스,주식회사 슈아픽처스
136,프로페서 앤 매드맨,02-Jun,432000 ,0.00%,155248510 ,55 ,18367 ,1 ,1 ,미국,미국,그린나래미디어(주)
138,나바론 요새,20-Jul,108000 ,0.00%,23878604 ,54 ,12211 ,1 ,4 ,미국,"미국,영국",
139,지상의 밤,,473000 ,0.00%,15085000 ,53 ,1852 ,1 ,4 ,일본,"일본,미국,독일,이탈리아,핀란드",(주)영화사 안다미로
140,큐어,06-Jul,549000 ,0.00%,261836969 ,52 ,25102 ,2 ,7 ,일본,일본,M&M 인터내셔널
140,기도의 숨결,18-Aug,373000 ,0.00%,23966100 ,52 ,2852 ,3 ,15 ,프랑스,프랑스,(주)영화사 진진
140,검은 수선화,,104000 ,0.00%,14835500 ,52 ,6939 ,1 ,3 ,영국,영국,
143,헨리 5세,,102000 ,0.00%,7310000 ,51 ,3597 ,1 ,3 ,영국,영국,
143,보드랍게,23-Feb,357000 ,0.00%,1236000 ,51 ,188 ,1 ,1 ,한국,한국,(주)인디플러그
145,십개월의 미래,14-Oct,432000 ,0.00%,110183180 ,50 ,15531 ,1 ,1 ,한국,한국,그린나래미디어(주)
145,나의 산티아고,14-Jul,500000 ,0.00%,727441732 ,50 ,95030 ,1 ,1 ,독일,독일,(주)영화사 진진
145,기도의 힘,09-Apr,250000 ,0.00%,19267200 ,50 ,2446 ,1 ,1 ,미국,미국,주식회사 더쿱
148,학교 가는 길,05-May,294000 ,0.00%,271255980 ,49 ,35519 ,1 ,1 ,한국,한국,(주)영화사 진진
149,백주의 결투,,147000 ,0.00%,10317000 ,48 ,4490 ,1 ,3 ,미국,미국,
149,누구를 위하여 종은 울리나,18-Mar,96000 ,0.00%,34215086 ,48 ,18822 ,1 ,4 ,미국,미국,
149,몽마르트 파파,09-Jan,336000 ,0.00%,53357470 ,48 ,7332 ,1 ,1 ,한국,한국,(주)트리플픽쳐스
152,하타리,,90000 ,0.00%,10968500 ,45 ,5061 ,1 ,4 ,미국,미국,
152,오즈의 마법사,03-May,45000 ,0.00%,14700500 ,45 ,5049 ,1 ,1 ,미국,미국,주식회사 마운틴픽쳐스
154,구직자들,12-Nov,36027 ,0.00%,8440677 ,42 ,962 ,1 ,1 ,한국,한국,(주)이놀미디어
154,퍼스트 카우,04-Nov,182000 ,0.00%,136675380 ,42 ,14965 ,1 ,2 ,미국,미국,(주)영화사 진진
154,비비안 마이어를 찾아서,30-Apr,482000 ,0.00%,151733500 ,42 ,18974 ,1 ,7 ,미국,미국,오드
157,꽃다발 같은 사랑을 했다,14-Jul,288500 ,0.00%,375569310 ,41 ,39587 ,2 ,21 ,일본,일본,"(주)리틀빅픽쳐스,(주)레드로버"
158,룸 쉐어링,22-Jun,400000 ,0.00%,28430260 ,40 ,4191 ,1 ,1 ,한국,한국,"주식회사 엔픽플,트윈플러스파트너스(주)"
159,커피와 담배,27-Jul,334000 ,0.00%,81647900 ,39 ,10941 ,1 ,11 ,미국,미국,"(주)영화사 안다미로,(주)스폰지이엔티"
159,비바리움,16-Jul,54013 ,0.00%,195436133 ,39 ,23805 ,1 ,1 ,미국,"미국,덴마크,벨기에,아일랜드",(주)드림팩트엔터테인먼트
159,나를 깨우는 바람,,120100 ,0.00%,120100 ,39 ,39 ,1 ,1 ,한국,한국,목영이엔엠
159,우리에겐 교황이 있다,02-May,330000 ,0.00%,31008000 ,39 ,4274 ,1 ,10 ,이탈리아,"이탈리아,프랑스",주식회사 마운틴픽쳐스
163,당신의 이웃은 친절하지 않다,15-Sep,170000 ,0.00%,4565000 ,38 ,459 ,3 ,31 ,한국,한국,주식회사 씨엠닉스
164,피부를 판 남자,16-Dec,56002 ,0.00%,40226382 ,37 ,4463 ,1 ,1 ,기타,기타,판씨네마(주)
165,흔들리는 대지,,72000 ,0.00%,670000 ,36 ,301 ,1 ,4 ,이탈리아,이탈리아,
165,파리로 가는 길,03-Aug,36000 ,0.00%,938715800 ,36 ,119979 ,1 ,1 ,미국,미국,(주)티캐스트
167,고양이들의 아파트,17-Mar,204000 ,0.00%,58489970 ,34 ,6680 ,1 ,1 ,한국,한국,"(주)엣나인필름,(주)메타플레이"
167,원더,27-Dec,34000 ,0.00%,2061197729 ,34 ,271173 ,1 ,1 ,미국,미국,"CGV아트하우스,그린나래미디어(주)"
169,이브의 모든 것,,102000 ,0.00%,9140000 ,33 ,4119 ,1 ,4 ,미국,미국,
169,"그 시절, 우리가 좋아했던 소녀",22-Aug,330000 ,0.00%,419538090 ,33 ,59092 ,1 ,3 ,대만,대만,"(주)이놀미디어,(주)드림팩트엔터테인먼트,(주)미로스페이스,씨너스엔터테인먼트(주),(주)미로비젼,(주)박수엔터테인먼트"
169,비련의 공주 엘리자베스,,66000 ,0.00%,3045000 ,33 ,1520 ,1 ,4 ,미국,미국,
172,오만과 편견,,64000 ,0.00%,11137000 ,32 ,5476 ,1 ,4 ,미국,미국,
173,가가린,,72000 ,0.00%,582000 ,30 ,100 ,1 ,1 ,프랑스,프랑스,(주)엣나인필름
173,리즈와 파랑새,09-Oct,240000 ,0.00%,176232400 ,30 ,21401 ,1 ,1 ,일본,일본,"(주)디스테이션,플레이리스트(주)"
173,피닉스,22-Jul,140002 ,0.00%,103617192 ,30 ,12327 ,1 ,1 ,독일,독일,M&M 인터내셔널
176,세일즈맨,11-May,7022 ,0.00%,85581822 ,29 ,11392 ,1 ,1 ,이란,"이란,프랑스",찬란
177,블레이즈,07-Sep,336000 ,0.00%,2259500 ,28 ,231 ,2 ,4 ,미국,미국,주식회사 더쿱
178,마음의 행로,,54000 ,0.00%,33916500 ,27 ,16851 ,1 ,9 ,미국,미국,
179,노회찬6411,14-Oct,130000 ,0.00%,273398000 ,26 ,31768 ,1 ,1 ,한국,한국,"(주)리틀빅픽쳐스,시네마6411"
179,"굿바이, 입술",,273000 ,0.00%,273000 ,26 ,26 ,1 ,3 ,일본,일본,(주)엔케이컨텐츠
179,주피터스 문,02-Aug,61000 ,0.00%,42722800 ,26 ,5328 ,1 ,1 ,헝가리,헝가리,(주)엣나인필름
182,페드라,16-Nov,55000 ,0.00%,9468000 ,25 ,4688 ,1 ,9 ,그리스,그리스,
182,레벤느망,10-Mar,261000 ,0.00%,65655170 ,25 ,7272 ,1 ,2 ,프랑스,프랑스,"(주)영화특별시에스엠씨,주식회사 왓챠"
182,내언니전지현과 나,03-Dec,261000 ,0.00%,24395300 ,25 ,2863 ,1 ,4 ,한국,한국,호우주의보
182,북 오브 러브,30-Nov,274000 ,0.00%,58426000 ,25 ,7788 ,1 ,6 ,중국,중국,"롯데쇼핑㈜롯데엔터테인먼트,(주)퍼스트런"
186,언어의 정원,14-Aug,170000 ,0.00%,530914163 ,23 ,79347 ,2 ,9 ,일본,일본,"(주)미디어캐슬,(주)팝엔터테인먼트"
187,드롭박스,19-May,197000 ,0.00%,17414800 ,22 ,2337 ,1 ,4 ,한국,"한국,미국","(사)필레마,필름포럼,홀리가든"
187,레닌그라드 카우보이 미국에 가다,18-May,151000 ,0.00%,4824500 ,22 ,740 ,1 ,2 ,핀란드,핀란드,
187,바우하우스,29-Aug,172000 ,0.00%,35935378 ,22 ,4259 ,1 ,1 ,독일,독일,(주)마노엔터테인먼트
190,내 사랑,12-Jul,210000 ,0.00%,2470376725 ,21 ,337829 ,1 ,2 ,아일랜드,"아일랜드,캐나다",오드
191,북클럽,20-Jun,140000 ,0.00%,220835690 ,20 ,30089 ,1 ,1 ,미국,미국,(주)영화사 진진
191,아담,25-Aug,142000 ,0.00%,13962700 ,20 ,1868 ,1 ,1 ,모로코,"모로코,프랑스,벨기에",시네마 뉴원
191,돌아온 사나이,14-Oct,40000 ,0.00%,3973500 ,20 ,1977 ,1 ,4 ,한국,한국,
191,부에노스 아이레스에서 사랑에 빠질 확률,12-Sep,120000 ,0.00%,182735500 ,20 ,23634 ,1 ,1 ,아르헨티나,"아르헨티나,스페인,독일",(주)영화사 진진
195,타오르는 여인의 초상,16-Jan,190000 ,0.00%,1326547938 ,19 ,157627 ,1 ,2 ,프랑스,프랑스,"그린나래미디어(주),(주)홈초이스"
195,리메모리-기억추출,,47000 ,0.00%,47000 ,19 ,19 ,1 ,1 ,미국,"미국,캐나다",(주)도키엔터테인먼트
195,우리가 말하지 않은 것,01-Sep,128000 ,0.00%,9578400 ,19 ,1001 ,2 ,14 ,일본,일본,(주)디오시네마
198,데드 맨,23-May,158000 ,0.00%,20746000 ,18 ,2208 ,1 ,2 ,미국,"미국,독일,일본",(주)영화사 안다미로
198,내 친구의 집은 어디인가,17-Aug,126000 ,0.00%,12420000 ,18 ,1702 ,1 ,1 ,이란,이란,
198,하트 비트,25-Nov,180000 ,0.00%,49836000 ,18 ,6621 ,1 ,1 ,캐나다,캐나다,"(주)엣나인필름,㈜씨에이엔"
201,영원한 휴가,,144000 ,0.00%,7944900 ,17 ,1030 ,1 ,2 ,미국,미국,(주)영화사 안다미로
201,마틴 에덴,29-Oct,204000 ,0.00%,144322430 ,17 ,15704 ,1 ,2 ,이탈리아,이탈리아,알토미디어(주)
201,그랜드 부다페스트 호텔,20-Mar,133000 ,0.00%,6487938022 ,17 ,832704 ,1 ,2 ,미국,"미국,독일","(주)피터팬픽쳐스,이십세기폭스코리아(주)"
201,태어나길 잘했어,14-Apr,144000 ,0.00%,40858300 ,17 ,4934 ,1 ,6 ,한국,한국,그린나래미디어(주)
205,타임 머신,,32000 ,0.00%,3878000 ,16 ,1933 ,1 ,7 ,미국,미국,
206,우리들,16-Jun,120000 ,0.00%,380408614 ,15 ,51337 ,1 ,1 ,한국,한국,(주)엣나인필름
206,과거가 없는 남자,14-Oct,102000 ,0.00%,16807500 ,15 ,2674 ,1 ,2 ,핀란드,핀란드,(주)영화랑
208,뱅크시,11-Aug,92000 ,0.00%,47216499 ,13 ,5672 ,2 ,8 ,영국,영국,(주)마노엔터테인먼트
209,오마주,26-May,111000 ,0.00%,102534500 ,12 ,13519 ,2 ,7 ,한국,한국,트윈플러스파트너스(주)
209,아사코,14-Mar,96000 ,0.00%,137848619 ,12 ,16020 ,1 ,1 ,일본,일본,(주)이수C&E
209,그린 나이트,05-Aug,37500 ,0.00%,266600180 ,12 ,28671 ,1 ,1 ,미국,미국,(주)팝엔터테인먼트
209,깊고 푸른 밤,01-Mar,65000 ,0.00%,12279800 ,12 ,4451 ,1 ,3 ,한국,한국,
213,경아의 딸,16-Jun,87000 ,0.00%,60044100 ,11 ,8631 ,1 ,6 ,한국,한국,㈜인디스토리
213,황혼의 빛,14-Dec,76000 ,0.00%,6234500 ,11 ,917 ,1 ,2 ,핀란드,핀란드,(주)스폰지이엔티
213,멋진 세계,11-Aug,109000 ,0.00%,57624300 ,11 ,6016 ,1 ,2 ,일본,일본,(주)엣나인필름
216,그 여름 가장 조용한 바다,13-Aug,60000 ,0.00%,41196034 ,10 ,5866 ,1 ,1 ,일본,일본,"(주)영화사 진진,(주)스폰지이엔티"
216,안티고네,19-Nov,65000 ,0.00%,89867360 ,10 ,10256 ,1 ,1 ,캐나다,캐나다,"그린나래미디어(주),(주)키다리이엔티"
216,종착역,23-Sep,60000 ,0.00%,36628798 ,10 ,5196 ,1 ,3 ,한국,한국,필름다빈
219,미스비헤이비어,27-May,27500 ,0.00%,235399360 ,9 ,28988 ,1 ,1 ,영국,영국,판씨네마(주)
220,우먼 인 할리우드,31-Oct,24500 ,0.00%,78969540 ,8 ,9920 ,1 ,1 ,미국,미국,(주)마노엔터테인먼트
221,죽음전의 키스,,14000 ,0.00%,1182000 ,7 ,586 ,1 ,3 ,미국,미국,
221,바람이 우리를 데려다 주리라,22-Nov,52000 ,0.00%,8080000 ,7 ,1131 ,1 ,1 ,이란,이란,㈜영화사 백두대간
221,체리 향기,01-Jan,51000 ,0.00%,7995000 ,7 ,1091 ,1 ,1 ,프랑스,"프랑스,이란",㈜영화사 백두대간
224,추억의 검정고무신,19-Nov,47000 ,0.00%,162730100 ,6 ,20219 ,1 ,2 ,한국,한국,(주)대교 미디어콘텐츠사업본부
224,송환,19-Mar,30000 ,0.00%,15702800 ,6 ,2634 ,1 ,1 ,한국,한국,㈜인디스토리
224,내 친구 정일우,26-Oct,30000 ,0.00%,76729160 ,6 ,12251 ,1 ,1 ,한국,한국,(주)시네마달
227,소설가의 영화,21-Apr,36000 ,0.00%,96112570 ,5 ,10555 ,1 ,3 ,한국,한국,"(주)영화제작전원사 ,(주)콘텐츠판다"
227,인플루엔자,25-Aug,34000 ,0.00%,7249900 ,5 ,760 ,1 ,4 ,한국,한국,아이 엠
229,내가 못 나가는 것도 아닌데,24-Aug,36000 ,0.00%,2000000 ,4 ,269 ,1 ,2 ,한국,한국,김충길 필름
230,다운 바이 로,,18000 ,0.00%,8774400 ,3 ,1168 ,1 ,1 ,미국,"미국,독일",(주)영화사 안다미로
230,바다 탐험대 옥토넛 : 탐험선 대작전,11-Aug,23000 ,0.00%,744749950 ,3 ,78910 ,1 ,1 ,영국,영국,와이드 릴리즈(주)
232,코코순이,25-Aug,14000 ,0.00%,40166900 ,2 ,4415 ,1 ,2 ,한국,한국,커넥트픽쳐스(주)
232,S 중독자의 고백,29-Dec,2000 ,0.00%,10140500 ,2 ,1286 ,2 ,2 ,스페인,스페인,팝엔터테인먼트
232,파로호,18-Aug,22000 ,0.00%,34909400 ,2 ,3922 ,1 ,1 ,한국,한국,(주)더쿱디스트리뷰션
235,세 가지 색 : 블루,23-Apr,0 ,0.00%,27256800 ,0 ,3597 ,1 ,1 ,프랑스,프랑스,"(주)영화사 안다미로,㈜영화사 백두대간"
235,낫아웃,03-Jun,0 ,0.00%,180000 ,0 ,30 ,1 ,1 ,한국,한국,"(주)케이티알파,판씨네마(주)"
