순위,영화명,개봉일,매출액,매출액점유율,누적매출액,관객수,누적관객수,스크린수,상영횟수,대표국적,국적,배급사
1,미싱타는 여자들,2022-01-20,41766520 ,27.6%,41766520 ,5171 ,5171 ,39 ,353 ,한국,한국,(주)영화사 진진
2,태일이,2021-12-01,16443940 ,10.9%,945904590 ,2099 ,114016 ,3 ,42 ,한국,한국,(주)리틀빅픽쳐스
3,존경하고 사랑하는 국민여러분,2022-01-27,15930700 ,10.5%,15930700 ,1767 ,1767 ,20 ,106 ,한국,한국,"주식회사 블루필름웍스,(주)영화사메이플러스"
4,나의 촛불,2022-02-10,13790000 ,9.1%,13790000 ,1379 ,1379 ,2 ,5 ,한국,한국,트윈플러스파트너스(주)
5,임신한 나무와 도깨비,2022-01-27,5905200 ,3.9%,8015700 ,1310 ,1596 ,20 ,94 ,한국,한국,(주)시네마달
6,라임크라임,2021-11-25,6679000 ,4.4%,85622800 ,1267 ,10827 ,5 ,47 ,한국,한국,(주)시네마달
7,그림자꽃,2021-10-27,5398000 ,3.6%,70540170 ,871 ,9367 ,7 ,45 ,한국,한국,(주)엣나인필름
8,노회찬6411,2021-10-14,4892000 ,3.2%,272958000 ,672 ,31693 ,5 ,17 ,한국,한국,"(주)리틀빅픽쳐스,시네마6411"
9,효자,2022-01-27,5894300 ,3.9%,5894300 ,630 ,630 ,16 ,74 ,한국,한국,(주)드림팩트엔터테인먼트
10,동백,2021-10-21,4200000 ,2.8%,133034770 ,600 ,18272 ,1 ,20 ,한국,한국,시네마 뉴원
11,사막을 건너 호수를 지나,2021-12-30,3772070 ,2.5%,5364040 ,452 ,656 ,12 ,147 ,한국,한국,영화배급협동조합 씨네소파
12,박서방,1960-10-05,997000 ,0.7%,16178000 ,426 ,7856 ,2 ,13 ,한국,한국,
13,그대와 영원히,1958-01-15,928000 ,0.6%,4883500 ,394 ,2382 ,2 ,15 ,한국,한국,
14,숏버스 배우행,2021-12-30,3619400 ,2.4%,5171400 ,350 ,521 ,12 ,86 ,한국,한국,"언더식스티,(주)퍼니콘"
15,윤희에게,2019-11-14,3313000 ,2.2%,983788639 ,345 ,123436 ,2 ,18 ,한국,한국,(주)리틀빅픽쳐스
16,걸 위드 더 카메라,2022-01-20,2733470 ,1.8%,2733470 ,330 ,330 ,11 ,85 ,한국,한국,(주)영화사 그램
17,나는 조선사람입니다,2021-12-09,1989000 ,1.3%,40101070 ,317 ,4616 ,5 ,103 ,한국,한국,"㈜인디스토리,엠앤씨에프"
18,로맨스 빠빠,1960-01-28,664000 ,0.4%,11497000 ,282 ,5703 ,1 ,9 ,한국,한국,
19,긴 하루,2021-12-30,2524400 ,1.7%,2524400 ,260 ,260 ,11 ,76 ,한국,한국,하준사
20,너에게 가는 길,2021-11-17,1804000 ,1.2%,158777700 ,221 ,18272 ,4 ,54 ,한국,한국,(주)엣나인필름
21,트로트는 인생이다,2022-01-27,1308600 ,0.9%,1308600 ,122 ,122 ,8 ,34 ,한국,한국,시네마 뉴원
22,물망초,,226000 ,0.1%,12398000 ,113 ,5512 ,1 ,9 ,한국,한국,
23,그런 일은 일어나지 않았지,,666000 ,0.4%,666000 ,85 ,85 ,1 ,8 ,한국,한국,(주)콘텐츠윙
24,소설가 구보의 하루,2021-12-09,549000 ,0.4%,28739470 ,82 ,3959 ,6 ,40 ,한국,한국,필름다빈
25,짬뽕비권,2022-02-02,400000 ,0.3%,400000 ,80 ,80 ,4 ,4 ,한국,한국,(주)콘텐츠판다
25,간호중,2021-12-02,400000 ,0.3%,27099400 ,80 ,4969 ,1 ,4 ,한국,한국,찬란
27,행복의 속도,2021-11-18,518000 ,0.3%,518000 ,73 ,73 ,3 ,19 ,한국,한국,(주)영화사 진진
28,로그 인 벨지움,2021-12-01,623300 ,0.4%,52769240 ,72 ,5407 ,3 ,22 ,한국,한국,(주)엣나인필름
29,벽 속의 여자,,157000 ,0.1%,10914000 ,61 ,4863 ,1 ,4 ,한국,한국,
29,마부,,152500 ,0.1%,20455500 ,61 ,10785 ,1 ,6 ,한국,한국,
31,무녀도,2021-11-24,385000 ,0.3%,38814000 ,55 ,5250 ,1 ,12 ,한국,한국,(주)씨네필운
32,들리나요?,2020-06-10,126000 ,0.1%,126000 ,53 ,53 ,1 ,18 ,한국,한국,(주)트리플픽쳐스
33,보는 것을 사랑한다,2021-10-28,311000 ,0.2%,6661000 ,48 ,1046 ,2 ,28 ,한국,한국,(주)드림팩트엔터테인먼트
34,싸나희 순정,2021-11-25,272000 ,0.2%,30154300 ,47 ,4419 ,4 ,32 ,한국,한국,(주)마노엔터테인먼트
35,사제로부터 온 편지,2021-08-19,107000 ,0.1%,1821000 ,41 ,410 ,1 ,16 ,한국,한국,(주)드림팩트엔터테인먼트
36,고양이를 부탁해,2001-10-12,297000 ,0.2%,71715990 ,38 ,7474 ,2 ,14 ,한국,한국,"(주)엣나인필름,(주)시네마서비스"
37,당신얼굴 앞에서,2021-10-21,322000 ,0.2%,46259950 ,37 ,5242 ,2 ,8 ,한국,한국,"(주)영화제작전원사 ,(주)콘텐츠판다"
38,폴란드로 간 아이들,2018-10-31,288000 ,0.2%,389946800 ,36 ,51123 ,1 ,1 ,한국,한국,커넥트픽쳐스(주)
39,메모리: 조작살인,2021-12-29,44000 ,0.0%,44000 ,29 ,29 ,2 ,29 ,한국,한국,(주)드림팩트엔터테인먼트
40,종착역,2021-09-23,135000 ,0.1%,36204798 ,27 ,5130 ,1 ,1 ,한국,한국,필름다빈
41,총을 들지 않는 사람들: 금기에 도전,2021-12-09,161000 ,0.1%,161000 ,23 ,23 ,2 ,11 ,한국,한국,(주)스튜디오 보난자
41,다시 태어나도 우리,2017-09-27,161000 ,0.1%,296812443 ,23 ,38396 ,1 ,1 ,한국,한국,(주)엣나인필름
43,인트로덕션,2021-05-27,171000 ,0.1%,55591270 ,21 ,6214 ,1 ,5 ,한국,한국,"(주)영화제작전원사 ,(주)콘텐츠판다"
44,숏버스 기묘행,2021-09-30,71500 ,0.0%,6212700 ,15 ,667 ,1 ,9 ,한국,한국,"언더식스티,(주)퍼니콘"
45,네가 내가 되었으면 좋겠다,2021-06-01,65000 ,0.0%,65000 ,13 ,13 ,1 ,4 ,한국,한국,주식회사 씨엠닉스
46,인생게임,2021-12-30,62000 ,0.0%,62000 ,12 ,12 ,1 ,5 ,한국,한국,(주)콘텐츠윙
46,보조바퀴,2021-11-25,104000 ,0.1%,104000 ,12 ,12 ,1 ,4 ,한국,한국,주식회사 필름초이스
48,니얼굴,2022-06-23,60000 ,0.0%,60000 ,8 ,8 ,1 ,6 ,한국,한국,(주)영화사 진진
49,니키리라고도 알려진,,49000 ,0.0%,24869100 ,7 ,2538 ,2 ,6 ,한국,한국,(주)엣나인필름
50,로그북,2021-11-24,36000 ,0.0%,36000 ,5 ,5 ,2 ,13 ,한국,한국,시네마 뉴원
50,1984 최동원,2021-11-11,33000 ,0.0%,92811730 ,5 ,10626 ,1 ,4 ,한국,한국,(주)트리플픽쳐스
52,더 테너 리리코 스핀토,2014-12-31,3000 ,0.0%,391557441 ,3 ,50517 ,3 ,3 ,한국,한국,"(주)박수엔터테인먼트,(주)모인그룹"
53,최선의 삶,2021-09-01,7000 ,0.0%,100707980 ,1 ,11676 ,1 ,1 ,한국,한국,(주)엣나인필름
53,아픈 만큼 사랑한다,2019-04-03,9000 ,0.0%,112627600 ,1 ,16169 ,1 ,4 ,한국,한국,(주)드림팩트엔터테인먼트
53,아워 미드나잇,2021-11-11,5000 ,0.0%,27447470 ,1 ,3646 ,1 ,1 ,한국,한국,필름다빈
56,말아,2022-08-25,0 ,0.0%,1162000 ,0 ,145 ,1 ,1 ,한국,한국,㈜인디스토리
56,혼자 사는 사람들,2021-05-19,0 ,0.0%,110842560 ,0 ,12489 ,1 ,1 ,한국,한국,주식회사 더쿱
