순위,영화명,개봉일,매출액,매출액점유율,누적매출액,관객수,누적관객수,스크린수,상영횟수,대표국적,국적,배급사
1,봄날,27-Apr,136667040 ,21.2%,136667040 ,18917 ,18917 ,455 ,3509 ,한국,한국,(주)콘텐츠판다
2,말임씨를 부탁해,13-Apr,120297670 ,18.6%,121845670 ,15435 ,15607 ,197 ,2051 ,한국,한국,(주)씨네필운
3,불도저에 탄 소녀,07-Apr,92323740 ,14.3%,93646740 ,10216 ,10363 ,203 ,2079 ,한국,한국,트윈플러스파트너스(주)
4,소설가의 영화,21-Apr,59517670 ,9.2%,59517670 ,6479 ,6479 ,66 ,931 ,한국,한국,"(주)영화제작전원사 ,(주)콘텐츠판다"
5,쓰리: 아직 끝나지 않았다,21-Apr,45580500 ,7.1%,45580500 ,6015 ,6015 ,77 ,475 ,한국,한국,필름다빈
6,복지식당,14-Apr,32528600 ,5.0%,33518600 ,3924 ,4014 ,53 ,613 ,한국,한국,㈜인디스토리
7,태어나길 잘했어,14-Apr,33742300 ,5.2%,35583300 ,3907 ,4161 ,50 ,720 ,한국,한국,그린나래미디어(주)
8,재춘언니,31-Mar,15563000 ,2.4%,25962500 ,2399 ,3722 ,40 ,426 ,한국,한국,(주)시네마달
9,"위대한 계약: 파주, 책, 도시",21-Apr,18891200 ,2.9%,18891200 ,2218 ,2218 ,30 ,272 ,한국,한국,(주)영화사 진진
10,역할들,31-Mar,7937000 ,1.2%,9740000 ,1407 ,1623 ,7 ,94 ,한국,한국,쉼표
11,나의 촛불,10-Feb,5496000 ,0.9%,405835950 ,1099 ,42123 ,2 ,6 ,한국,한국,트윈플러스파트너스(주)
12,고양이들의 아파트,17-Mar,9319800 ,1.4%,57581970 ,1071 ,6549 ,19 ,260 ,한국,한국,"(주)엣나인필름,(주)메타플레이"
13,"아치의 노래, 정태춘",18-May,9377000 ,1.5%,10305000 ,1041 ,1157 ,4 ,5 ,한국,한국,(주)넥스트엔터테인먼트월드(NEW)
14,태일이,01-Dec,5671000 ,0.9%,968955590 ,1033 ,117354 ,5 ,39 ,한국,한국,(주)리틀빅픽쳐스
15,하로동선,30-Mar,6884500 ,1.1%,11880400 ,917 ,1463 ,23 ,154 ,한국,한국,주식회사 블루필름웍스
16,늑대들,27-Apr,6591660 ,1.0%,6591660 ,894 ,894 ,29 ,134 ,한국,한국,(주)트리필름
17,평평남녀,28-Apr,6212200 ,1.0%,6242200 ,690 ,695 ,30 ,96 ,한국,한국,영화배급협동조합 씨네소파
18,"허황옥 3일, 잃어버린 2천 년의 기억",12-May,4400000 ,0.7%,4400000 ,600 ,600 ,2 ,3 ,한국,한국,(주)영화사 그램
19,어부바,11-May,4878000 ,0.8%,4878000 ,542 ,542 ,5 ,5 ,한국,한국,(주)트리플픽쳐스
20,헝거,21-Apr,3753560 ,0.6%,4831560 ,460 ,614 ,20 ,125 ,한국,한국,"(주)디오시네마,(주)태양미디어그룹"
21,엄마와 나,14-Apr,3097700 ,0.5%,3097700 ,373 ,373 ,7 ,77 ,한국,한국,(주)드림팩트엔터테인먼트
22,학교 가는 길,05-May,1930000 ,0.3%,268041980 ,308 ,35104 ,1 ,5 ,한국,한국,(주)영화사 진진
23,미싱타는 여자들,20-Jan,1538100 ,0.2%,80172720 ,216 ,9770 ,9 ,74 ,한국,한국,(주)영화사 진진
24,사랑의 스잔나,12-Aug,318000 ,0.0%,14542000 ,154 ,7163 ,1 ,12 ,한국,"한국,홍콩",
25,4등,13-Apr,1430000 ,0.2%,295105700 ,130 ,39835 ,1 ,1 ,한국,한국,"(주)프레인글로벌,CGV아트하우스"
26,액션동자,05-May,1375000 ,0.2%,1550000 ,125 ,150 ,1 ,1 ,한국,한국,(주)드림팩트엔터테인먼트
27,같은 속옷을 입는 두 여자,10-Nov,364000 ,0.1%,364000 ,98 ,98 ,1 ,1 ,한국,한국,찬란
28,빛과 철,18-Feb,492000 ,0.1%,84691760 ,95 ,10477 ,1 ,1 ,한국,한국,찬란
29,절해고도,,324000 ,0.1%,2498000 ,87 ,404 ,1 ,1 ,한국,한국,보리와 오디 영화사
30,나는 조선사람입니다,09-Dec,595000 ,0.1%,41347070 ,85 ,4764 ,1 ,1 ,한국,한국,"㈜인디스토리,엠앤씨에프"
31,장희빈,,164000 ,0.0%,13715000 ,82 ,6845 ,1 ,7 ,한국,한국,
32,극장판 프리파라 모두 모여라! 프리즘☆투어즈,13-Oct,548500 ,0.1%,273233300 ,71 ,33026 ,1 ,1 ,한국,한국,"동우에이앤이(주),(주)박수엔터테인먼트"
32,한여름의 판타지아,11-Jun,607000 ,0.1%,289503458 ,71 ,37254 ,1 ,13 ,한국,"한국,일본",㈜인디스토리
34,곡녀,31-Mar,524200 ,0.1%,1602200 ,69 ,179 ,7 ,57 ,한국,한국,시네마 뉴원
34,"그 겨울, 나는",30-Nov,246000 ,0.0%,2229000 ,69 ,327 ,1 ,1 ,한국,한국,(주)더쿱디스트리뷰션
34,소피의 세계,03-Mar,400000 ,0.1%,36096600 ,69 ,4242 ,6 ,40 ,한국,한국,찬란
37,너에게 가는 길,17-Nov,494000 ,0.1%,161005700 ,68 ,18553 ,2 ,7 ,한국,한국,(주)엣나인필름
38,남매의 여름밤,20-Aug,579000 ,0.1%,187089602 ,60 ,22598 ,1 ,12 ,한국,한국,그린나래미디어(주)
39,파수꾼,03-Mar,430000 ,0.1%,208551400 ,54 ,26596 ,1 ,15 ,한국,한국,필라멘트픽쳐스
40,로맨스 빠빠,28-Jan,130000 ,0.0%,11627000 ,52 ,5755 ,1 ,6 ,한국,한국,
41,테이블 매너,15-Mar,56000 ,0.0%,904000 ,51 ,287 ,2 ,20 ,한국,한국,주식회사 씨엠닉스
42,울지마 톤즈 2 : 슈크란 바바,09-Jan,400000 ,0.1%,155300440 ,50 ,21080 ,1 ,1 ,한국,한국,(주)영화특별시에스엠씨
43,멋진 하루,25-Sep,417000 ,0.1%,2590125671 ,48 ,397779 ,1 ,11 ,한국,한국,롯데쇼핑㈜롯데엔터테인먼트
43,와이키키 브라더스,26-Oct,417000 ,0.1%,9312900 ,48 ,1224 ,1 ,13 ,한국,한국,CJ ENM
45,자매의 화원,,112500 ,0.0%,4886500 ,45 ,2429 ,1 ,4 ,한국,한국,
46,3.5교시,14-Apr,120000 ,0.0%,120000 ,41 ,41 ,6 ,37 ,한국,한국,(주)드림팩트엔터테인먼트
47,수프와 이데올로기,20-Oct,186000 ,0.0%,1091500 ,40 ,153 ,1 ,1 ,한국,한국,(주)엣나인필름
48,흐르다,,138000 ,0.0%,394000 ,39 ,71 ,1 ,1 ,한국,한국,
49,낮에는 덥고 밤에는 춥고,27-Oct,148000 ,0.0%,1336000 ,38 ,195 ,1 ,1 ,한국,한국,필름다빈
50,모어,23-Jun,116000 ,0.0%,2695000 ,37 ,335 ,1 ,1 ,한국,한국,(주)엣나인필름
51,그 사람 추기경,06-Aug,36000 ,0.0%,93956100 ,36 ,13578 ,1 ,4 ,한국,한국,주식회사 마운틴픽쳐스
52,봉쇄수도원 카르투시오,19-Nov,34000 ,0.0%,40643180 ,34 ,4814 ,1 ,5 ,한국,한국,커넥트픽쳐스(주)
52,보드랍게,23-Feb,216000 ,0.0%,12470300 ,34 ,1478 ,3 ,25 ,한국,한국,(주)인디플러그
54,임신한 나무와 도깨비,27-Jan,199000 ,0.0%,17402800 ,32 ,2686 ,2 ,8 ,한국,한국,(주)시네마달
55,모퉁이,11-Aug,94000 ,0.0%,94000 ,29 ,29 ,1 ,1 ,한국,한국,(주)영화사 그램
55,오발탄,13-Apr,58000 ,0.0%,6146000 ,29 ,3058 ,1 ,8 ,한국,한국,
57,부활: 그 증거,08-Oct,168000 ,0.0%,426456790 ,28 ,51568 ,1 ,1 ,한국,한국,(주)영화사 진진
58,밤빛,04-Mar,154000 ,0.0%,8803110 ,27 ,1080 ,5 ,18 ,한국,한국,영화배급협동조합 씨네소파
59,축복의 집,24-Feb,66000 ,0.0%,10283750 ,26 ,1546 ,1 ,7 ,한국,한국,필름다빈
60,"집에서, 집으로",,110000 ,0.0%,110000 ,25 ,25 ,1 ,1 ,한국,한국,
61,북간도의 십자가,17-Oct,24000 ,0.0%,73007160 ,24 ,9945 ,1 ,10 ,한국,한국,"(재)CBS,주식회사 마운틴픽쳐스"
62,빛나는 순간,30-Jun,85000 ,0.0%,129655670 ,16 ,15559 ,1 ,1 ,한국,한국,"(주)명필름,(주)씨네필운"
62,매미소리,24-Feb,110000 ,0.0%,48274770 ,16 ,5100 ,2 ,9 ,한국,한국,(주)드림팩트엔터테인먼트
64,찬실이는 복도 많지,05-Mar,109000 ,0.0%,253422830 ,14 ,29575 ,1 ,6 ,한국,한국,찬란
65,우리를 갈라놓는 것들,28-Nov,55000 ,0.0%,17304580 ,13 ,2104 ,1 ,1 ,한국,한국,(주)엣나인필름
65,더스트맨,07-Apr,60000 ,0.0%,25946280 ,13 ,3809 ,1 ,1 ,한국,한국,(주)트리플픽쳐스
67,당신얼굴 앞에서,21-Oct,61000 ,0.0%,46593950 ,8 ,5288 ,1 ,5 ,한국,한국,"(주)영화제작전원사 ,(주)콘텐츠판다"
68,세자매,27-Jan,18000 ,0.0%,18000 ,6 ,6 ,1 ,1 ,한국,한국,(주)리틀빅픽쳐스
69,휴가,21-Oct,25000 ,0.0%,52331300 ,5 ,7211 ,1 ,1 ,한국,한국,㈜인디스토리
69,여배우는 오늘도,14-Sep,15500 ,0.0%,140461800 ,5 ,17096 ,1 ,1 ,한국,한국,(주)메타플레이
69,파란입이 달린 얼굴,18-Jan,25000 ,0.0%,9136200 ,5 ,1489 ,1 ,1 ,한국,한국,영화배급협동조합 씨네소파
72,싫은 건 아니지만,,28000 ,0.0%,252000 ,4 ,36 ,1 ,3 ,한국,한국,필름다빈
73,고양이를 부탁해,12-Oct,21000 ,0.0%,72410990 ,3 ,7546 ,1 ,2 ,한국,한국,"(주)엣나인필름,(주)시네마서비스"
73,이타미 준의 바다,15-Aug,15000 ,0.0%,191207160 ,3 ,23579 ,1 ,1 ,한국,한국,(주)영화사 진진
73,애프터 미투,06-Oct,27000 ,0.0%,27000 ,3 ,3 ,1 ,1 ,한국,한국,(주)영화사 그램
76,온 세상이 하얗다,10-Feb,16000 ,0.0%,6314800 ,2 ,710 ,1 ,3 ,한국,한국,(주)트리플픽쳐스
77,전투왕,17-Feb,5000 ,0.0%,62110610 ,1 ,6034 ,1 ,1 ,한국,한국,"(주)씨네포트,주식회사 블루필름웍스"
78,십개월의 미래,14-Oct,0 ,0.0%,109331180 ,0 ,15431 ,1 ,1 ,한국,한국,그린나래미디어(주)
78,벙어리 삼룡이,13-Nov,0 ,0.0%,12224000 ,0 ,5851 ,1 ,2 ,한국,한국,
78,창밖은 겨울,24-Nov,0 ,0.0%,522000 ,0 ,58 ,1 ,1 ,한국,한국,(주)영화사 진진
78,아름다운 시절,21-Nov,0 ,0.0%,0 ,0 ,0 ,1 ,2 ,한국,한국,
