순위,영화명,개봉일,매출액,매출액점유율,누적매출액,관객수,누적관객수,스크린수,상영횟수,대표국적,국적,배급사
1,나의 촛불,10-Feb,380546080 ,63.0%,394336080 ,38707 ,40086 ,294 ,4210 ,한국,한국,트윈플러스파트너스(주)
2,전투왕,17-Feb,58575910 ,9.7%,58575910 ,5655 ,5655 ,41 ,436 ,한국,한국,"(주)씨네포트,주식회사 블루필름웍스"
3,매미소리,24-Feb,36750970 ,6.1%,36750970 ,3806 ,3806 ,70 ,379 ,한국,한국,(주)드림팩트엔터테인먼트
4,미싱타는 여자들,20-Jan,28695600 ,4.8%,70462120 ,3329 ,8500 ,20 ,395 ,한국,한국,(주)영화사 진진
5,리프레쉬,16-Feb,18779100 ,3.1%,18779100 ,2659 ,2659 ,44 ,295 ,한국,한국,(주)이놀미디어
6,태일이,01-Dec,8400000 ,1.4%,954304590 ,1135 ,115151 ,2 ,18 ,한국,한국,(주)리틀빅픽쳐스
7,늦봄2020,10-Feb,8242470 ,1.4%,8242470 ,1079 ,1079 ,12 ,116 ,한국,한국,주식회사 블루필름웍스
8,보드랍게,23-Feb,8715100 ,1.4%,8715100 ,944 ,944 ,20 ,113 ,한국,한국,(주)인디플러그
9,1984 최동원,11-Nov,4445000 ,0.7%,97256730 ,889 ,11515 ,1 ,4 ,한국,한국,(주)트리플픽쳐스
10,축복의 집,24-Feb,6613250 ,1.1%,6922250 ,854 ,909 ,17 ,93 ,한국,한국,필름다빈
11,임신한 나무와 도깨비,27-Jan,7661100 ,1.3%,15676800 ,830 ,2426 ,15 ,203 ,한국,한국,(주)시네마달
12,효자,27-Jan,2941000 ,0.5%,8835300 ,759 ,1389 ,13 ,132 ,한국,한국,(주)드림팩트엔터테인먼트
13,온 세상이 하얗다,10-Feb,5519800 ,0.9%,5654800 ,605 ,632 ,18 ,183 ,한국,한국,(주)트리플픽쳐스
14,대한민국 대통령,17-Feb,4429000 ,0.7%,4429000 ,431 ,431 ,22 ,133 ,한국,한국,(주)라이크콘텐츠
15,소피의 세계,03-Mar,3360000 ,0.6%,4808000 ,398 ,579 ,3 ,4 ,한국,한국,찬란
16,존경하고 사랑하는 국민여러분,27-Jan,3254000 ,0.5%,19184700 ,360 ,2127 ,22 ,94 ,한국,한국,"주식회사 블루필름웍스,(주)영화사메이플러스"
17,당신은 이 글 속에 살아있다,18-Feb,1500000 ,0.2%,1500000 ,300 ,300 ,5 ,15 ,한국,한국,스토리웨이브픽쳐스
18,미인,24-Feb,2499000 ,0.4%,2499000 ,296 ,296 ,5 ,17 ,한국,한국,필름에이픽쳐스
19,여자의 일생,,448000 ,0.1%,19105500 ,224 ,10189 ,1 ,9 ,한국,한국,
20,아이돌레시피,17-Mar,1935000 ,0.3%,1935000 ,215 ,215 ,2 ,2 ,한국,한국,(주)드림팩트엔터테인먼트
21,트로트는 인생이다,27-Jan,1726500 ,0.3%,3035100 ,211 ,333 ,6 ,35 ,한국,한국,시네마 뉴원
22,짬뽕비권,02-Feb,1194000 ,0.2%,1594000 ,167 ,247 ,9 ,44 ,한국,한국,(주)콘텐츠판다
23,달기,,318000 ,0.1%,6537000 ,159 ,3266 ,1 ,9 ,한국,"한국,홍콩",
24,너에게 가는 길,17-Nov,1417000 ,0.2%,160194700 ,157 ,18429 ,2 ,11 ,한국,한국,(주)엣나인필름
25,걸 위드 더 카메라,20-Jan,919000 ,0.2%,3652470 ,132 ,462 ,5 ,42 ,한국,한국,(주)영화사 그램
26,윤희에게,14-Nov,1084000 ,0.2%,984872639 ,117 ,123553 ,2 ,23 ,한국,한국,(주)리틀빅픽쳐스
27,메기,26-Sep,1248000 ,0.2%,353299168 ,104 ,41761 ,1 ,1 ,한국,한국,"(주)엣나인필름,CGV아트하우스"
27,열녀문,,208000 ,0.0%,10946000 ,104 ,5222 ,1 ,4 ,한국,한국,
29,두만강아 잘 있거라,,210000 ,0.0%,3680000 ,82 ,1783 ,1 ,6 ,한국,한국,
30,들리나요?,10-Jun,38000 ,0.0%,164000 ,38 ,91 ,1 ,24 ,한국,한국,(주)트리플픽쳐스
31,사막을 건너 호수를 지나,30-Dec,273000 ,0.0%,5637040 ,37 ,693 ,3 ,31 ,한국,한국,영화배급협동조합 씨네소파
32,당신얼굴 앞에서,21-Oct,252000 ,0.0%,46511950 ,33 ,5275 ,1 ,13 ,한국,한국,"(주)영화제작전원사 ,(주)콘텐츠판다"
32,성덕,28-Sep,263000 ,0.0%,2972000 ,33 ,440 ,1 ,1 ,한국,한국,오드
34,흐르다,,256000 ,0.0%,256000 ,32 ,32 ,1 ,1 ,한국,한국,
35,고양이를 부탁해,12-Oct,234000 ,0.0%,71949990 ,30 ,7504 ,2 ,8 ,한국,한국,"(주)엣나인필름,(주)시네마서비스"
36,종착역,23-Sep,149000 ,0.0%,36353798 ,26 ,5156 ,2 ,18 ,한국,한국,필름다빈
37,소설가 구보의 하루,09-Dec,172000 ,0.0%,28911470 ,25 ,3984 ,2 ,8 ,한국,한국,필름다빈
38,거래완료,06-Oct,135000 ,0.0%,135000 ,17 ,17 ,1 ,1 ,한국,한국,(주)스튜디오디에이치엘
38,싫은 건 아니지만,,119000 ,0.0%,119000 ,17 ,17 ,1 ,11 ,한국,한국,필름다빈
40,행복의 속도,18-Nov,90000 ,0.0%,608000 ,14 ,87 ,1 ,2 ,한국,한국,(주)영화사 진진
40,휴가,21-Oct,112000 ,0.0%,52289300 ,14 ,7202 ,1 ,5 ,한국,한국,㈜인디스토리
42,나는 조선사람입니다,09-Dec,101000 ,0.0%,40202070 ,13 ,4629 ,2 ,18 ,한국,한국,"㈜인디스토리,엠앤씨에프"
43,무녀도,24-Nov,84000 ,0.0%,38898000 ,12 ,5262 ,1 ,7 ,한국,한국,(주)씨네필운
44,보는 것을 사랑한다,28-Oct,71000 ,0.0%,6732000 ,11 ,1057 ,2 ,7 ,한국,한국,(주)드림팩트엔터테인먼트
45,네가 내가 되었으면 좋겠다,01-Jun,20000 ,0.0%,85000 ,4 ,17 ,1 ,4 ,한국,한국,주식회사 씨엠닉스
45,최선의 삶,01-Sep,26000 ,0.0%,100733980 ,4 ,11680 ,1 ,2 ,한국,한국,(주)엣나인필름
45,긴 하루,30-Dec,27000 ,0.0%,2551400 ,4 ,264 ,1 ,3 ,한국,한국,하준사
48,인생게임,30-Dec,5000 ,0.0%,67000 ,1 ,13 ,1 ,1 ,한국,한국,(주)콘텐츠윙
48,그런 일은 일어나지 않았지,,5000 ,0.0%,671000 ,1 ,86 ,1 ,1 ,한국,한국,(주)콘텐츠윙
50,드롭박스,19-May,0 ,0.0%,17187800 ,0 ,2312 ,1 ,1 ,한국,"한국,미국","(사)필레마,필름포럼,홀리가든"
50,코리도라스,,0 ,0.0%,970000 ,0 ,194 ,1 ,1 ,한국,한국,(주)시네마달
