순위,영화명,개봉일,매출액,매출액점유율,누적매출액,관객수,누적관객수,스크린수,상영횟수,대표국적,국적,배급사
1,오! 마이 고스트,15-Sep,87624391 ,16.3%,87894391 ,11094 ,11124 ,283 ,1875 ,한국,한국,"(주)디스테이션,주식회사 제이씨엔터웍스"
2,둠둠,15-Sep,62369899 ,11.6%,62369899 ,7493 ,7493 ,74 ,689 ,한국,한국,(주)영화사 진진
3,홈리스,15-Sep,48098597 ,8.9%,49761597 ,6603 ,6836 ,86 ,842 ,한국,한국,그린나래미디어(주)
4,썬더버드,21-Sep,51411400 ,9.6%,51411400 ,6078 ,6078 ,99 ,831 ,한국,한국,(주)트리플픽쳐스
5,성적표의 김민영,08-Sep,53951897 ,10.0%,59307897 ,5383 ,6021 ,48 ,765 ,한국,한국,(주)엣나인필름
6,성덕,28-Sep,26319798 ,4.9%,29573798 ,3409 ,3896 ,60 ,245 ,한국,한국,오드
7,물방울을 그리는 남자,28-Sep,27909600 ,5.2%,27909600 ,3304 ,3304 ,47 ,163 ,한국,한국,(주)영화사 진진
8,녹턴,18-Aug,11520000 ,2.1%,76829100 ,2093 ,11089 ,11 ,143 ,한국,한국,(주)시네마달
9,"지금, 이대로가 좋아요",23-Apr,16000800 ,3.0%,162272800 ,1711 ,23381 ,26 ,292 ,한국,한국,"(주)엣나인필름,(주)스폰지이엔티,스폰지"
10,달이 지는 밤,22-Sep,16216196 ,3.0%,16958196 ,1640 ,1746 ,47 ,341 ,한국,한국,(주)디오시네마
11,어웨이크,24-Aug,9430100 ,1.8%,42708198 ,1525 ,5367 ,14 ,84 ,한국,한국,"주식회사 엔픽플,트윈플러스파트너스(주)"
12,잔혹했던 1948년 탐라의 봄,,4054000 ,0.8%,4054000 ,1517 ,1517 ,1 ,9 ,한국,한국,퓨어웨이픽쳐스
13,카시오페아,01-Jun,10459000 ,1.9%,209279300 ,1421 ,23863 ,5 ,12 ,한국,한국,(주)트리플픽쳐스
14,기기묘묘,22-Sep,9854099 ,1.8%,9854099 ,1097 ,1097 ,25 ,179 ,한국,한국,필름다빈
15,말아,25-Aug,7281000 ,1.4%,23334900 ,959 ,2772 ,19 ,286 ,한국,한국,㈜인디스토리
16,니얼굴,23-Jun,8617000 ,1.6%,72013500 ,946 ,8064 ,2 ,9 ,한국,한국,(주)영화사 진진
17,미혹,19-Oct,8172000 ,1.5%,8172000 ,908 ,908 ,2 ,4 ,한국,한국,"(주)엔케이컨텐츠,(주)디스테이션"
18,부적: 남의 운을 빼앗는 자,07-Sep,5321500 ,1.0%,5321500 ,662 ,662 ,6 ,46 ,한국,한국,(주)트리플픽쳐스
19,거래완료,06-Oct,5827000 ,1.1%,6228000 ,620 ,675 ,2 ,4 ,한국,한국,(주)스튜디오디에이치엘
20,코코순이,25-Aug,5980000 ,1.1%,40152900 ,492 ,4413 ,8 ,60 ,한국,한국,커넥트픽쳐스(주)
21,고고다이노 극장판: 얼음공룡의 비밀,05-Oct,4248000 ,0.8%,4248000 ,458 ,458 ,2 ,3 ,한국,한국,"(주)넥스트엔터테인먼트월드(NEW),(주)블루라벨픽쳐스"
22,젊은 남자,17-Dec,5329900 ,1.0%,6588900 ,443 ,632 ,3 ,14 ,한국,한국,(주)스튜디오 보난자
23,대무가,12-Oct,3888000 ,0.7%,3888000 ,432 ,432 ,1 ,1 ,한국,한국,"판씨네마(주),(주)케이티알파"
24,당신의 이웃은 친절하지 않다,15-Sep,4395000 ,0.8%,4395000 ,421 ,421 ,10 ,116 ,한국,한국,주식회사 씨엠닉스
25,2차 송환,29-Sep,3471000 ,0.6%,3598000 ,415 ,440 ,16 ,30 ,한국,한국,(주)시네마달
26,주연,29-Sep,3192000 ,0.6%,3192000 ,363 ,363 ,20 ,38 ,한국,한국,(주)마노엔터테인먼트
27,선데이리그,05-Oct,2847000 ,0.5%,3552000 ,337 ,442 ,1 ,2 ,한국,한국,아이 엠
28,작은새와 돼지씨,25-Aug,2285500 ,0.4%,8066300 ,334 ,1082 ,8 ,110 ,한국,한국,필름다빈
29,4등,13-Apr,2636000 ,0.5%,299229700 ,326 ,40309 ,1 ,3 ,한국,한국,"(주)프레인글로벌,CGV아트하우스"
30,언니는 말괄량이,,576000 ,0.1%,10418000 ,283 ,5966 ,1 ,11 ,한국,한국,
31,애프터 미투,06-Oct,2412000 ,0.4%,2641000 ,268 ,302 ,2 ,2 ,한국,한국,(주)영화사 그램
32,이공삼칠,08-Jun,490000 ,0.1%,522000 ,245 ,250 ,1 ,29 ,한국,한국,(주)씨네필운
33,인플루엔자,25-Aug,1867000 ,0.3%,7215900 ,221 ,755 ,9 ,82 ,한국,한국,아이 엠
34,내가 못 나가는 것도 아닌데,24-Aug,1378000 ,0.3%,1964000 ,173 ,265 ,4 ,37 ,한국,한국,김충길 필름
35,미싱타는 여자들,20-Jan,1360000 ,0.3%,2291000 ,170 ,303 ,1 ,2 ,한국,한국,(주)영화사 진진
36,오마주,26-May,1650000 ,0.3%,102423500 ,165 ,13507 ,1 ,2 ,한국,한국,트윈플러스파트너스(주)
37,한여름의 판타지아,11-Jun,820000 ,0.2%,290377458 ,164 ,37424 ,1 ,1 ,한국,"한국,일본",㈜인디스토리
38,깊고 푸른 밤,01-Mar,2136300 ,0.4%,12214800 ,160 ,4439 ,5 ,18 ,한국,한국,
39,파로호,18-Aug,1118000 ,0.2%,34887400 ,151 ,3920 ,7 ,69 ,한국,한국,(주)더쿱디스트리뷰션
40,경아의 딸,16-Jun,1200000 ,0.2%,59957100 ,150 ,8620 ,2 ,3 ,한국,한국,㈜인디스토리
41,수프와 이데올로기,20-Oct,1008000 ,0.2%,2121500 ,126 ,301 ,1 ,1 ,한국,한국,(주)엣나인필름
42,룸 쉐어링,22-Jun,590000 ,0.1%,28030260 ,118 ,4151 ,1 ,2 ,한국,한국,"주식회사 엔픽플,트윈플러스파트너스(주)"
43,낮과 달,20-Oct,1017000 ,0.2%,3073000 ,113 ,390 ,1 ,1 ,한국,한국,찬란
44,혼자 사는 사람들,19-May,1192500 ,0.2%,112099060 ,112 ,12609 ,1 ,2 ,한국,한국,주식회사 더쿱
45,욕창,02-Jul,1167000 ,0.2%,13190580 ,107 ,1651 ,1 ,1 ,한국,한국,필름다빈
46,무녀도,24-Nov,515000 ,0.1%,39449000 ,103 ,5375 ,1 ,3 ,한국,한국,(주)씨네필운
47,고종황제와 의사 안중근,,252000 ,0.0%,8205000 ,98 ,4066 ,1 ,8 ,한국,한국,
48,"아치의 노래, 정태춘",18-May,349000 ,0.1%,322917210 ,95 ,34061 ,1 ,28 ,한국,한국,(주)넥스트엔터테인먼트월드(NEW)
49,테이크 오프: 파도위에 서다,25-Aug,903000 ,0.2%,2604000 ,90 ,259 ,2 ,17 ,한국,한국,(주)아우라픽처스
50,좀비는 좀비끼리 우리는 우리끼리,,669000 ,0.1%,914000 ,85 ,116 ,1 ,2 ,한국,한국,필름다빈
51,"허황옥 3일, 잃어버린 2천 년의 기억",12-May,400000 ,0.1%,400000 ,80 ,80 ,4 ,4 ,한국,한국,(주)영화사 그램
52,8월의 크리스마스,24-Jan,803000 ,0.1%,224125100 ,75 ,31446 ,1 ,8 ,한국,한국,"한국영상투자개발(주),(주)싸이더스"
52,그대라는기억 연숙씨,16-Jun,375000 ,0.1%,754000 ,75 ,139 ,1 ,3 ,한국,한국,"(주)드림팩트엔터테인먼트,주식회사 블루필름웍스"
54,말임씨를 부탁해,13-Apr,560000 ,0.1%,157499670 ,70 ,20769 ,1 ,1 ,한국,한국,(주)씨네필운
55,박서방,05-Oct,172500 ,0.0%,16350500 ,67 ,7923 ,1 ,6 ,한국,한국,
56,모퉁이,11-Aug,525000 ,0.1%,10421400 ,64 ,1098 ,4 ,23 ,한국,한국,(주)영화사 그램
57,초록밤,28-Jul,412000 ,0.1%,22363327 ,63 ,2595 ,4 ,20 ,한국,한국,㈜인디스토리
58,모어,23-Jun,270000 ,0.1%,95732900 ,52 ,11307 ,1 ,2 ,한국,한국,(주)엣나인필름
59,휴가,21-Oct,50 ,0.0%,55531350 ,50 ,7651 ,1 ,1 ,한국,한국,㈜인디스토리
60,고양이를 부탁해,12-Oct,454000 ,0.1%,72864990 ,46 ,7592 ,1 ,1 ,한국,한국,"(주)엣나인필름,(주)시네마서비스"
61,돌아온 사나이,14-Oct,82000 ,0.0%,3933500 ,41 ,1957 ,1 ,9 ,한국,한국,
62,상록수,20-Sep,80000 ,0.0%,8414000 ,40 ,4189 ,1 ,4 ,한국,한국,
63,노회찬6411,14-Oct,180000 ,0.0%,273268000 ,36 ,31742 ,1 ,1 ,한국,한국,"(주)리틀빅픽쳐스,시네마6411"
64,최선의 삶,01-Sep,291000 ,0.1%,101079980 ,33 ,11724 ,1 ,1 ,한국,한국,(주)엣나인필름
65,내언니전지현과 나,03-Dec,180000 ,0.0%,24134300 ,30 ,2838 ,1 ,1 ,한국,한국,호우주의보
66,소설가의 영화,21-Apr,238000 ,0.0%,96076570 ,28 ,10550 ,2 ,8 ,한국,한국,"(주)영화제작전원사 ,(주)콘텐츠판다"
67,노다지,,54000 ,0.0%,7726500 ,27 ,3851 ,1 ,4 ,한국,한국,
68,태일이,01-Dec,162000 ,0.0%,981479590 ,24 ,118678 ,1 ,2 ,한국,한국,(주)리틀빅픽쳐스
69,윤희에게,14-Nov,149000 ,0.0%,985261639 ,17 ,123590 ,1 ,1 ,한국,한국,(주)리틀빅픽쳐스
70,벌새,29-Aug,70000 ,0.0%,1202002974 ,14 ,147928 ,1 ,2 ,한국,한국,"(주)엣나인필름,(주)콘텐츠판다"
70,투란도트 어둠의 왕국,18-Aug,96000 ,0.0%,8861700 ,14 ,980 ,2 ,5 ,한국,한국,주식회사 블루필름웍스
72,누에치던 방,31-Jan,60000 ,0.0%,21013300 ,12 ,2714 ,1 ,1 ,한국,한국,"서울독립영화제,무브먼트"
72,소공녀,22-Mar,106000 ,0.0%,482399200 ,12 ,60474 ,1 ,1 ,한국,한국,CGV아트하우스
74,국경의 왕,28-Feb,55000 ,0.0%,14766900 ,11 ,2117 ,1 ,2 ,한국,한국,"무브먼트,독립영화전용관 인디스페이스"
75,웰컴 투 X-월드,29-Oct,57000 ,0.0%,18099400 ,10 ,2294 ,2 ,7 ,한국,한국,(주)시네마달
76,풀잎들,25-Oct,45000 ,0.0%,60455250 ,9 ,7470 ,1 ,1 ,한국,한국,"(주)콘텐츠판다,(주)영화제작전원사 ,무브먼트"
76,아이들은 즐겁다,05-May,28500 ,0.0%,179161170 ,9 ,21530 ,1 ,1 ,한국,한국,"메가박스중앙(주)플러스엠,(주)영화사울림"
76,초행,07-Dec,45000 ,0.0%,58615900 ,9 ,7602 ,1 ,2 ,한국,한국,(주)인디플러그
79,나는보리,21-May,24800 ,0.0%,88722160 ,8 ,12347 ,1 ,1 ,한국,한국,(주)영화사 진진
80,그 후,06-Jul,35000 ,0.0%,142517508 ,7 ,18674 ,1 ,2 ,한국,한국,"(주)영화제작전원사 ,(주)콘텐츠판다"
80,어제 일은 모두 괜찮아,21-Nov,21500 ,0.0%,136384780 ,7 ,19044 ,1 ,1 ,한국,한국,(주)삼백상회
82,나는 나를 해고하지 않는다,28-Jan,18300 ,0.0%,143438800 ,6 ,18764 ,1 ,1 ,한국,한국,(주)영화사 진진
82,도망친 여자,17-Sep,30000 ,0.0%,87067240 ,6 ,10344 ,1 ,2 ,한국,한국,"(주)영화제작전원사 ,(주)콘텐츠판다"
84,얼굴들,24-Jan,25000 ,0.0%,17160000 ,5 ,2337 ,1 ,2 ,한국,한국,(주)시네마달
85,극장판 윌벤져스 : 수상한 캠핑 대소동,23-Jun,44000 ,0.0%,293037800 ,4 ,29432 ,1 ,1 ,한국,한국,(주)대교 미디어콘텐츠사업본부
86,돌아가는 길,,12000 ,0.0%,12000 ,3 ,3 ,1 ,3 ,한국,한국,호우주의보
86,재춘언니,31-Mar,10000 ,0.0%,36063500 ,3 ,5735 ,1 ,1 ,한국,한국,(주)시네마달
88,흉,,8000 ,0.0%,8000 ,2 ,2 ,1 ,2 ,한국,한국,호우주의보
88,소피의 세계,03-Mar,10000 ,0.0%,36106600 ,2 ,4244 ,1 ,1 ,한국,한국,찬란
90,아이를 위한 아이,21-Jul,6000 ,0.0%,38482300 ,1 ,4515 ,1 ,1 ,한국,한국,(주)트리플픽쳐스
90,스파이형 모델,20-Jul,5000 ,0.0%,1130000 ,1 ,178 ,1 ,1 ,한국,한국,주식회사 씨엠닉스
90,항거:유관순 이야기,27-Feb,5000 ,0.0%,9291464101 ,1 ,1157954 ,1 ,1 ,한국,한국,롯데컬처웍스(주)롯데엔터테인먼트
93,너에게 가는 길,17-Nov,0 ,0.0%,161457700 ,0 ,18605 ,1 ,1 ,한국,한국,(주)엣나인필름
93,줄탁동시,01-Mar,0 ,0.0%,25606600 ,0 ,3716 ,1 ,1 ,한국,한국,㈜인디스토리
93,드롭박스,19-May,0 ,0.0%,17217800 ,0 ,2315 ,1 ,2 ,한국,"한국,미국","(사)필레마,필름포럼,홀리가든"
93,우리는 매일매일,30-Jun,0 ,0.0%,25091670 ,0 ,3230 ,1 ,1 ,한국,한국,㈜인디스토리
