순위,영화명,개봉일,매출액,관객수,스크린수,대표국적,국적,배급사,장르
1,명량,2014.7.30,1.36E+11,17613682,1587,한국,한국,(주)씨제이이엔엠,"사극, 액션"
2,극한직업,2019.1.23,1.40E+11,16264944,1978,한국,한국,(주)씨제이이엔엠,코미디
3,신과함께-죄와 벌,2017.12.20,1.16E+11,14410754,1912,한국,한국,롯데쇼핑㈜롯데엔터테인먼트,"판타지, 드라마"
4,국제시장,2014.12.17,1.11E+11,14257115,966,한국,한국,(주)씨제이이엔엠,드라마
5,어벤져스: 엔드게임,2019.4.24,1.22E+11,13934592,2835,미국,미국,월트디즈니컴퍼니코리아 유한책임회사,"액션, SF"
6,겨울왕국 2,2019.11.21,1.15E+11,13747792,2648,미국,미국,월트디즈니컴퍼니코리아 유한책임회사,애니메이션
7,아바타,2009.12.17,1.28E+11,13624328,912,미국,미국,"주식회사 해리슨앤컴퍼니,이십세기폭스코리아(주)","SF, 액션, 어드벤처"
8,베테랑,2015.8.5,1.05E+11,13414009,1064,한국,한국,(주)씨제이이엔엠,"액션, 드라마"
9,괴물,2006.7.27,0,13019740,167,한국,한국,(주)쇼박스,"SF, 가족, 드라마"
10,도둑들,2012.7.25,93665568500,12983330,1072,한국,"한국,홍콩",(주)쇼박스,"액션, 범죄"
11,7번방의 선물,2013.1.23,91431914670,12811206,787,한국,한국,(주)넥스트엔터테인먼트월드(NEW),"코미디, 드라마"
12,암살,2015.7.22,98463132781,12705700,1519,한국,한국,(주)쇼박스,"액션, 드라마"
13,범죄도시 2,2022.5.18,1.31E+11,12693239,2498,한국,한국,"주식회사 에이비오엔터테인먼트,플러스엠 엔터테인먼트","범죄, 액션"
14,알라딘,2019.5.23,1.07E+11,12555894,1311,미국,미국,월트디즈니컴퍼니코리아 유한책임회사,"어드벤처, 가족, 판타지"
15,"광해, 왕이 된 남자",2012.9.13,88900208769,12319542,810,한국,한국,(주)씨제이이엔엠,"사극, 드라마"
16,왕의 남자,2005.12.29,0,12302831,94,한국,한국,(주)시네마서비스,드라마
17,신과함께-인과 연,2018.8.1,1.03E+11,12274996,2235,한국,한국,롯데컬처웍스(주)롯데엔터테인먼트,"판타지, 드라마"
18,택시운전사,2017.8.2,95855737149,12186684,1906,한국,한국,(주)쇼박스,드라마
19,태극기 휘날리며,2004.2.5,0,11746135,110,한국,한국,"(주)다자인소프트,(주)쇼박스","전쟁, 드라마"
20,부산행,2016.7.20,93178283048,11565479,1788,한국,한국,(주)넥스트엔터테인먼트월드(NEW),"액션, 스릴러"
21,해운대,2009.7.22,81934638201,11453338,753,한국,한국,CJ ENM,"액션, 드라마, 어드벤처"
22,변호인,2013.12.18,82871759300,11374610,923,한국,한국,(주)넥스트엔터테인먼트월드(NEW),드라마
23,어벤져스: 인피니티 워,2018.4.25,99919006769,11211880,2553,미국,미국,월트디즈니컴퍼니코리아 유한책임회사,"액션, 어드벤처, 판타지, SF"
24,실미도,2003.12.24,0,11081000,83,한국,한국,(주)시네마서비스,전쟁
25,어벤져스: 에이지 오브 울트론,2015.4.23,88582586366,10494499,1843,미국,미국,"월트디즈니컴퍼니코리아 유한책임회사,월트디즈니컴퍼니코리아(주)","액션, 어드벤처, 판타지, SF"
26,기생충,2019.5.30,87459829095,10313086,1948,한국,한국,(주)씨제이이엔엠,드라마
27,겨울왕국,2014.1.16,82461504400,10296101,1010,미국,미국,소니픽쳐스릴리징월트디즈니스튜디오스코리아(주),"애니메이션, 어드벤처, 가족, 코미디, 뮤지컬, 판타지"
28,인터스텔라,2014.11.6,82291089200,10275484,1342,미국,"미국,영국",워너브러더스 코리아(주),SF
29,보헤미안 랩소디,2018.10.31,86280975785,9948386,936,미국,미국,"월트디즈니컴퍼니코리아 유한책임회사,이십세기폭스코리아(주)",드라마
30,검사외전,2016.2.3,77319445264,9707158,1812,한국,한국,(주)쇼박스,"범죄, 코미디"
31,엑시트,2019.7.31,79232212162,9426051,1660,한국,한국,(주)씨제이이엔엠,"코미디, 액션"
32,설국열차,2013.8.1,67010077500,9349991,1128,한국,"한국,체코",(주)씨제이이엔엠,"SF, 액션"
33,관상,2013.9.11,66005451500,9134586,1190,한국,한국,(주)쇼박스,"사극, 드라마"
34,아이언맨 3,2013.4.25,70806191000,9001309,1381,미국,미국,소니픽쳐스릴리징월트디즈니스튜디오스코리아(주),"액션, 어드벤처, SF"
35,캡틴 아메리카: 시빌 워,2016.4.27,72672111827,8677249,1991,미국,미국,"월트디즈니컴퍼니코리아 유한책임회사,월트디즈니컴퍼니코리아(주)","액션, SF, 스릴러"
36,해적: 바다로 간 산적,2014.8.6,66370682706,8666046,838,한국,한국,롯데쇼핑㈜롯데엔터테인먼트,어드벤처
37,수상한 그녀,2014.1.22,62696639249,8656397,692,한국,한국,(주)씨제이이엔엠,드라마
38,국가대표,2009.7.29,60896633308,8487894,580,한국,한국,(주)쇼박스,"드라마, 액션, 코미디"
39,디워,2007.8.1,0,8426973,148,한국,한국,(주)쇼박스,"액션, 판타지"
40,백두산,2019.12.19,69825366300,8252669,1971,한국,한국,"(주)씨제이이엔엠,(주)덱스터스튜디오","어드벤처, 드라마"
41,과속스캔들,2008.12.3,53940101534,8245523,405,한국,한국,롯데쇼핑㈜롯데엔터테인먼트,코미디
42,탑건: 매버릭,2022.6.22,87802015589,8171923,1975,미국,미국,롯데컬처웍스(주)롯데엔터테인먼트,액션
43,스파이더맨: 파 프롬 홈,2019.7.2,69009271100,8021064,2142,미국,미국,소니픽쳐스엔터테인먼트코리아주식회사극장배급지점,"액션, 어드벤처, 코미디, SF"
44,웰컴 투 동막골,2005.8.4,0,8008622,114,한국,한국,(주)쇼박스,"전쟁, 드라마"
45,공조,2017.1.18,63781731326,7817446,976,한국,한국,(주)씨제이이엔엠,액션
46,트랜스포머 3,2011.6.29,74841350500,7784807,1409,미국,미국,(주)씨제이이엔엠,"액션, 어드벤처"
47,히말라야,2015.12.16,60173583015,7759473,1009,한국,한국,(주)씨제이이엔엠,드라마
48,미션임파서블:고스트프로토콜,2011.12.15,57795846000,7575899,1038,미국,미국,(주)씨제이이엔엠,액션
49,스파이더맨: 노 웨이 홈,2021.12.15,75193912210,7551990,2948,미국,미국,소니픽쳐스엔터테인먼트코리아주식회사극장배급지점,"액션, 어드벤처, SF"
50,트랜스포머: 패자의 역습,2009.6.24,51478531663,7505700,1129,미국,미국,CJ ENM,"SF, 액션, 어드벤처"
51,밀정,2016.9.7,61269783831,7500420,1444,한국,"한국,미국",워너브러더스 코리아(주),액션
52,최종병기 활,2011.8.10,55827861500,7470633,615,한국,한국,롯데쇼핑㈜롯데엔터테인먼트,"사극, 액션"
53,트랜스포머,2007.6.28,0,7440531,160,미국,미국,CJ ENM,"SF, 액션, 어드벤처"
54,써니,2011.5.4,54034235100,7362467,472,한국,한국,(주)씨제이이엔엠,"드라마, 코미디"
55,화려한 휴가,2007.7.25,0,7307993,116,한국,한국,CJ ENM,드라마
56,한산: 용의 출현,2022.7.27,73687674877,7262885,2223,한국,한국,롯데컬처웍스(주)롯데엔터테인먼트,"액션, 드라마"
57,스파이더맨: 홈 커밍,2017.7.5,59125813820,7258678,1965,미국,미국,소니픽쳐스엔터테인먼트코리아주식회사극장배급지점,"액션, 어드벤처, SF"
58,1987,2017.12.27,58165581145,7231638,1299,한국,한국,(주)씨제이이엔엠,드라마
59,베를린,2013.1.30,52354931637,7166199,894,한국,"한국,독일",(주)씨제이이엔엠,액션
60,마스터,2016.12.21,58067927865,7150541,1501,한국,한국,(주)씨제이이엔엠,"액션, 범죄"
61,터널,2016.8.10,57529484417,7120508,1105,한국,한국,(주)쇼박스,드라마
62,어벤져스,2012.4.26,59557853478,7074867,967,미국,미국,"월트디즈니컴퍼니코리아 유한책임회사,한국소니픽쳐스릴리징브에나비스타영화㈜","액션, SF"
63,내부자들,2015.11.19,56598130057,7072021,1075,한국,한국,(주)쇼박스,"범죄, 드라마"
64,인천상륙작전,2016.7.27,55101410303,7049643,1049,한국,한국,(주)씨제이이엔엠,"전쟁, 드라마"
65,럭키,2016.10.13,56444461256,6975290,1158,한국,한국,(주)쇼박스,코미디
66,은밀하게 위대하게,2013.6.5,48700887413,6959083,1341,한국,한국,(주)쇼박스,"액션, 코미디, 드라마"
67,공조2: 인터내셔날,2022.9.7,70703443961,6952340,2389,한국,한국,(주)씨제이이엔엠,"액션, 코미디"
68,곡성,2016.5.12,55863520382,6879908,1485,한국,"한국,미국",이십세기폭스코리아(주),"미스터리, 스릴러, 드라마"
69,범죄도시,2017.10.3,56318014149,6879841,1315,한국,한국,"플러스엠 엔터테인먼트,(주)키위미디어그룹","범죄, 액션"
70,타짜,2006.9.28,0,6847777,147,한국,한국,CJ ENM,드라마
71,"좋은 놈, 나쁜 놈, 이상한 놈",2008.7.17,43768628939,6686912,825,한국,한국,CJ ENM,"서부극, 액션, 어드벤처"
72,늑대소년,2012.10.31,46593107500,6654837,706,한국,한국,(주)씨제이이엔엠,"멜로, 로맨스, 드라마, 판타지"
73,미녀는 괴로워,2006.12.14,0,6619498,93,한국,한국,(주)쇼박스,"멜로, 로맨스, 코미디"
74,군함도,2017.7.26,50510565168,6592151,2027,한국,한국,(주)씨제이이엔엠,"액션, 드라마"
75,미션 임파서블: 폴아웃,2018.7.25,55888375112,6584915,1957,미국,미국,롯데컬처웍스(주)롯데엔터테인먼트,"액션, 스릴러"
76,다크 나이트 라이즈,2012.7.19,47644838000,6396528,1210,미국,"미국,영국",워너브러더스 코리아(주),"액션, 범죄, 스릴러"
77,아저씨,2010.8.4,47870792359,6282774,478,한국,한국,CJ ENM,"액션, 드라마"
78,사도,2015.9.16,48842902501,6246849,1210,한국,한국,(주)쇼박스,사극
79,전우치,2009.12.23,44605437017,6136928,606,한국,한국,CJ ENM,"액션, 코미디, 판타지"
80,킹스맨 : 시크릿 에이전트,2015.2.11,50369009795,6129681,706,미국,"미국,영국",이십세기폭스코리아(주),"액션, 스릴러"
81,미션 임파서블: 로그네이션,2015.7.30,48547353607,6126488,1202,미국,미국,롯데쇼핑㈜롯데엔터테인먼트,"액션, 스릴러, 어드벤처"
82,투사부일체,2006.1.19,0,6105431,93,한국,한국,CJ ENM,코미디
83,연평해전,2015.6.24,45563228330,6043784,1013,한국,한국,(주)넥스트엔터테인먼트월드(NEW),드라마
84,반지의 제왕 : 왕의 귀환,2003.12.17,0,5960000,105,미국,미국,"워너브러더스 코리아(주),CJ ENM","판타지, 어드벤처"
85,인셉션,2010.7.21,44106546302,5926948,528,미국,미국,"(주)디스테이션,워너브러더스 코리아(주)","드라마, 미스터리"
86,레미제라블,2012.12.19,43044999000,5911890,696,미국,미국,유니버설픽쳐스인터내셔널 코리아(유),드라마
87,닥터 스트레인지: 대혼돈의 멀티버스,2022.5.4,62648830870,5884600,2691,미국,미국,월트디즈니컴퍼니코리아 유한책임회사,"액션, 어드벤처, 판타지"
88,쉬리,1999.2.13,0,5820000,0,한국,한국,,"액션, 드라마, 멜로, 로맨스, 미스터리"
89,캡틴 마블,2019.3.6,51491272223,5801069,2100,미국,미국,월트디즈니컴퍼니코리아 유한책임회사,"액션, 어드벤처, SF"
90,미션 임파서블 3,2006.5.3,0,5740789,134,미국,미국,UIP코리아,액션
91,쥬라기 월드: 폴른 킹덤,2018.6.6,49770711037,5661128,1972,미국,미국,유니버설픽쳐스인터내셔널 코리아(유),"액션, 어드벤처, SF"
92,청년경찰,2017.8.9,44381150516,5653270,1102,한국,한국,롯데쇼핑㈜롯데엔터테인먼트,액션
93,가문의 위기(가문의 영광2),2005.9.7,0,5635266,101,한국,한국,(주)쇼박스,코미디
94,숨바꼭질,2013.8.14,39602987500,5604104,779,한국,한국,(주)넥스트엔터테인먼트월드(NEW),스릴러
95,덕혜옹주,2016.8.3,44393828109,5599229,964,한국,한국,롯데쇼핑㈜롯데엔터테인먼트,"사극, 드라마"
96,더 테러 라이브,2013.7.31,39866712881,5583596,743,한국,한국,롯데쇼핑㈜롯데엔터테인먼트,"범죄, 기타"
97,쥬라기 월드,2015.6.11,47800698826,5546792,1290,미국,미국,유니버설픽쳐스인터내셔널 코리아(유),"액션, 어드벤처, SF"
98,감시자들,2013.7.3,39380162179,5508017,949,한국,한국,(주)넥스트엔터테인먼트월드(NEW),"범죄, 액션"
99,의형제,2010.2.4,40800867602,5507106,572,한국,한국,(주)쇼박스,"드라마, 액션"
100,2012,2009.11.12,39415166660,5462953,789,미국,미국,한국소니픽쳐스릴리징브에나비스타영화㈜,"SF, 액션, 어드벤처"
101,앤트맨과 와스프,2018.7.4,47465443185,5447826,1775,미국,미국,월트디즈니컴퍼니코리아 유한책임회사,"슈퍼히어로,SF,코미디,액션,어드벤처"
102,닥터 스트레인지,2016.10.26,47482530396,5446379,1503,미국,미국,월트디즈니컴퍼니코리아(주),"슈퍼히어로,판타지,SF,액션,어드벤처"
103,검은 사제들,2015.11.5,42407832092,5442553,1088,한국,한국,(주)씨제이이엔엠,"미스터리,드라마,스릴러"
104,안시성,2018.9.19,46335334026,5440186,1540,한국,한국,(주)넥스트엔터테인먼트월드(NEW),"액션,사극"
105,블랙 팬서,2018.2.14,45883143457,5398994,1620,미국,미국,월트디즈니컴퍼니코리아 유한책임회사,"슈퍼히어로,SF,액션,어드벤처,드라마"
106,더 킹,2017.1.18,43486078535,5316325,1310,한국,한국,(주)넥스트엔터테인먼트월드(NEW),"범죄,드라마,블랙 코미디,느와르,스릴러,피카레스크,시대극"
107,완득이,2011.10.20,38530503500,5310510,500,한국,한국,(주)씨제이이엔엠,드라마
108,트랜스포머: 사라진 시대,2014.6.25,44012272845,5295801,1602,미국,미국,(주)씨제이이엔엠,"SF,액션"
109,완벽한 타인,2018.10.31,44356752474,5294119,1313,한국,한국,롯데컬처웍스(주)롯데엔터테인먼트,"드라마,코미디"
110,살인의 추억,2003.4.25,,5255376,54,한국,한국,CJ ENM,"드라마,범죄,스릴러,미스터리,블랙 코미디,느와르"
111,조커,2019.10.2,45443092130,5255308,1418,미국,미국,워너브러더스 코리아(주),"범죄,스릴러,느와르,드라마,피카레스크,블랙 코미디"
112,월드 워 Z,2013.6.20,38555357000,5237525,964,미국,미국,롯데쇼핑㈜롯데엔터테인먼트,"좀비 아포칼립스,드라마,액션"
113,반지의 제왕 : 두개의 탑,2002.12.19,0,5183000,79,미국,미국,"워너브러더스 코리아(주),(주)시네마서비스","판타지,모험,액션"
114,타워,2012.12.25,37654858000,5181014,617,한국,한국,(주)씨제이이엔엠,"재난,드라마,스릴러"
115,말아톤,2005.1.27,0,5148022,73,한국,한국,(주)쇼박스,드라마
116,미녀와 야수,2017.3.16,42132589579,5138193,1627,미국,미국,월트디즈니컴퍼니코리아 유한책임회사,"판타지,뮤지컬,로맨스,가족"
117,추격자,2008.2.14,33943278500,5071619,435,한국,한국,(주)쇼박스,"범죄,스릴러,느와르,실화"
118,독전,2018.5.22,43484892913,5063620,1357,한국,한국,(주)넥스트엔터테인먼트월드(NEW),"범죄,액션,스릴러,느와르,피카레스크,드라마,어드벤처"
119,쿵푸팬더 2,2011.5.26,44298724500,5062722,948,미국,미국,(주)씨제이이엔엠,"애니메이션,액션,어드벤처,코미디,가족"
120,아쿠아맨,2018.12.19,44113456704,5038134,1285,미국,"미국,호주",워너브러더스 코리아(주),"슈퍼히어로,액션,SF"
121,공작,2018.8.8,42788691176,4974512,1317,한국,한국,(주)씨제이이엔엠,"드라마,첩보,시대극"
122,인사이드 아웃,2015.7.9,38024694936,4969735,777,미국,미국,월트디즈니컴퍼니코리아(주),"애니메이션,코미디,드라마,성장물"
123,캐리비안의 해적: 세상의 끝에서,2007.5.23,0,4966571,244,미국,미국,한국소니픽쳐스릴리징브에나비스타영화㈜,"가상 역사 판타지,모험,액션"
124,킹스맨: 골든 서클,2017.9.27,40987484736,4945484,1687,미국,"미국,영국",이십세기폭스코리아(주),"첩보,액션,코미디"
125,동갑내기 과외하기,2003.2.7,,4937573,54,한국,한국,CJ ENM,"멜로,로맨틱 코미디"
126,스파이더맨 3,2007.5.1,0,4935660,198,미국,미국,한국소니픽쳐스릴리징브에나비스타영화㈜,"슈퍼히어로,액션,SF"
127,바람과 함께 사라지다,2012.8.8,34614661161,4909937,694,한국,한국,(주)넥스트엔터테인먼트월드(NEW),"시대극,액션,코미디"
128,마션,2015.10.8,39663145295,4880800,1132,미국,미국,"월트디즈니컴퍼니코리아 유한책임회사,이십세기폭스코리아(주)","SF,드라마,코미디"
129,토르: 라그나로크,2017.10.25,39248432595,4857152,1640,미국,미국,월트디즈니컴퍼니코리아 유한책임회사,"슈퍼히어로,SF,스페이스 오페라,코미디,액션,어드벤처,판타지"
130,어메이징 스파이더맨,2012.6.28,41163951235,4853123,1118,미국,미국,한국소니픽쳐스릴리징브에나비스타영화㈜,"슈퍼히어로,액션,어드벤처,SF,로맨스,성장 스토리"
131,"님아, 그 강을 건너지 마오",2014.11.27,37355277679,4801527,206,한국,한국,"CGV아트하우스,(주)대명문화공장",다큐멘터리
132,봉오동 전투,2019.8.7,40588648538,4787538,1476,한국,한국,(주)쇼박스,"사극,액션,드라마"
133,조선명탐정 : 각시투구꽃의 비밀,2011.1.27,35841769500,4786259,611,한국,한국,(주)쇼박스,"코미디,범죄"
134,군도: 민란의 시대,2014.7.23,36987755999,4774895,1394,한국,한국,(주)쇼박스,"시대극,액션"
135,남산의 부장들,2020.1.22,41223596650,4750104,1659,한국,한국,(주)쇼박스,"드라마,첩보,시대극,느와르,스릴러,피카레스크,범죄,정치,서스펜스"
136,라이온 킹,2019.7.17,41518977430,4743184,1936,미국,미국,월트디즈니컴퍼니코리아 유한책임회사,"뮤지컬,어드벤처,드라마,가족"
137,범죄와의 전쟁: 나쁜놈들 전성시대,2012.2.2,36538823500,4719872,699,한국,한국,(주)쇼박스,"범죄,액션,느와르,드라마,블랙 코미디,피카레스크"
138,주토피아,2016.2.17,37077444042,4703245,661,미국,미국,월트디즈니컴퍼니코리아(주),"애니메이션,액션,어드벤처,블랙 코미디"
139,엣지 오브 투모로우,2014.6.4,38731398201,4699208,801,미국,미국,워너브러더스 코리아(주),"SF,액션,루프,어드벤처"
140,신세계,2013.2.21,34881330905,4682492,671,한국,한국,(주)넥스트엔터테인먼트월드(NEW),"범죄,스릴러,드라마,느와르,피카레스크,액션"
141,쿵푸 팬더,2008.6.5,30000965000,4673009,351,미국,미국,CJ ENM,"애니메이션,코미디,액션,가족"
142,신비한 동물사전,2016.11.16,39337263058,4666993,1431,미국,"미국,영국",워너브러더스 코리아(주),"판타지,모험"
143,도가니,2011.9.22,35566854800,4662822,644,한국,한국,(주)씨제이이엔엠,"범죄,드라마"
144,캐리비안의 해적 : 망자의 함,2006.7.6,0,4628903,129,미국,미국,브에나비스타인터내셔널코리아,"가상 역사 판타지,모험,액션"
145,박물관이 살아있다!,2006.12.21,0,4612831,86,미국,미국,이십세기폭스코리아(주),"가족,코미디,판타지,액션 어드벤처"
146,내 아내의 모든 것,2012.5.17,34222160500,4598583,563,한국,한국,(주)넥스트엔터테인먼트월드(NEW),멜로
147,판도라,2016.12.7,36064461064,4583645,1166,한국,한국,(주)넥스트엔터테인먼트월드(NEW),"재난,드라마,스릴러,SF,포스트 아포칼립스,어드벤처"
148,나쁜 녀석들: 더 무비,2019.9.11,39560195124,4573902,1511,한국,한국,(주)씨제이이엔엠,"범죄,액션,느와르,스릴러,피카레스크"
149,터미네이터 : 미래전쟁의 시작,2009.5.21,30146162133,4568891,704,미국,미국,롯데쇼핑㈜롯데엔터테인먼트,"액션,SF,포스트 아포칼립스"
150,맘마미아!,2008.9.3,29570784560,4554785,457,미국,미국,유니버설픽쳐스인터내셔널 코리아(유),"뮤지컬,로맨틱 코미디,드라마"
151,연가시,2012.7.5,32175400664,4515833,759,한국,한국,(주)씨제이이엔엠,"공포,스릴러,재난,생존,드라마"
152,아이언맨 2,2010.4.29,33161943100,4498335,757,미국,미국,CJ ENM,"슈퍼히어로,SF,액션,어드벤처"
153,강철비,2017.12.14,35489576466,4452740,1426,한국,한국,(주)넥스트엔터테인먼트월드(NEW),"액션,드라마,첩보,스릴러,정치"
154,해리포터와 죽음의 성물2,2011.7.13,34507819000,4400298,757,미국,미국,워너브러더스 코리아(주),"모험,판타지,미스터리"
155,다만 악에서 구하소서,2020.8.5,38602260990,4357803,1998,한국,한국,(주)씨제이이엔엠,"범죄,액션,스릴러,느와르"
156,헌트,2022.8.10,44590525653,4351511,1625,한국,한국,플러스엠 엔터테인먼트,"액션,스릴러,첩보,드라마,느와르,시대극,미스터리"
157,아이언맨,2008.4.30,27802744668,4316003,592,미국,미국,CJ ENM,"슈퍼히어로,SF,액션,어드벤처"
158,엑스맨: 데이즈 오브 퓨처 패스트,2014.5.22,34654558766,4313871,1056,미국,미국,이십세기폭스코리아(주),"슈퍼히어로,액션,포스트 아포칼립스,호러"
159,강철중: 공공의 적 1-1,2008.6.19,28465757767,4300670,659,한국,한국,"CJ ENM,(주)시네마서비스","범죄,스릴러,블랙 코미디,드라마,액션"
160,아가씨,2016.6.1,35211229991,4287839,1171,한국,한국,(주)씨제이이엔엠,"스릴러,멜로,로맨스,드라마"
161,킹콩,2005.12.14,0,4232430,89,미국,미국,UIP코리아,"액션,어드벤처,드라마,판타지"
162,어메이징 스파이더맨 2,2014.4.23,34869056800,4168350,1312,미국,미국,소니픽쳐스릴리징월트디즈니스튜디오스코리아(주),"슈퍼히어로,액션,어드벤처,SF"
163,인디아나 존스 4 : 크리스탈 해골의 왕국,2008.5.22,26693951667,4136101,660,미국,미국,CJ ENM,"모험,가족"
164,용의자,2013.12.24,30037161000,4131248,807,한국,한국,(주)쇼박스,"액션,스릴러,드라마"
165,건축학개론,2012.3.22,30219800500,4110645,593,한국,한국,롯데쇼핑㈜롯데엔터테인먼트,"멜로,로맨스"
166,태풍,2005.12.14,0,4094395,115,한국,한국,CJ ENM,"액션,한국영화"
167,미이라 3:황제의 무덤,2008.7.30,26222207084,4090795,527,미국,미국,유니버설픽쳐스인터내셔널 코리아(유),"모험,판타지,액션"
168,7급 공무원,2009.4.22,26701311856,4088799,475,한국,한국,롯데쇼핑㈜롯데엔터테인먼트,"액션,코미디"
169,다크 나이트,2008.8.6,27059471306,4087355,462,미국,미국,"주식회사 해리슨앤컴퍼니,워너브러더스 코리아(주)","슈퍼히어로,범죄,스릴러,액션,느와르,미스터리"
170,색즉시공,2002.12.11,0,4082797,41,한국,한국,(주)쇼박스,코미디
171,댄싱퀸,2012.1.18,30129259500,4057546,534,한국,한국,(주)씨제이이엔엠,"코미디,드라마"
172,우리 생애 최고의 순간,2008.1.10,26151780425,4044582,418,한국,한국,(주)싸이더스,드라마
173,꾼,2017.11.22,31313568795,4018341,1314,한국,한국,(주)쇼박스,"범죄,코미디"
174,타짜-신의 손,2014.9.3,32373120927,4015361,890,한국,한국,"롯데쇼핑㈜롯데엔터테인먼트,(주)싸이더스","범죄,미스터리,드라마,스릴러,느와르,피카레스크"
175,혹성탈출: 반격의 서막,2014.7.10,31514053095,4002560,922,미국,미국,이십세기폭스코리아(주),"SF,어드벤처"
176,해리포터와 비밀의 방,2002.12.13,0,4000000,89,미국,미국,워너브러더스 코리아(주),"판타지,가족,모험,액션"
177,쿵푸팬더3,2016.1.28,31340798156,3984812,1365,미국,미국,(주)씨제이이엔엠,"애니메이션,액션,어드벤처"
178,캡틴 아메리카: 윈터 솔져,2014.3.26,31710585385,3963220,1106,미국,미국,"월트디즈니컴퍼니코리아 유한책임회사,소니픽쳐스릴리징월트디즈니스튜디오스코리아(주)","슈퍼히어로,SF,액션,어드벤처"
179,공공의 적 2,2005.1.27,0,3911356,95,한국,한국,(주)시네마서비스,"범죄,드라마"
180,박수건달,2013.1.9,28379548569,3897969,599,한국,한국,(주)쇼박스,"코미디,드라마"
181,베놈,2018.10.3,34100211207,3888096,1308,미국,미국,소니픽쳐스엔터테인먼트코리아주식회사극장배급지점,"안티히어로,액션,SF,스릴러"
182,한반도,2006.7.13,0,3880308,126,한국,한국,CJ ENM,"드라마,액션"
183,조선명탐정 : 사라진 놉의 딸,2015.2.11,30456879428,3872015,811,한국,한국,(주)쇼박스,"코미디,범죄"
184,트로이,2004.5.21,0,3851000,90,미국,미국,워너브러더스 코리아(주),"전쟁,역사,액션,로맨스"
185,역린,2014.4.30,29893297890,3849433,1054,한국,한국,롯데쇼핑㈜롯데엔터테인먼트,"액션,드라마,사극"
186,남한산성,2017.10.3,31225083792,3849087,1229,한국,한국,(주)씨제이이엔엠,"사극,드라마,전쟁"
187,매드 맥스: 분노의 도로,2015.5.14,32906364462,3842441,799,미국,"미국,호주",워너브러더스 코리아(주),"액션,어드벤쳐"
188,반도,2020.7.15,33072531280,3812250,2575,한국,한국,(주)넥스트엔터테인먼트월드(NEW),"공포,액션,스릴러,SF,어드벤처,드라마,미스터리,좀비 아포칼립스,재난,밀리터리"
189,암수살인,2018.10.3,32995138548,3789321,1177,한국,한국,(주)쇼박스,"범죄,스릴러"
190,데드풀 2,2018.5.16,34185664639,3784602,1576,미국,미국,이십세기폭스코리아(주),"슈퍼히어로,액션,어드벤처,블랙 코미디 SF,고어"
191,쌍화점,2008.12.30,25616489949,3779553,499,한국,한국,(주)쇼박스,드라마
192,국가부도의 날,2018.11.28,30891765837,3754983,1180,한국,한국,(주)씨제이이엔엠,"드라마,시대극"
193,신기전,2008.9.4,24314570667,3726134,585,한국,한국,CJ ENM,"시대극,액션"
194,미이라,2017.6.6,30504689978,3689325,1257,미국,미국,유니버설픽쳐스인터내셔널 코리아(유),"액션,모험,다크 판타지"
195,82년생 김지영,2019.10.23,30305744310,3679019,1486,한국,한국,롯데컬처웍스(주)롯데엔터테인먼트,드라마
196,너의 이름은.,2017.1.4,29564054156,3673885,947,일본,일본,플러스엠 엔터테인먼트,"애니메이션,판타지,로맨스,재난"
197,분노의 질주: 홉스&쇼,2019.8.14,32241767793,3657536,1311,미국,미국,유니버설픽쳐스인터내셔널 코리아(유),"범죄,액션"
198,분노의 질주: 더 익스트림,2017.4.12,29981156348,3653238,1469,미국,"미국,일본,프랑스,캐나다",유니버설픽쳐스인터내셔널 코리아(유),"범죄,액션"
199,친절한 금자씨,2005.7.29,0,3650000,127,한국,한국,CJ ENM,"스릴러,드라마,느와르,범죄,피카레스크"
200,해리 포터와 불의 잔,2005.12.1,0,3615000,125,미국,미국,워너브러더스 코리아(주),"판타지,가족,모험,액션"
201,모가디슈,2021.7.28,34558297730,3613984,1688,한국,한국,롯데컬처웍스(주)롯데엔터테인먼트,"액션, 드라마"
202,인턴,2015.9.24,28518443148,3610642,496,미국,미국,워너브러더스 코리아(주),코미디
203,라라랜드,2016.12.7,30009452694,3597519,727,미국,미국,판씨네마(주),"드라마, 뮤지컬, 멜로, 로맨스"
204,귀향,2016.2.24,27248705990,3586929,876,한국,한국,(주)와우픽쳐스,드라마
205,리얼 스틸,2011.10.12,26566677000,3579666,603,미국,미국,한국소니픽쳐스릴리징브에나비스타영화㈜,"액션, 드라마, SF"
206,신의 한 수,2014.7.3,28810921456,3566336,794,한국,한국,(주)쇼박스,"범죄, 액션"
207,미스터 & 미세스 스미스,2005.6.16,0,3546900,103,미국,미국,이십세기폭스필름코퍼레이션,"멜로, 로맨스, 액션, 어드벤처, 스릴러"
208,스캔들-조선남녀상열지사,2003.10.2,,3522747,76,한국,한국,CJ ENM,사극
209,코코,2018.1.11,27723289440,3513114,1177,미국,미국,월트디즈니컴퍼니코리아 유한책임회사,애니메이션
210,매트릭스2 리로디드,2003.5.23,0,3510000,102,미국,미국,워너브러더스 코리아(주),"SF, 범죄, 액션"
211,해리 포터와 불사조 기사단,2007.7.11,0,3475000,204,미국,미국,워너브러더스 코리아(주),"판타지, 액션, 어드벤처"
212,가문의 부활 - 가문의 영광3,2006.9.21,0,3464516,114,한국,한국,(주)쇼박스,코미디
213,부러진 화살,2012.1.18,25936754000,3459780,453,한국,한국,(주)넥스트엔터테인먼트월드(NEW),드라마
214,끝까지 간다,2014.5.29,27007303900,3450305,645,한국,한국,(주)쇼박스,"액션, 스릴러, 범죄"
215,스파이,2013.9.5,24509269305,3435801,785,한국,"한국,태국",(주)씨제이이엔엠,액션
216,아일랜드,2005.7.21,0,3433900,110,미국,미국,워너브러더스 코리아(주),"SF, 드라마, 액션, 스릴러"
217,비긴 어게인,2014.8.13,27104244061,3428309,213,미국,미국,판씨네마(주),"멜로, 로맨스"
218,그것만이 내 세상,2018.1.17,27444525382,3418043,862,한국,한국,(주)씨제이이엔엠,"코미디, 드라마"
219,이끼,2010.7.14,25856306126,3408144,736,한국,한국,CJ ENM,"드라마, 스릴러"
220,토이 스토리 4,2019.6.20,28757726040,3399913,1336,미국,미국,월트디즈니컴퍼니코리아 유한책임회사,"애니메이션, 어드벤처, 코미디"
221,어바웃 타임,2013.12.5,24982533500,3392251,568,영국,영국,유니버설픽쳐스인터내셔널 코리아(유),"멜로, 로맨스, 코미디"
222,돈,2019.3.20,28869614062,3389035,1431,한국,한국,(주)쇼박스,범죄
223,포화속으로,2010.6.16,24217600897,3385706,736,한국,한국,롯데쇼핑㈜롯데엔터테인먼트,"드라마, 전쟁"
224,다이 하드 4 : 죽어도 산다,2007.7.17,0,3380800,136,미국,미국,이십세기폭스필름코퍼레이션,액션
225,맨 인 블랙 3,2012.5.24,27301520070,3379762,770,미국,미국,한국소니픽쳐스릴리징브에나비스타영화㈜,"액션, 코미디, SF"
226,악인전,2019.5.15,29130540150,3364360,1307,한국,한국,"(주)에이스메이커무비웍스,(주)키위미디어그룹","범죄, 액션"
227,다빈치 코드,2006.5.18,0,3339082,139,미국,미국,소니픽쳐스릴리징코리아,"미스터리, 스릴러"
228,슈퍼배드 3,2017.7.26,24216987019,3324861,1057,미국,미국,유니버설픽쳐스인터내셔널 코리아(유),애니메이션
229,데드풀,2016.2.17,27595618651,3317196,1036,미국,미국,"월트디즈니컴퍼니코리아 유한책임회사,이십세기폭스코리아(주)","액션, SF"
230,시동,2019.12.18,28098934360,3317038,1515,한국,한국,(주)넥스트엔터테인먼트월드(NEW),드라마
231,슈렉2,2004.6.18,0,3300533,85,미국,미국,CJ ENM,애니메이션
232,아이 캔 스피크,2017.9.21,25532214986,3280243,1140,한국,한국,"롯데쇼핑㈜롯데엔터테인먼트,(주)리틀빅픽쳐스",코미디
233,스타워즈: 깨어난 포스,2015.12.17,28353796331,3273879,940,미국,미국,월트디즈니컴퍼니코리아(주),"액션, 어드벤처, 판타지"
234,올드보이,2003.11.21,0,3269000,45,한국,한국,"쇼이스트(주),(주)씨제이이엔엠",스릴러
235,분노의 질주: 더 세븐,2015.4.1,26454098694,3247955,983,미국,미국,유니버설픽쳐스인터내셔널 코리아(유),"액션, 범죄, 스릴러"
236,터미네이터 제니시스,2015.7.2,26556715129,3240370,1113,미국,미국,롯데쇼핑㈜롯데엔터테인먼트,"액션, 어드벤처, SF, 스릴러"
237,그래비티,2013.10.17,31484135600,3227452,636,미국,미국,"(주)스튜디오디에이치엘,주식회사 해리슨앤컴퍼니,워너브러더스 코리아(주)","SF, 드라마"
238,우주전쟁,2005.7.7,0,3223000,123,미국,미국,UIP코리아,"드라마, 액션, SF, 스릴러"
239,마녀,2018.6.27,27242029463,3189091,1117,한국,한국,워너브러더스 코리아(주),"미스터리, 액션"
240,탐정: 리턴즈,2018.6.13,26909459678,3152872,1041,한국,한국,(주)씨제이이엔엠,"코미디, 범죄"
241,어린 신부,2004.4.2,0,3149500,50,한국,한국,코리아픽쳐스(주),코미디
242,오! 브라더스,2003.9.4,0,3148748,51,한국,한국,(주)쇼박스,코미디
243,"장화, 홍련",2003.6.13,0,3146217,52,한국,한국,영화사청어람(주),"공포, 호러"
244,그놈 목소리,2007.2.1,0,3143247,110,한국,한국,CJ ENM,"드라마, 스릴러"
245,우리들의 행복한 시간,2006.9.14,0,3132320,118,한국,한국,(주)프라임엔터테인먼트,드라마
246,캐리비안의 해적: 낯선 조류,2011.5.19,27279967500,3130046,960,미국,미국,한국소니픽쳐스릴리징브에나비스타영화㈜,"액션, 판타지"
247,퀵,2011.7.20,22960890000,3125069,512,한국,한국,(주)씨제이이엔엠,"코미디, 액션"
248,감기,2013.8.14,21784202000,3119023,806,한국,한국,아이러브시네마,"드라마, 어드벤처, 액션"
249,말죽거리 잔혹사,2004.1.16,0,3115767,67,한국,한국,CJ ENM,"액션, 멜로, 로맨스"
250,광복절 특사,2002.11.20,0,3101900,71,한국,한국,(주)시네마서비스,"드라마, 코미디"
251,나우 유 씨 미 2,2016.7.13,25116690113,3100113,1200,미국,미국,롯데쇼핑㈜롯데엔터테인먼트,"범죄, 액션"
252,마파도,2005.3.10,0,3090467,58,한국,한국,CJ ENM,코미디
253,하모니,2010.1.28,21992266198,3068544,405,한국,한국,CJ ENM,드라마
254,거북이 달린다,2009.6.11,20857347292,3059812,379,한국,한국,(주)쇼박스,"드라마, 액션, 범죄"
255,너는 내 운명,2005.9.23,0,3051134,92,한국,한국,CJ ENM,"멜로, 로맨스"
256,이터널스,2021.11.3,31730757450,3050415,2648,미국,미국,월트디즈니컴퍼니코리아 유한책임회사,"액션, 어드벤처, 드라마"
257,캐리비안의 해적: 죽은 자는 말이 없다,2017.5.24,24975495122,3049894,1357,미국,미국,월트디즈니컴퍼니코리아 유한책임회사,"액션, 어드벤처, 판타지, 코미디"
258,스물,2015.3.25,23558988686,3044134,926,한국,한국,(주)넥스트엔터테인먼트월드(NEW),"코미디, 드라마"
259,토르: 다크 월드,2013.10.30,22525808500,3039889,733,미국,미국,소니픽쳐스릴리징월트디즈니스튜디오스코리아(주),"액션, 어드벤처, 판타지"
260,식객,2007.11.1,0,3038868,88,한국,한국,CJ ENM,드라마
261,방자전,2010.6.2,22853629794,3035116,512,한국,한국,CJ ENM,"사극, 코미디, 멜로, 로맨스"
262,인크레더블 2,2018.7.18,24554683588,3033052,1605,미국,미국,월트디즈니컴퍼니코리아 유한책임회사,"애니메이션, 액션, 어드벤처, 코미디, 가족"
263,하울의 움직이는 성,2004.12.23,0,3015165,65,일본,일본,"(주)이수C&E,(주)시네마서비스",애니메이션
264,마더,2009.5.28,20195373838,3013523,648,한국,한국,CJ ENM,드라마
265,오싹한 연애,2011.12.1,22010977000,3009356,469,한국,한국,(주)씨제이이엔엠,"공포, 호러, 멜로, 로맨스, 코미디"
266,투모로우,2004.6.3,0,3006400,67,미국,미국,이십세기폭스필름코퍼레이션,SF
267,레드: 더 레전드,2013.7.18,21511358970,3004647,739,미국,미국,롯데쇼핑㈜롯데엔터테인먼트,"액션, 코미디, 범죄"
268,해리 포터와 혼혈 왕자,2009.7.15,20580402431,3002669,751,미국,미국,워너브러더스 코리아(주),"어드벤처, 액션, 가족"
269,드래곤 길들이기 2,2014.7.23,23979935189,3000056,829,미국,미국,(주)씨제이이엔엠,"애니메이션, 액션, 어드벤처"
270,형,2016.11.23,23129111893,2982022,993,한국,한국,(주)씨제이이엔엠,"코미디, 드라마"
271,황금 나침반,2007.12.18,,2979838,110,미국,미국,롯데쇼핑㈜롯데엔터테인먼트,"판타지, 드라마, 액션, 어드벤처"
272,친구 2,2013.11.14,21804687513,2971475,968,한국,한국,롯데쇼핑㈜롯데엔터테인먼트,액션
273,26년,2012.11.29,21241327145,2963449,604,한국,한국,"(주)인벤트스톤,영화사청어람(주)","액션, 드라마"
274,워낭소리,2009.1.15,19259975032,2962897,20,한국,한국,㈜인디스토리,다큐멘터리
275,블랙 위도우,2021.7.7,29993657620,2961902,2528,미국,미국,월트디즈니컴퍼니코리아 유한책임회사,"액션, 어드벤처, SF"
276,서치,2018.8.29,25283364845,2949944,816,미국,미국,소니픽쳐스엔터테인먼트코리아주식회사극장배급지점,드라마
277,고지전,2011.7.20,21968557600,2945137,585,한국,한국,(주)쇼박스,"드라마, 전쟁"
278,엑스맨: 아포칼립스,2016.5.25,24467887950,2938818,1262,미국,미국,이십세기폭스코리아(주),"액션, 어드벤처, 판타지, SF"
279,프리즌,2017.3.23,23790276987,2931897,1047,한국,한국,(주)쇼박스,"범죄, 액션"
280,300,2007.3.14,0,2929400,102,미국,미국,워너브러더스 코리아(주),액션
281,가장 보통의 연애,2019.10.2,24885803430,2924563,1073,한국,한국,(주)넥스트엔터테인먼트월드(NEW),"멜로, 로맨스, 코미디"
282,솔트,2010.7.29,21719123025,2921331,556,미국,미국,한국소니픽쳐스릴리징브에나비스타영화㈜,"스릴러, 액션"
283,헬로우 고스트,2010.12.22,21154651779,2897477,472,한국,한국,(주)넥스트엔터테인먼트월드(NEW),"코미디, 드라마"
284,귀신이 산다,2004.9.17,0,2890000,70,한국,한국,(주)시네마서비스,"코미디, 공포, 호러, 판타지"
285,원티드,2008.6.26,19258777000,2867594,446,미국,미국,유니버설픽쳐스인터내셔널 코리아(유),"스릴러, 액션"
286,말모이,2019.1.9,23987145520,2866020,1203,한국,한국,롯데컬처웍스(주)롯데엔터테인먼트,드라마
287,극비수사,2015.6.18,22389535897,2860786,894,한국,한국,(주)쇼박스,"드라마, 범죄"
288,슈렉3,2007.6.6,0,2844159,120,미국,미국,CJ ENM,"애니메이션, 코미디, 어드벤처, 가족, 판타지"
289,표적,2014.4.30,22256359300,2841788,665,한국,한국,(주)씨제이이엔엠,"액션, 드라마"
290,앤트맨,2015.9.3,23528441937,2841699,949,미국,"미국,영국",월트디즈니컴퍼니코리아(주),"액션, SF"
291,쥬라기 월드: 도미니언,2022.6.1,29237126310,2837415,2218,미국,미국,유니버설픽쳐스인터내셔널 코리아(유),"액션, 어드벤처"
292,호빗: 다섯 군대 전투,2014.12.17,24268487685,2836774,926,미국,"미국,뉴질랜드",워너브러더스 코리아(주),"어드벤처, 판타지"
293,너의 결혼식,2018.8.22,23676244369,2820969,962,한국,한국,플러스엠 엔터테인먼트,"멜로, 로맨스"
294,호빗: 뜻밖의 여정,2012.12.13,23436820716,2818993,1028,미국,"미국,뉴질랜드",워너브러더스 코리아(주),"어드벤처, 판타지"
295,메이즈 러너,2014.9.18,21489367677,2812427,648,미국,미국,이십세기폭스코리아(주),"액션, 미스터리, SF, 스릴러"
296,해리 포터와 죽음의 성물1,2010.12.15,19906900266,2809053,718,미국,미국,워너브러더스 코리아(주),"미스터리, 판타지"
297,마녀(魔女) Part2. The Other One,2022.6.15,28922800670,2806524,1796,한국,한국,(주)넥스트엔터테인먼트월드(NEW),액션
298,빅 히어로,2015.1.21,21993119765,2801949,825,미국,미국,월트디즈니컴퍼니코리아(주),"애니메이션, 액션, 코미디"
299,덩케르크,2017.7.20,24576771848,2792705,1252,미국,"미국,영국",워너브러더스 코리아(주),"액션, 드라마, 스릴러, 전쟁"
300,혹성탈출: 진화의 시작,2011.8.17,20629757000,2773794,514,미국,미국,이십세기폭스코리아(주),"액션, SF, 드라마"
301,황산벌,2003.10.17,,2771236,71,한국,한국,(주)씨네월드,코미디
302,부당거래,2010.10.28,21326977937,2766436,502,한국,한국,CJ ENM,"범죄, 드라마"
303,1번가의 기적,2007.2.14,0,2750457,80,한국,한국,CJ ENM,"드라마, 코미디"
304,메이즈 러너: 스코치 트라이얼,2015.9.16,21596946349,2744413,804,미국,미국,이십세기폭스코리아(주),"액션, SF, 스릴러"
305,가디언즈 오브 갤럭시 VOL. 2,2017.5.3,23452686686,2735721,1218,미국,미국,월트디즈니컴퍼니코리아 유한책임회사,"액션, SF"
306,시라노; 연애조작단,2010.9.16,20171151599,2731828,402,한국,한국,롯데쇼핑㈜롯데엔터테인먼트,"멜로/로맨스, 코미디"
307,내가 살인범이다,2012.11.8,20392346000,2729808,547,한국,한국,(주)쇼박스,"액션, 스릴러"
308,핸콕,2008.7.2,17854932333,2723518,602,미국,미국,한국소니픽쳐스릴리징브에나비스타영화㈜,"액션, 드라마, 코미디"
309,나우 유 씨 미 : 마술사기단,2013.8.22,19146691869,2718227,691,미국,미국,롯데쇼핑㈜롯데엔터테인먼트,"범죄, 액션, 스릴러"
310,미스 페레그린과 이상한 아이들의 집,2016.9.28,21841214586,2718158,904,미국,"미국,벨기에,영국",이십세기폭스코리아(주),"미스터리, 판타지"
311,토르: 러브 앤 썬더,2022.7.6,29505092221,2716307,2143,미국,미국,월트디즈니컴퍼니코리아 유한책임회사,"액션, 어드벤처, 판타지"
312,적벽대전 2 : 최후의 결전,2009.1.22,17910684413,2713031,426,중국,중국,(주)쇼박스,"액션, 전쟁, 드라마, 사극"
313,소원,2013.10.2,18529792100,2711071,641,한국,한국,롯데쇼핑㈜롯데엔터테인먼트,드라마
314,지.아이.조 : 전쟁의 서막,2009.8.6,19889126096,2706748,446,미국,미국,CJ ENM,액션
315,타이탄,2010.4.1,22143097429,2685508,694,미국,미국,워너브러더스 코리아(주),"액션, 어드벤처, 판타지"
316,친구,2001.3.31,0,2678846,0,한국,한국,,액션/드라마
317,곤지암,2018.3.28,21442114144,2675559,1124,한국,한국,(주)쇼박스,"공포(호러), 스릴러"
318,살인자의 기억법,2017.9.6,21375287492,2658589,1064,한국,한국,(주)쇼박스,"범죄, 스릴러"
319,브레이킹 던 part2,2012.11.15,18909583065,2654817,665,미국,미국,(주)넥스트엔터테인먼트월드(NEW),"드라마, 판타지, 멜로/로맨스"
320,후궁 : 제왕의 첩,2012.6.6,19330302500,2636320,624,한국,한국,롯데쇼핑㈜롯데엔터테인먼트,"사극, 멜로/로맨스"
321,탐정 : 더 비기닝,2015.9.24,20463956973,2625686,764,한국,한국,(주)씨제이이엔엠,"코미디, 범죄"
322,미니언즈,2015.7.29,18997911278,2625572,792,미국,미국,유니버설픽쳐스인터내셔널 코리아(유),애니메이션
323,트랜스포머: 최후의 기사,2017.6.21,21501959228,2614601,1739,미국,미국,롯데쇼핑㈜롯데엔터테인먼트,"액션, 어드벤처, SF"
324,제이슨 본,2016.7.27,21253434663,2611966,827,미국,미국,유니버설픽쳐스인터내셔널 코리아(유),"액션, 스릴러"
325,드래곤 길들이기,2010.5.20,27471926367,2603857,562,미국,미국,"유니버설픽쳐스인터내셔널 코리아(유),CJ ENM","애니메이션, 코미디, 어드벤처, 가족"
326,지금 만나러 갑니다,2018.3.14,20800916128,2602273,1163,한국,한국,롯데쇼핑㈜롯데엔터테인먼트,멜로/로맨스
327,도리를 찾아서,2016.7.6,20703899933,2601734,1091,미국,미국,월트디즈니컴퍼니코리아(주),"애니메이션, 어드벤처, 코미디"
328,위험한 상견례,2011.3.31,19174920500,2595625,524,한국,한국,롯데쇼핑㈜롯데엔터테인먼트,"코미디, 멜로/로맨스"
329,아수라,2016.9.28,20576226662,2594028,1278,한국,한국,(주)씨제이이엔엠,"범죄, 액션"
330,보안관,2017.5.3,20844405409,2588617,1091,한국,한국,롯데쇼핑㈜롯데엔터테인먼트,"범죄, 코미디"
331,굿모닝 프레지던트,2009.10.22,18770889320,2583294,586,한국,한국,CJ ENM,"코미디, 드라마"
332,음란서생,2006.2.23,0,2576022,84,한국,한국,CJ ENM,"사극, 코미디"
333,내 머리 속의 지우개,2004.11.5,0,2565078,68,한국,한국,CJ ENM,멜로/로맨스
334,기술자들,2014.12.24,19894297783,2564340,641,한국,한국,롯데쇼핑㈜롯데엔터테인먼트,"범죄, 액션"
335,퍼시픽 림,2013.7.11,20477392512,2539114,1005,미국,미국,워너브러더스 코리아(주),"액션, SF, 어드벤처"
336,정글북,2016.6.9,21517513134,2537419,924,미국,미국,월트디즈니컴퍼니코리아(주),"어드벤처, 드라마"
337,증인,2019.2.13,20477262331,2534075,1047,한국,한국,롯데컬처웍스(주)롯데엔터테인먼트,드라마
338,엑스맨: 퍼스트 클래스,2011.6.2,19075363000,2533852,587,미국,미국,이십세기폭스코리아(주),액션
339,내 생애 가장 아름다운 일주일,2005.10.7,0,2533103,105,한국,한국,CJ ENM,멜로/로맨스
340,해리포터와 아즈카반의 죄수,2004.7.16,0,2532000,91,미국,미국,워너브러더스 코리아(주),드라마
341,목격자,2018.8.15,21733771597,2524333,1021,한국,한국,(주)넥스트엔터테인먼트월드(NEW),스릴러
342,패션 오브 크라이스트,2004.4.2,0,2523700,56,미국,미국,"(주)이수C&E,이십세기폭스필름코퍼레이션",드라마
343,마이펫의 이중생활,2016.8.3,19405636655,2520510,726,미국,미국,유니버설픽쳐스인터내셔널 코리아(유),"애니메이션, 코미디, 가족"
344,조작된 도시,2017.2.9,20138295587,2514943,1019,한국,한국,(주)씨제이이엔엠,"범죄, 액션"
345,공동경비구역 JSA,2000.9.8,0,2513540,0,한국,한국,CJ ENM,"드라마, 미스터리"
346,"나니아 연대기-사자,마녀 그리고 옷장",2005.12.29,0,2505133,80,미국,미국,브에나비스타인터내셔널코리아,"가족, 어드벤처, 판타지"
347,터미네이터 3,2003.7.25,0,2491354,88,미국,미국,(주)시네마서비스,"SF, 액션, 범죄"
348,블랙머니,2019.11.13,20866634010,2479664,1117,한국,한국,(주)에이스메이커무비웍스,"범죄, 드라마"
349,우리 형,2004.10.8,0,2479585,77,한국,한국,CJ ENM,드라마
350,반창꼬,2012.12.19,17911274787,2475797,466,한국,한국,(주)넥스트엔터테인먼트월드(NEW),멜로/로맨스
351,박수칠 때 떠나라,2005.8.11,0,2475291,78,한국,한국,(주)시네마서비스,"드라마, 코미디, 미스터리"
352,선생 김봉두,2003.3.28,0,2472135,60,한국,한국,(주)시네마서비스,코미디
353,보스 베이비,2017.5.3,18934037704,2451919,1116,미국,미국,(주)씨제이이엔엠,"애니메이션, 코미디, 가족"
354,조선명탐정: 흡혈괴마의 비밀,2018.2.8,19822724764,2444123,1249,한국,한국,(주)쇼박스,"사극, 어드벤처, 코미디"
355,화차,2012.3.8,18459203000,2436400,548,한국,한국,필라멘트픽쳐스,미스터리
356,이웃사람,2012.8.22,18087442369,2434099,600,한국,한국,롯데쇼핑㈜롯데엔터테인먼트,스릴러
357,광식이 동생 광태,2005.11.23,0,2430200,83,한국,한국,(주)엠케이픽처스,코미디
358,재심,2017.2.15,19264792637,2421011,935,한국,한국,"오퍼스픽쳐스(유),CGV아트하우스",드라마
359,신비한 동물들과 그린델왈드의 범죄,2018.11.14,20816583118,2414062,1601,미국,미국,워너브러더스 코리아(주),판타지
360,터미네이터: 다크 페이트,2019.10.30,20167141830,2410227,1315,미국,미국,월트디즈니컴퍼니코리아 유한책임회사,"액션, 어드벤처, SF"
361,히트맨,2020.1.22,20614278000,2406232,1122,한국,한국,롯데컬처웍스(주)롯데엔터테인먼트,"코미디, 액션"
362,사바하,2019.2.20,20007508194,2398519,1174,한국,한국,(주)씨제이이엔엠,"미스터리, 스릴러"
363,화이: 괴물을 삼킨 아이,2013.10.9,17695516795,2394466,817,한국,한국,(주)쇼박스,"액션, 스릴러"
364,의뢰인,2011.9.29,17797042500,2393086,522,한국,한국,(주)쇼박스,스릴러
365,테이큰,2008.4.9,15971389000,2379830,254,프랑스,프랑스,㈜스튜디오이쩜영,"범죄, 스릴러, 액션"
366,007 스카이폴,2012.10.26,17487213000,2376145,748,미국,"미국,영국",소니픽쳐스릴리징월트디즈니스튜디오스코리아(주),액션
367,가문의 영광4 - 가문의 수난,2011.9.7,17792219500,2368267,537,한국,한국,(주)넥스트엔터테인먼트월드(NEW),코미디
368,스파이더맨 2,2004.6.30,0,2367704,72,미국,미국,한국소니픽쳐스릴리징브에나비스타영화㈜,SF
369,블라인드,2011.8.10,18387176500,2367272,404,한국,한국,(주)넥스트엔터테인먼트월드(NEW),스릴러
370,박열,2017.6.28,18093543795,2359174,1176,한국,한국,플러스엠 엔터테인먼트,드라마
371,맨발의 기봉이,2006.4.26,0,2347311,71,한국,한국,(주)쇼박스,"드라마, 코미디, 가족"
372,바람의 파이터,2004.8.12,0,2346446,41,한국,한국,영화사청어람(주),액션
373,작업의 정석,2005.12.21,0,2342232,75,한국,한국,(주)쇼박스,코미디
374,첫사랑 사수 궐기 대회,2003.6.27,0,2339410,70,한국,한국,(주)시네마서비스,코미디
375,미인도,2008.11.13,15531621371,2325715,463,한국,한국,CJ ENM,"사극, 드라마, 멜로/로맨스"
376,스파이,2015.5.21,18417637358,2318748,665,미국,미국,이십세기폭스코리아(주),"액션, 코미디"
377,라스트 갓파더,2010.12.29,16832542997,2316099,547,한국,"한국,미국",CJ ENM,코미디
378,모아나,2017.1.12,18055062307,2310054,953,미국,미국,월트디즈니컴퍼니코리아 유한책임회사,애니메이션
379,주유소 습격사건,1999.10.2,0,2310000,0,한국,한국,(주)시네마서비스,"코미디, 액션"
380,테이큰 2,2012.9.27,17581098553,2308596,682,프랑스,프랑스,이십세기폭스코리아(주),"액션, 범죄, 드라마"
381,하녀,2010.5.13,17310669976,2304487,577,한국,한국,(주)싸이더스,"스릴러, 멜로/로맨스"
382,메이즈 러너: 데스 큐어,2018.1.17,18902873104,2299732,1090,미국,미국,이십세기폭스코리아(주),"액션, SF, 스릴러"
383,맘마미아!2,2018.8.8,19607280003,2293836,750,미국,미국,유니버설픽쳐스인터내셔널 코리아(유),뮤지컬
384,분노의 질주: 더 얼티메이트,2021.5.19,22059658060,2292415,2297,미국,미국,유니버설픽쳐스인터내셔널 코리아(유),액션
385,"달콤, 살벌한 연인",2006.4.6,0,2286745,60,한국,한국,CJ ENM,"스릴러, 멜로/로맨스"
386,호빗: 스마우그의 폐허,2013.12.12,17850613316,2282744,811,미국,"미국,뉴질랜드",워너브러더스 코리아(주),"어드벤처, 드라마, 판타지"
387,나잇&데이,2010.6.24,17054262425,2282191,501,미국,미국,이십세기폭스코리아(주),"액션, 코미디"
388,혈의 누,2005.5.4,0,2274995,98,한국,한국,(주)시네마서비스,스릴러
389,미니언즈2,2022.7.20,21996551672,2268518,1394,미국,미국,유니버설픽쳐스인터내셔널 코리아(유),"애니메이션, 어드벤처, 코미디"
390,컨저링,2013.9.17,16353225777,2262758,553,미국,미국,워너브러더스 코리아(주),"공포(호러), 스릴러"
391,슈렉 포에버,2010.7.1,23178925617,2261356,561,미국,미국,CJ ENM,"애니메이션, 코미디, 가족"
392,극락도 살인사건,2007.4.12,0,2259511,85,한국,한국,"(주)엠케이픽처스 ,(주)두엔터테인먼트","공포(호러), 미스터리, 스릴러"
393,이글 아이,2008.10.9,14577167667,2258369,330,미국,미국,CJ ENM,"액션, 스릴러, 미스터리"
394,배트맨 대 슈퍼맨: 저스티스의 시작,2016.3.24,18906246428,2256913,1709,미국,미국,워너브러더스 코리아(주),"액션, 어드벤처, 판타지"
395,레디 플레이어 원,2018.3.28,19933108071,2254430,1079,미국,미국,워너브러더스 코리아(주),"액션, SF, 어드벤처"
396,위대한 유산,2003.10.24,0,2251491,57,한국,한국,CJ ENM,코미디
397,7광구,2011.8.4,19391653500,2242510,812,한국,한국,(주)씨제이이엔엠,"SF, 액션, 스릴"
398,배틀쉽,2012.4.11,16545921500,2241687,736,미국,미국,유니버설픽쳐스인터내셔널 코리아(유),"SF, 액션"
399,매트릭스3 레볼루션,2003.11.5,0,2240000,112,미국,미국,워너브러더스 코리아(주),"SF, 액션, 범죄"
400,셜록홈즈 : 그림자 게임,2011.12.21,16670913500,2239156,370,미국,미국,워너브러더스 코리아(주),"액션, 미스터리"
401,박쥐,2009.4.30,15051788827,2237271,462,한국,"한국,미국,호주",CJ ENM,
402,타짜: 원 아이드 잭,2019.9.11,19687029214,2229239,1429,한국,한국,롯데컬처웍스(주)롯데엔터테인먼트,
403,어거스트 러쉬,2007.11.29,,2218573,68,미국,미국,"(주)영화사 그램,CJ ENM",
404,나는 전설이다,2007.12.12,,2215883,127,미국,미국,워너브러더스 코리아(주),
405,포세이돈,2006.5.31,0,2214600,89,미국,미국,워너브러더스 코리아(주),
406,셜록 홈즈,2009.12.23,16207513113,2207751,377,미국,"미국,영국",워너브러더스 코리아(주),
407,싱글즈,2003.7.11,,2203042,58,한국,한국,영화사청어람(주),
408,마당을 나온 암탉,2011.7.28,14669905500,2201722,345,한국,한국,롯데쇼핑㈜롯데엔터테인먼트,
409,007 퀀텀 오브 솔러스,2008.11.5,14366688333,2201300,518,미국,미국,한국소니픽쳐스릴리징브에나비스타영화㈜,
410,내 여자친구를 소개합니다,2004.6.3,0,2199359,75,한국,한국,"CJ ENM,아이러브시네마",
411,댄서의 순정,2005.4.28,0,2197555,68,한국,한국,쇼이스트(주),
412,싱크홀,2021.8.11,21395652690,2195683,1603,한국,한국,(주)쇼박스,
413,악의 연대기,2015.5.14,17361815332,2192525,776,한국,한국,(주)씨제이이엔엠,
414,강남 1970,2015.1.21,17717971499,2192172,841,한국,한국,(주)쇼박스,
415,바르게 살자,2007.10.18,0,2190250,79,한국,한국,CJ ENM,
416,늑대의 유혹,2004.7.22,0,2189453,40,한국,한국,(주)쇼박스,
417,이상한 나라의 앨리스,2010.3.4,20661000236,2182365,401,미국,미국,한국소니픽쳐스릴리징브에나비스타영화㈜,
418,맨 오브 스틸,2013.6.13,17092964063,2182227,998,미국,미국,워너브러더스 코리아(주),
419,로건,2017.3.1,18391060223,2169109,954,미국,미국,"월트디즈니컴퍼니코리아 유한책임회사,이십세기폭스코리아(주)",
420,황해,2010.12.22,16765970362,2167426,618,한국,"한국,미국,중국","(주)쇼박스,이십세기폭스코리아(주)",
421,원더 우먼,2017.5.31,17468588886,2165401,1034,미국,미국,워너브러더스 코리아(주),
422,초능력자,2010.11.10,15618440958,2164805,622,한국,한국,(주)넥스트엔터테인먼트월드(NEW),
423,내 사랑 내 곁에,2009.9.24,15764312409,2160265,474,한국,한국,CJ ENM,
424,신의 한 수: 귀수편,2019.11.7,18463776050,2157437,1246,한국,한국,(주)씨제이이엔엠,
425,극장판 귀멸의 칼날: 무한열차편,2021.1.27,20656041700,2151861,380,일본,일본,워터홀컴퍼니(주),
426,마이 웨이,2011.12.21,15994803000,2142622,645,한국,"한국,일본,중국","에스케이플래닛(주),(주)씨제이이엔엠",
427,나의 사랑 나의 신부,2014.10.8,16636404305,2141155,629,한국,한국,씨네그루(주)다우기술,
428,겟 아웃,2017.5.17,17431570075,2138146,945,미국,미국,유니버설픽쳐스인터내셔널 코리아(유),
429,범죄의 재구성,2004.4.15,0,2129358,50,한국,한국,(주)쇼박스,
430,사랑,2007.9.19,0,2123815,78,한국,한국,롯데쇼핑㈜롯데엔터테인먼트,
431,베놈 2: 렛 데어 비 카니지,2021.10.13,21116442890,2123652,1998,미국,미국,소니픽쳐스엔터테인먼트코리아주식회사극장배급지점,
432,세븐 데이즈,2007.11.14,38146000,2120741,297,한국,한국,(주)프라임엔터테인먼트,
433,굿바이 싱글,2016.6.29,16912706195,2108273,841,한국,한국,(주)쇼박스,
434,이클립스,2010.7.7,15192541723,2105050,535,미국,미국,(주)넥스트엔터테인먼트월드(NEW),
435,사생결단,2006.4.27,0,2104716,78,한국,한국,(주)씨제이이엔엠,
436,엑스맨 : 최후의 전쟁,2006.6.15,0,2096180,112,미국,미국,이십세기폭스코리아(주),
437,몽타주,2013.5.16,15002458500,2095592,540,한국,한국,(주)넥스트엔터테인먼트월드(NEW),
438,색즉시공 시즌2,2007.12.12,511288500,2088134,89,한국,한국,CJ ENM,
439,명당,2018.9.19,17900775524,2087474,1117,한국,한국,플러스엠 엔터테인먼트,
440,논스톱,2014.2.27,16066174940,2084457,582,미국,"미국,프랑스",(주)넥스트엔터테인먼트월드(NEW),
441,내부자들: 디 오리지널,2015.12.31,16973885275,2083999,838,한국,한국,(주)쇼박스,
442,쩨쩨한 로맨스,2010.12.1,15901620661,2080574,463,한국,한국,롯데쇼핑㈜롯데엔터테인먼트,
443,장화신은 고양이,2012.1.12,17601188500,2080154,593,미국,미국,(주)씨제이이엔엠,
444,인투 더 스톰,2014.8.28,16155930332,2078492,585,미국,미국,워너브러더스 코리아(주),
445,청춘만화,2006.3.23,0,2066354,86,한국,한국,(주)쇼박스,
446,눈에는 눈 이에는 이,2008.7.31,13414023500,2058764,445,한국,한국,롯데쇼핑㈜롯데엔터테인먼트,
447,비상선언,2022.8.3,20926363328,2058760,1734,한국,한국,(주)쇼박스,
448,뷰티 인사이드,2015.8.20,16155795131,2054297,648,한국,한국,(주)넥스트엔터테인먼트월드(NEW),
449,본 얼티메이텀,2007.9.12,0,2052800,69,미국,미국,유니버설픽쳐스인터내셔널 코리아(유),
450,혹성탈출: 종의 전쟁,2017.8.15,16854482778,2051315,1017,미국,미국,이십세기폭스코리아(주),
451,봉이 김선달,2016.7.6,16227052642,2051277,942,한국,한국,(주)씨제이이엔엠,
452,아라한 장풍대작전,2004.4.30,0,2050000,87,한국,한국,(주)시네마서비스,
453,소울,2021.1.20,19034164180,2048137,2018,미국,미국,월트디즈니컴퍼니코리아 유한책임회사,
454,비열한 거리,2006.6.15,0,2047808,82,한국,한국,CJ ENM,
455,노아,2014.3.20,15514083500,2026574,952,미국,미국,(주)씨제이이엔엠,
456,캐리비안의 해적 : 블랙펄의 저주,2003.9.5,0,2010460,57,미국,미국,월트디즈니코리아㈜,
457,레버넌트: 죽음에서 돌아온 자,2016.1.14,16111255130,2007657,967,미국,미국,이십세기폭스코리아(주),
458,오페라의 유령,2004.12.8,0,2006880,71,미국,미국,"(주)팝엔터테인먼트,(주)드림팩트엔터테인먼트,CJ ENM",
459,테이큰 3,2015.1.1,16102014000,2006561,616,미국,미국,이십세기폭스코리아(주),
460,페르시아의 왕자: 시간의 모래,2010.5.27,14717552534,2003533,570,미국,미국,한국소니픽쳐스릴리징브에나비스타영화㈜,
461,박물관이 살아있다 2,2009.6.4,12591000149,2002526,569,미국,미국,이십세기폭스코리아(주),
462,천문: 하늘에 묻는다,2019.12.26,16502543020,2000490,1198,한국,한국,롯데컬처웍스(주)롯데엔터테인먼트,
463,테넷,2020.8.26,18464298170,1998987,2228,미국,미국,워너브러더스 코리아(주),
464,시실리 2km,2004.8.13,0,1987380,36,한국,한국,(주)쇼박스,
465,크루엘라,2021.5.26,19252879640,1983397,1184,미국,미국,월트디즈니컴퍼니코리아 유한책임회사,
466,남자가 사랑할 때,2014.1.22,14510222300,1979311,531,한국,한국,(주)넥스트엔터테인먼트월드(NEW),
467,육사오(6/45),2022.8.24,19765952880,1977535,1159,한국,한국,"(주)홈초이스,(주)싸이더스",
468,루시,2014.9.3,16468076039,1974893,641,미국,"미국,프랑스",유니버설픽쳐스인터내셔널 코리아(유),
469,효자동 이발사,2004.5.5,0,1972377,65,한국,한국,(주)쇼박스,
470,타이타닉,1998.2.20,0,1971780,0,미국,미국,"씨네힐,이십세기폭스코리아(주)",
471,협상,2018.9.19,17032133166,1967721,919,한국,한국,(주)씨제이이엔엠,
472,알리타: 배틀 엔젤,2019.2.5,18569763667,1951889,1043,미국,미국,"월트디즈니컴퍼니코리아 유한책임회사,이십세기폭스코리아(주)",
473,뉴 문,2009.12.2,13988362067,1949027,532,미국,미국,(주)넥스트엔터테인먼트월드(NEW),
474,천사와 악마,2009.5.14,12734649711,1936321,558,미국,미국,한국소니픽쳐스릴리징브에나비스타영화㈜,
475,애나벨 : 인형의 주인,2017.8.10,15526858738,1934192,1006,미국,미국,워너브러더스 코리아(주),
476,가족,2004.9.3,0,1932304,44,한국,한국,(주)튜브엔터테인먼트,
477,컨저링 2,2016.6.9,15759374229,1928605,635,미국,미국,워너브러더스 코리아(주),
478,터보,2013.7.25,13113579000,1923748,634,미국,미국,(주)씨제이이엔엠,
479,애자,2009.9.9,13785879439,1922634,262,한국,한국,(주)시너지하우스 (시너지),
480,내안의 그놈,2019.1.9,16412116567,1916855,1041,한국,한국,"(주)메리크리스마스,TCO(주)더콘텐츠온",
481,잠복근무,2005.3.17,0,1914941,64,한국,한국,(주)쇼박스,
482,그림자 살인,2009.4.2,12805808556,1914779,387,한국,한국,CJ ENM,
483,영웅,2003.1.24,0,1910000,47,중국,중국,"(유)조이앤시네마,코리아픽쳐스(주)",
484,#살아있다,2020.6.24,15965329900,1903703,1882,한국,한국,롯데컬처웍스(주)롯데엔터테인먼트,
485,수어사이드 스쿼드,2016.8.3,15873106188,1898121,823,미국,미국,워너브러더스 코리아(주),
486,오늘의 연애,2015.1.14,14924654487,1891993,709,한국,한국,(주)씨제이이엔엠,
487,글러브,2011.1.20,13757574500,1888100,605,한국,한국,CJ ENM,
488,러브 액츄얼리,2003.12.5,0,1887000,41,미국,"미국,영국","(주)제이앤씨미디어그룹,와이드 릴리즈(주),UIP코리아,(유)조이앤시네마",
489,헤어질 결심,2022.6.29,19565813424,1886250,1374,한국,한국,(주)씨제이이엔엠,
490,라디오 스타,2006.9.28,0,1879501,72,한국,한국,(주)시네마서비스,
491,퍼시 잭슨과 번개 도둑,2010.2.11,13372357257,1877226,353,미국,미국,이십세기폭스코리아(주),
492,해결사,2010.9.9,14063913437,1873327,524,한국,한국,"(주)넥스트엔터테인먼트월드(NEW),(주)에스비에스콘텐츠허브",
493,코리아,2012.5.3,13448848500,1872681,537,한국,한국,(주)씨제이이엔엠,
494,아이들...,2011.2.17,13579712500,1867849,504,한국,한국,롯데쇼핑㈜롯데엔터테인먼트,
495,"색, 계",2007.11.8,0,1866900,69,미국,미국,"(주)제이앤씨미디어그룹,CJ ENM",
496,연애의 온도,2013.3.21,13798864446,1865195,567,한국,한국,롯데쇼핑㈜롯데엔터테인먼트,
497,마약왕,2018.12.19,16222446942,1864076,1297,한국,한국,(주)쇼박스,
498,구세주,2006.2.16,0,1858668,54,한국,한국,쇼이스트(주),
499,조폭마누라2-돌아온 전설,2003.9.5,,1858077,55,한국,한국,CJ ENM,
500,지.아이.조 2,2013.3.28,14457048500,1855917,766,미국,"미국,캐나다",(주)씨제이이엔엠,
